%!PS-Adobe-3.0
%%BoundingBox: 0 0 595 842
%%HiResBoundingBox: 0 0 595.0000 842.0000
%%Title: GMT v6.4.0_71c274e-dirty_2022.04.04 [64-bit] Document from plot
%%Creator: GMT6
%%For: unknown
%%DocumentNeededResources: font Helvetica
%%CreationDate: Mon Apr  4 12:14:02 2022
%%LanguageLevel: 2
%%DocumentData: Clean7Bit
%%Orientation: Portrait
%%Pages: 1
%%EndComments
%%BeginProlog
250 dict begin
/! {bind def} bind def
/# {load def}!
/A /setgray #
/B /setdash #
/C /setrgbcolor #
/D /rlineto #
/E {dup stringwidth pop}!
/F /fill #
/G /rmoveto #
/H /sethsbcolor #
/I /setpattern #
/K /setcmykcolor #
/L /lineto #
/M /moveto #
/N /newpath #
/P /closepath #
/R /rotate #
/S /stroke #
/T /translate #
/U /grestore #
/V /gsave #
/W /setlinewidth #
/Y {findfont exch scalefont setfont}!
/Z /show #
/FP {true charpath flattenpath}!
/MU {matrix setmatrix}!
/MS {/SMat matrix currentmatrix def}!
/MR {SMat setmatrix}!
/edef {exch def}!
/FS {/fc edef /fs {V fc F U} def}!
/FQ {/fs {} def}!
/O0 {/os {N} def}!
/O1 {/os {P S} def}!
/FO {fs os}!
/Sa {M MS dup 0 exch G 0.726542528 mul -72 R dup 0 D 4 {72 R dup 0 D -144 R dup 0 D} repeat pop MR FO}!
/Sb {M dup 0 D exch 0 exch D neg 0 D FO}!
/SB {MS T /BoxR edef /BoxW edef /BoxH edef BoxR 0 M
  BoxW 0 BoxW BoxH BoxR arct BoxW BoxH 0 BoxH BoxR arct 0 BoxH 0 0 BoxR arct 0 0 BoxW 0 BoxR arct MR FO}!
/Sc {N 3 -1 roll 0 360 arc FO}!
/Sd {M 4 {dup} repeat 0 G neg dup dup D exch D D FO}!
/Se {N MS T R scale 0 0 1 0 360 arc MR FO}!
/Sg {M MS 22.5 R dup 0 exch G -22.5 R 0.765366865 mul dup 0 D 6 {-45 R dup 0 D} repeat pop MR FO}!
/Sh {M MS dup 0 G -120 R dup 0 D 4 {-60 R dup 0 D} repeat pop MR FO}!
/Si {M MS dup neg 0 exch G 60 R 1.732050808 mul dup 0 D 120 R 0 D MR FO}!
/Sj {M MS R dup -2 div 2 index -2 div G dup 0 D exch 0 exch D neg 0 D MR FO}!
/Sn {M MS dup 0 exch G -36 R 1.175570505 mul dup 0 D 3 {-72 R dup 0 D} repeat pop MR FO}!
/Sp {N 3 -1 roll 0 360 arc fs N}!
/SP {M {D} repeat FO}!
/Sr {M dup -2 div 2 index -2 div G dup 0 D exch 0 exch D neg 0 D FO}!
/SR {MS T /BoxR edef /BoxW edef /BoxH edef BoxR BoxW -2 div BoxH -2 div T BoxR 0 M
  BoxW 0 BoxW BoxH BoxR arct BoxW BoxH 0 BoxH BoxR arct 0 BoxH 0 0 BoxR arct 0 0 BoxW 0 BoxR arct MR FO}!
/Ss {M 1.414213562 mul dup dup dup -2 div dup G 0 D 0 exch D neg 0 D FO}!
/St {M MS dup 0 exch G -60 R 1.732050808 mul dup 0 D -120 R 0 D MR FO}!
/SV {0 exch M 0 D D D D D 0 D FO}!
/Sv {0 0 M D D 0 D D D D D 0 D D FO}!
/Sw {2 copy M 5 2 roll arc FO}!
/Sx {M 1.414213562 mul 5 {dup} repeat -2 div dup G D neg 0 G neg D S}!
/Sy {M dup 0 exch G dup -2 mul dup 0 exch D S}!
/S+ {M dup 0 G dup -2 mul dup 0 D exch dup G 0 exch D S}!
/S- {M dup 0 G dup -2 mul dup 0 D S}!
/sw {stringwidth pop}!
/sh {V MU 0 0 M FP pathbbox N 4 1 roll pop pop pop U}!
/sd {V MU 0 0 M FP pathbbox N pop pop exch pop U}!
/sH {V MU 0 0 M FP pathbbox N exch pop exch sub exch pop U}!
/sb {E exch sh}!
/bl {}!
/bc {E -2 div 0 G}!
/br {E neg 0 G}!
/ml {dup 0 exch sh -2 div G}!
/mc {dup E -2 div exch sh -2 div G}!
/mr {dup E neg exch sh -2 div G}!
/tl {dup 0 exch sh neg G}!
/tc {dup E -2 div exch sh neg G}!
/tr {dup E neg exch sh neg G}!
/mx {2 copy lt {exch} if pop}!
/PSL_xorig 0 def /PSL_yorig 0 def
/TM {2 copy T PSL_yorig add /PSL_yorig edef PSL_xorig add /PSL_xorig edef}!
/PSL_reencode {findfont dup length dict begin
  {1 index /FID ne {def}{pop pop} ifelse} forall
  exch /Encoding edef currentdict end definefont pop
}!
/PSL_eps_begin {
  /PSL_eps_state save def
  /PSL_dict_count countdictstack def
  /PSL_op_count count 1 sub def
  userdict begin
  /showpage {} def
  0 setgray 0 setlinecap 1 setlinewidth
  0 setlinejoin 10 setmiterlimit [] 0 setdash newpath
  /languagelevel where
  {pop languagelevel 1 ne {false setstrokeadjust false setoverprint} if} if
}!
/PSL_eps_end {
  count PSL_op_count sub {pop} repeat
  countdictstack PSL_dict_count sub {end} repeat
  PSL_eps_state restore
}!
/PSL_transp {
  /PSL_BM_arg edef /PSL_S_arg edef /PSL_F_arg edef
  /.setfillconstantalpha where
  { pop PSL_BM_arg .setblendmode PSL_S_arg .setstrokeconstantalpha PSL_F_arg .setfillconstantalpha }
  { /pdfmark where {pop [ /BM PSL_BM_arg /CA PSL_S_arg /ca PSL_F_arg /SetTransparency pdfmark} if }
  ifelse
}!
/ISOLatin1+_Encoding [
/.notdef	/.notdef	/.notdef	/.notdef	/.notdef	/.notdef	/.notdef	/.notdef
/.notdef	/.notdef	/.notdef	/.notdef	/.notdef	/.notdef	/.notdef	/.notdef
/.notdef	/.notdef	/.notdef	/.notdef	/.notdef	/.notdef	/.notdef	/.notdef
/.notdef	/bullet		/ellipsis	/trademark	/emdash		/endash		/fi		/zcaron
/space		/exclam		/quotedbl	/numbersign	/dollar		/percent	/ampersand	/quoteright
/parenleft	/parenright	/asterisk	/plus		/comma		/minus		/period		/slash
/zero		/one		/two		/three		/four		/five		/six		/seven
/eight		/nine		/colon		/semicolon	/less		/equal		/greater	/question
/at		/A		/B		/C		/D		/E		/F		/G
/H		/I		/J		/K		/L		/M		/N		/O
/P		/Q		/R		/S		/T		/U		/V		/W
/X		/Y		/Z		/bracketleft	/backslash	/bracketright	/asciicircum	/underscore
/quoteleft	/a		/b		/c 		/d		/e		/f		/g
/h		/i		/j		/k		/l		/m		/n		/o
/p		/q		/r		/s		/t		/u		/v		/w
/x		/y		/z		/braceleft	/bar		/braceright	/asciitilde	/scaron
/OE		/dagger		/daggerdbl	/Lslash		/fraction	/guilsinglleft	/Scaron		/guilsinglright
/oe		/Ydieresis	/Zcaron		/lslash		/perthousand	/quotedblbase	/quotedblleft	/quotedblright
/dotlessi	/grave		/acute		/circumflex	/tilde		/macron		/breve		/dotaccent
/dieresis	/quotesinglbase	/ring		/cedilla	/quotesingle	/hungarumlaut	/ogonek		/caron
/space		/exclamdown	/cent		/sterling	/currency	/yen		/brokenbar	/section
/dieresis	/copyright	/ordfeminine	/guillemotleft	/logicalnot	/hyphen		/registered	/macron
/degree		/plusminus	/twosuperior	/threesuperior	/acute		/mu		/paragraph	/periodcentered
/cedilla	/onesuperior	/ordmasculine	/guillemotright	/onequarter	/onehalf	/threequarters	/questiondown
/Agrave		/Aacute		/Acircumflex	/Atilde		/Adieresis	/Aring		/AE		/Ccedilla
/Egrave		/Eacute		/Ecircumflex	/Edieresis	/Igrave		/Iacute		/Icircumflex	/Idieresis
/Eth		/Ntilde		/Ograve		/Oacute		/Ocircumflex	/Otilde		/Odieresis	/multiply
/Oslash		/Ugrave		/Uacute		/Ucircumflex	/Udieresis	/Yacute		/Thorn		/germandbls
/agrave		/aacute		/acircumflex	/atilde		/adieresis	/aring		/ae		/ccedilla
/egrave		/eacute		/ecircumflex	/edieresis	/igrave		/iacute		/icircumflex	/idieresis
/eth		/ntilde		/ograve		/oacute		/ocircumflex	/otilde		/odieresis	/divide
/oslash		/ugrave		/uacute		/ucircumflex	/udieresis	/yacute		/thorn		/ydieresis
] def
/PSL_font_encode 0 0 0 0 0 0 0 0 0 0 0 0 0 0 0 0 0 0 0 0 0 0 0 0 0 0 0 0 0 0 0 0 0 0 0 0 0 0 0 39 array astore def
/F0 {/Helvetica Y}!
/F1 {/Helvetica-Bold Y}!
/F2 {/Helvetica-Oblique Y}!
/F3 {/Helvetica-BoldOblique Y}!
/F4 {/Times-Roman Y}!
/F5 {/Times-Bold Y}!
/F6 {/Times-Italic Y}!
/F7 {/Times-BoldItalic Y}!
/F8 {/Courier Y}!
/F9 {/Courier-Bold Y}!
/F10 {/Courier-Oblique Y}!
/F11 {/Courier-BoldOblique Y}!
/F12 {/Symbol Y}!
/F13 {/AvantGarde-Book Y}!
/F14 {/AvantGarde-BookOblique Y}!
/F15 {/AvantGarde-Demi Y}!
/F16 {/AvantGarde-DemiOblique Y}!
/F17 {/Bookman-Demi Y}!
/F18 {/Bookman-DemiItalic Y}!
/F19 {/Bookman-Light Y}!
/F20 {/Bookman-LightItalic Y}!
/F21 {/Helvetica-Narrow Y}!
/F22 {/Helvetica-Narrow-Bold Y}!
/F23 {/Helvetica-Narrow-Oblique Y}!
/F24 {/Helvetica-Narrow-BoldOblique Y}!
/F25 {/NewCenturySchlbk-Roman Y}!
/F26 {/NewCenturySchlbk-Italic Y}!
/F27 {/NewCenturySchlbk-Bold Y}!
/F28 {/NewCenturySchlbk-BoldItalic Y}!
/F29 {/Palatino-Roman Y}!
/F30 {/Palatino-Italic Y}!
/F31 {/Palatino-Bold Y}!
/F32 {/Palatino-BoldItalic Y}!
/F33 {/ZapfChancery-MediumItalic Y}!
/F34 {/ZapfDingbats Y}!
/F35 {/Ryumin-Light-EUC-H Y}!
/F36 {/Ryumin-Light-EUC-V Y}!
/F37 {/GothicBBB-Medium-EUC-H Y}!
/F38 {/GothicBBB-Medium-EUC-V Y}!
/PSL_pathtextdict 26 dict def
/PSL_pathtext
  {PSL_pathtextdict begin
    /ydepth exch def
    /textheight exch def
    /just exch def
    /offset exch def
    /str exch def
    /pathdist 0 def
    /setdist offset def
    /charcount 0 def
    /justy just 4 idiv textheight mul 2 div neg ydepth sub def
    V flattenpath
	{movetoproc} {linetoproc}
	{curvetoproc} {closepathproc}
	pathforall
    U N
    end
  } def
PSL_pathtextdict begin
/movetoproc
  { /newy exch def /newx exch def
    /firstx newx def /firsty newy def
    /ovr 0 def
    newx newy transform
    /cpy exch def /cpx exch def
  } def
/linetoproc
  { /oldx newx def /oldy newy def
    /newy exch def /newx exch def
    /dx newx oldx sub def
    /dy newy oldy sub def
    /dist dx dup mul dy dup mul add sqrt def
    dist 0 ne
    { /dsx dx dist div ovr mul def
      /dsy dy dist div ovr mul def
      oldx dsx add oldy dsy add transform
      /cpy exch def /cpx exch def
      /pathdist pathdist dist add def
      {setdist pathdist le
	  {charcount str length lt
	      {setchar} {exit} ifelse}
	  { /ovr setdist pathdist sub def
	    exit}
	  ifelse
      } loop
    } if
  } def
/curvetoproc
  { (ERROR: No curveto's after flattenpath!)
    print
  } def
/closepathproc
  {firstx firsty linetoproc
    firstx firsty movetoproc
  } def
/setchar
  { /char str charcount 1 getinterval def
    /charcount charcount 1 add def
    /charwidth char stringwidth pop def
    V cpx cpy itransform T
      dy dx atan R
      0 justy M
      PSL_font_F {
        char show}
      if
      PSL_font_FO {
        currentpoint N M V char true charpath fs U V char false charpath S U char E 0 G
      } if
      PSL_font_OF {
        currentpoint N M V char false charpath S U V char true charpath fs U char E 0 G
      } if
      0 justy neg G currentpoint transform
      /cpy exch def /cpx exch def
    U /setdist setdist charwidth add def
  } def
end
/PSL_set_label_heights
{
  /PSL_n_labels_minus_1 PSL_n_labels 1 sub def
  /PSL_heights PSL_n_labels array def
  0 1 PSL_n_labels_minus_1
  { /psl_k exch def
    /psl_label PSL_label_str psl_k get def
    PSL_label_font psl_k get cvx exec
    psl_label sH /PSL_height edef
    PSL_heights psl_k PSL_height put
  } for
} def
/PSL_curved_path_labels
{ /psl_bits exch def
  /PSL_placetext psl_bits 2 and 2 eq def
  /PSL_clippath psl_bits 4 and 4 eq def
  /PSL_strokeline false def
  /PSL_fillbox psl_bits 128 and 128 eq def
  /PSL_drawbox psl_bits 256 and 256 eq def
  /PSL_font_F  psl_bits 1536 and 0 eq def
  /PSL_font_FO psl_bits 512 and 512 eq def
  /PSL_font_OF psl_bits 1024 and 1024 eq def
  /PSL_n_paths1 PSL_n_paths 1 sub def
  /PSL_usebox PSL_fillbox PSL_drawbox or def
  PSL_clippath {clipsave N clippath} if
  /psl_k 0 def
  /psl_p 0 def
  0 1 PSL_n_paths1
  { /psl_kk exch def
    /PSL_n PSL_path_n  psl_kk get def
    /PSL_m PSL_label_n psl_kk get def
    /PSL_x PSL_path_x psl_k PSL_n getinterval def
    /PSL_y PSL_path_y psl_k PSL_n getinterval def
    /PSL_node_tmp PSL_label_node psl_p PSL_m getinterval def
    /PSL_angle_tmp PSL_label_angle psl_p PSL_m getinterval def
    /PSL_str_tmp PSL_label_str psl_p PSL_m getinterval def
    /PSL_fnt_tmp PSL_label_font psl_p PSL_m getinterval def
    PSL_curved_path_label
    /psl_k psl_k PSL_n add def
    /psl_p psl_p PSL_m add def
  } for
  PSL_clippath {PSL_eoclip} if N
} def
/PSL_curved_path_label
{
  /PSL_n1 PSL_n 1 sub def
  /PSL_m1 PSL_m 1 sub def
  PSL_CT_calcstringwidth
  PSL_CT_calclinedist
  PSL_CT_excludelabels
  PSL_CT_addcutpoints
  /PSL_nn1 PSL_nn 1 sub def
  /n 0 def
  /k 0 def
  /j 0 def
  /PSL_seg 0 def
  /PSL_xp PSL_nn array def
  /PSL_yp PSL_nn array def
  PSL_xp 0 PSL_xx 0 get put
  PSL_yp 0 PSL_yy 0 get put
  1 1 PSL_nn1
  { /i exch def
    /node_type PSL_kind i get def
    /j j 1 add def
    PSL_xp j PSL_xx i get put
    PSL_yp j PSL_yy i get put
    node_type 1 eq
    {n 0 eq
      {PSL_CT_drawline}
      {
        PSL_CT_reversepath
	      PSL_CT_textline}
      ifelse
      /j 0 def
      PSL_xp j PSL_xx i get put
      PSL_yp j PSL_yy i get put
    } if
  } for
  n 0 eq {PSL_CT_drawline} if
} def
/PSL_CT_textline
{ PSL_fnt k get cvx exec
  /PSL_height PSL_heights k get def
  PSL_placetext	{PSL_CT_placelabel} if
  PSL_clippath {PSL_CT_clippath} if
  /n 0 def /k k 1 add def
} def
/PSL_CT_calcstringwidth
{ /PSL_width_tmp PSL_m array def
  0 1 PSL_m1
  { /i exch def
    PSL_fnt_tmp i get cvx exec
    PSL_width_tmp i PSL_str_tmp i get stringwidth pop put
  } for
} def
/PSL_CT_calclinedist
{ /PSL_newx PSL_x 0 get def
  /PSL_newy PSL_y 0 get def
  /dist 0.0 def
  /PSL_dist PSL_n array def
  PSL_dist 0 0.0 put
  1 1 PSL_n1
  { /i exch def
    /PSL_oldx PSL_newx def
    /PSL_oldy PSL_newy def
    /PSL_newx PSL_x i get def
    /PSL_newy PSL_y i get def
    /dx PSL_newx PSL_oldx sub def
    /dy PSL_newy PSL_oldy sub def
    /dist dist dx dx mul dy dy mul add sqrt add def
    PSL_dist i dist put
  } for
} def
/PSL_CT_excludelabels
{ /k 0 def
  /PSL_width PSL_m array def
  /PSL_angle PSL_m array def
  /PSL_node PSL_m array def
  /PSL_str PSL_m array def
  /PSL_fnt PSL_m array def
  /lastdist PSL_dist PSL_n1 get def
  0 1 PSL_m1
  { /i exch def
    /dist PSL_dist PSL_node_tmp i get get def
    /halfwidth PSL_width_tmp i get 2 div PSL_gap_x add def
    /L_dist dist halfwidth sub def
    /R_dist dist halfwidth add def
    L_dist 0 gt R_dist lastdist lt and
    {
      PSL_width k PSL_width_tmp i get put
      PSL_node k PSL_node_tmp i get put
      PSL_angle k PSL_angle_tmp i get put
      PSL_str k PSL_str_tmp i get put
      PSL_fnt k PSL_fnt_tmp i get put
      /k k 1 add def
    } if
  } for
  /PSL_m k def
  /PSL_m1 PSL_m 1 sub def
} def
/PSL_CT_addcutpoints
{ /k 0 def
  /PSL_nc PSL_m 2 mul 1 add def
  /PSL_cuts PSL_nc array def
  /PSL_nc1 PSL_nc 1 sub def
  0 1 PSL_m1
  { /i exch def
    /dist PSL_dist PSL_node i get get def
    /halfwidth PSL_width i get 2 div PSL_gap_x add def
    PSL_cuts k dist halfwidth sub put
    /k k 1 add def
    PSL_cuts k dist halfwidth add put
    /k k 1 add def
  } for
  PSL_cuts k 100000.0 put
  /PSL_nn PSL_n PSL_m 2 mul add def
  /PSL_xx PSL_nn array def
  /PSL_yy PSL_nn array def
  /PSL_kind PSL_nn array def
  /j 0 def
  /k 0 def
  /dist 0.0 def
  0 1 PSL_n1
  { /i exch def
    /last_dist dist def
    /dist PSL_dist i get def
    k 1 PSL_nc1
    { /kk exch def
      /this_cut PSL_cuts kk get def
      dist this_cut gt
      { /ds dist last_dist sub def
	/f ds 0.0 eq {0.0} {dist this_cut sub ds div} ifelse def
	/i1 i 0 eq {0} {i 1 sub} ifelse def
	PSL_xx j PSL_x i get dup PSL_x i1 get sub f mul sub put
	PSL_yy j PSL_y i get dup PSL_y i1 get sub f mul sub put
	PSL_kind j 1 put
	/j j 1 add def
	/k k 1 add def
      } if
    } for
    dist PSL_cuts k get le
    {PSL_xx j PSL_x i get put PSL_yy j PSL_y i get put
      PSL_kind j 0 put
      /j j 1 add def
    } if
  } for
} def
/PSL_CT_reversepath
{PSL_xp j get PSL_xp 0 get lt
  {0 1 j 2 idiv
    { /left exch def
      /right j left sub def
      /tmp PSL_xp left get def
      PSL_xp left PSL_xp right get put
      PSL_xp right tmp put
      /tmp PSL_yp left get def
      PSL_yp left PSL_yp right get put
      PSL_yp right tmp put
    } for
  } if
} def
/PSL_CT_placelabel
{
  /PSL_just PSL_label_justify k get def
  /PSL_height PSL_heights k get def
  /psl_label PSL_str k get def
  /psl_depth psl_label sd def
  PSL_usebox
  {PSL_CT_clippath
    PSL_fillbox
    {V PSL_setboxrgb fill U} if
    PSL_drawbox
    {V PSL_setboxpen S U} if N
  } if
  PSL_CT_placeline psl_label PSL_gap_x PSL_just PSL_height psl_depth PSL_pathtext
} def
/PSL_CT_clippath
{
  /H PSL_height 2 div PSL_gap_y add def
  /xoff j 1 add array def
  /yoff j 1 add array def
  /angle 0 def
  0 1 j {
    /ii exch def
    /x PSL_xp ii get def
    /y PSL_yp ii get def
    ii 0 eq {
      /x1 PSL_xp 1 get def
      /y1 PSL_yp 1 get def
      /dx x1 x sub def
      /dy y1 y sub def
    }
    { /i1 ii 1 sub def
      /x1 PSL_xp i1 get def
      /y1 PSL_yp i1 get def
      /dx x x1 sub def
      /dy y y1 sub def
    } ifelse
    dx 0.0 eq dy 0.0 eq and not
    { /angle dy dx atan 90 add def} if
    /sina angle sin def
    /cosa angle cos def
    xoff ii H cosa mul put
    yoff ii H sina mul put
  } for
  PSL_xp 0 get xoff 0 get add PSL_yp 0 get yoff 0 get add M
  1 1 j {
    /ii exch def
    PSL_xp ii get xoff ii get add PSL_yp ii get yoff ii get add L
  } for
  j -1 0 {
    /ii exch def
    PSL_xp ii get xoff ii get sub PSL_yp ii get yoff ii get sub L
  } for P
} def
/PSL_CT_drawline
{
  /str 20 string def
  PSL_strokeline
  {PSL_CT_placeline S} if
  /PSL_seg PSL_seg 1 add def
  /n 1 def
} def
/PSL_CT_placeline
{PSL_xp 0 get PSL_yp 0 get M
  1 1 j { /ii exch def PSL_xp ii get PSL_yp ii get L} for
} def
/PSL_draw_path_lines
{
  /PSL_n_paths1 PSL_n_paths 1 sub def
  V
  /psl_start 0 def
  0 1 PSL_n_paths1
  { /psl_k exch def
    /PSL_n PSL_path_n psl_k get def
    /PSL_n1 PSL_n 1 sub def
    PSL_path_pen psl_k get cvx exec
    N
    PSL_path_x psl_start get PSL_path_y psl_start get M
    1 1 PSL_n1
    { /psl_i exch def
      /psl_kk psl_i psl_start add def
      PSL_path_x psl_kk get PSL_path_y psl_kk get L
    } for
    /psl_xclose PSL_path_x psl_kk get PSL_path_x psl_start get sub def
    /psl_yclose PSL_path_y psl_kk get PSL_path_y psl_start get sub def
    psl_xclose 0 eq psl_yclose 0 eq and { P } if
    S
    /psl_start psl_start PSL_n add def
  } for
  U
} def
/PSL_straight_path_labels
{
  /psl_bits exch def
  /PSL_placetext psl_bits 2 and 2 eq def
  /PSL_rounded psl_bits 32 and 32 eq def
  /PSL_fillbox psl_bits 128 and 128 eq def
  /PSL_drawbox psl_bits 256 and 256 eq def
  /PSL_font_F  psl_bits 1536 and 0 eq def
  /PSL_font_FO psl_bits 512 and 512 eq def
  /PSL_font_OF psl_bits 1024 and 1024 eq def
  /PSL_n_labels_minus_1 PSL_n_labels 1 sub def
  /PSL_usebox PSL_fillbox PSL_drawbox or def
  0 1 PSL_n_labels_minus_1
  { /psl_k exch def
    PSL_ST_prepare_text
    PSL_usebox
    {  PSL_rounded
        {PSL_ST_textbox_round}
        {PSL_ST_textbox_rect}
      ifelse
      PSL_fillbox {V PSL_setboxrgb fill U} if
      PSL_drawbox {V PSL_setboxpen S U} if
      N
    } if
    PSL_font_F {
      PSL_placetext {PSL_ST_place_label} if
    } if
    PSL_font_FO {
      PSL_placetext {PSL_ST_place_label_FO} if
    } if
    PSL_font_OF {
      PSL_placetext {PSL_ST_place_label_OF} if
    } if
  } for
} def
/PSL_straight_path_clip
{
  /psl_bits exch def
  /PSL_rounded psl_bits 32 and 32 eq def
  /PSL_n_labels_minus_1 PSL_n_labels 1 sub def
  N clipsave clippath
  0 1 PSL_n_labels_minus_1
  { /psl_k exch def
    PSL_ST_prepare_text
    PSL_rounded
      {PSL_ST_textbox_round}
      {PSL_ST_textbox_rect}
    ifelse
  } for
  PSL_eoclip N
} def
/PSL_ST_prepare_text
{
  /psl_xp PSL_txt_x psl_k get def
  /psl_yp PSL_txt_y psl_k get def
  /psl_label PSL_label_str psl_k get def
  PSL_label_font psl_k get cvx exec
  /PSL_height PSL_heights psl_k get def
  /psl_boxH PSL_height PSL_gap_y 2 mul add def
  /PSL_just PSL_label_justify psl_k get def
  /PSL_justx PSL_just 4 mod 1 sub 2 div neg def
  /PSL_justy PSL_just 4 idiv 2 div neg def
  /psl_SW psl_label stringwidth pop def
  /psl_boxW psl_SW PSL_gap_x 2 mul add def
  /psl_x0 psl_SW PSL_justx mul def
  /psl_y0 PSL_justy PSL_height mul def
  /psl_angle PSL_label_angle psl_k get def
} def
/PSL_ST_textbox_rect
{
  psl_xp psl_yp T psl_angle R psl_x0 psl_y0 T
  PSL_gap_x neg PSL_gap_y neg M
  0 psl_boxH D psl_boxW 0 D 0 psl_boxH neg D P
  psl_x0 neg psl_y0 neg T psl_angle neg R psl_xp neg psl_yp neg T
} def
/PSL_ST_textbox_round
{
  /psl_BoxR PSL_gap_x PSL_gap_y lt {PSL_gap_x} {PSL_gap_y} ifelse def
  /psl_xd PSL_gap_x psl_BoxR sub def
  /psl_yd PSL_gap_y psl_BoxR sub def
  /psl_xL PSL_gap_x neg def
  /psl_yB PSL_gap_y neg def
  /psl_yT psl_boxH psl_yB add def
  /psl_H2 PSL_height psl_yd 2 mul add def
  /psl_W2 psl_SW psl_xd 2 mul add def
  /psl_xR psl_xL psl_boxW add def
  /psl_x0 psl_SW PSL_justx mul def
  psl_xp psl_yp T psl_angle R psl_x0 psl_y0 T
  psl_xL psl_yd M
  psl_xL psl_yT psl_xR psl_yT psl_BoxR arct psl_W2 0 D
  psl_xR psl_yT psl_xR psl_yB psl_BoxR arct 0 psl_H2 neg D
  psl_xR psl_yB psl_xL psl_yB psl_BoxR arct psl_W2 neg 0 D
  psl_xL psl_yB psl_xL psl_yd psl_BoxR arct P
  psl_x0 neg psl_y0 neg T psl_angle neg R psl_xp neg psl_yp neg T
} def
/PSL_ST_place_label
{
    V psl_xp psl_yp T psl_angle R
    psl_SW PSL_justx mul psl_y0 M
    psl_label dup sd neg 0 exch G show
    U
} def
/PSL_ST_place_label_FO
{
    V psl_xp psl_yp T psl_angle R
    psl_SW PSL_justx mul psl_y0 M
    psl_label dup sd neg 0 exch G false charpath V fs U S N
    U
} def
/PSL_ST_place_label_OF
{
    V psl_xp psl_yp T psl_angle R
    psl_SW PSL_justx mul psl_y0 M
    psl_label dup sd neg 0 exch G false charpath V S U fs N
    U
} def
/PSL_nclip 0 def
/PSL_clip {clip /PSL_nclip PSL_nclip 1 add def} def
/PSL_eoclip {eoclip /PSL_nclip PSL_nclip 1 add def} def
/PSL_cliprestore {cliprestore /PSL_nclip PSL_nclip 1 sub def} def
%%EndProlog
%%BeginSetup
/PSLevel /languagelevel where {pop languagelevel} {1} ifelse def
%%EndSetup
%%Page: 1 1
%%BeginPageSetup
V 0.06 0.06 scale
%%EndPageSetup
/PSL_page_xsize 9917 def
/PSL_page_ysize 14033 def
/PSL_plot_completion {} def
/PSL_movie_label_completion {} def
/PSL_movie_prog_indicator_completion {} def
%PSL_End_Header
gsave
0 A
FQ
O0
1200 1200 TM
% PostScript produced by:
%@GMT: gmt plot tmp.txt -R0.6/7.4/0.6/1.4 -B0g1 -B+n -Jx2c -Sc1.5c -W0.25p --PROJ_LENGTH_UNIT=cm -i0,1 --MAP_GRID_PEN_PRIMARY=default,dashed
%@PROJ: xy 0.60000000 7.40000000 0.60000000 1.40000000 0.600 7.400 0.600 1.400 +xy
%%BeginObject PSL_Layer_1
0 setlinecap
0 setlinejoin
3.32550952342 setmiterlimit
3 W
[28 14] 0 B
0 A
378 0 M
0 756 D
S
1323 0 M
0 756 D
S
2268 0 M
0 756 D
S
3213 0 M
0 756 D
S
4157 0 M
0 756 D
S
5102 0 M
0 756 D
S
6047 0 M
0 756 D
S
0 378 M
6425 0 D
S
[] 0 B
clipsave
0 0 M
6425 0 D
0 756 D
-6425 0 D
P
PSL_clip N
V
4 W
O1
354 378 378 Sc
354 1323 378 Sc
354 2268 378 Sc
354 3213 378 Sc
354 4157 378 Sc
354 5102 378 Sc
354 6047 378 Sc
U
PSL_cliprestore
21 W
0 A
/PSL_slant_y 0 def /PSL_slant_x 0 def
2 setlinecap
N 0 756 M 0 -756 D S
/PSL_A0_y 0 def
/PSL_A1_y 0 def
/PSL_LH 0 def /PSL_L_y PSL_A0_y PSL_A1_y mx def
6425 0 T
N 0 756 M 0 -756 D S
-6425 0 T
N 0 0 M 6425 0 D S
/PSL_A0_y 0 def
/PSL_A1_y 0 def
/PSL_LH 0 def /PSL_L_y PSL_A0_y PSL_A1_y mx def
0 756 T
N 0 0 M 6425 0 D S
0 -756 T
0 setlinecap
%%EndObject
0 A
FQ
O0
0 0 TM
% PostScript produced by:
%@GMT: gmt plot tmp.txt -S -Glightblue -W1p --PROJ_LENGTH_UNIT=cm -R0.6/7.4/0.6/1.4 -Jx2c
%@PROJ: xy 0.60000000 7.40000000 0.60000000 1.40000000 0.600 7.400 0.600 1.400 +xy
%%BeginObject PSL_Layer_2
0 setlinecap
0 setlinejoin
3.32550952342 setmiterlimit
clipsave
0 0 M
6425 0 D
0 756 D
-6425 0 D
P
PSL_clip N
V
17 W
{0.678 0.847 0.902 C} FS
O1
V 378 378 T
-307 -177 M
57 29 D
48 19 D
62 18 D
76 13 D
51 3 D
52 -1 D
51 -6 D
50 -9 D
62 -18 D
59 -24 D
46 -24 D
-44 27 D
-40 31 D
-39 35 D
-18 18 D
-33 39 D
-23 31 D
-28 43 D
-24 46 D
-24 59 D
-18 62 D
-13 76 D
-3 64 D
-3 -64 D
-13 -76 D
-18 -62 D
-24 -59 D
-24 -46 D
-43 -64 D
-24 -30 D
-35 -37 D
-39 -35 D
-40 -31 D
P
FO
U
V 1323 378 T
-307 177 M
44 -27 D
40 -31 D
39 -35 D
18 -18 D
33 -39 D
23 -31 D
28 -43 D
24 -46 D
24 -59 D
18 -62 D
13 -76 D
3 -64 D
3 64 D
13 76 D
18 62 D
24 59 D
24 46 D
43 64 D
24 30 D
35 37 D
39 35 D
40 31 D
44 27 D
-34 18 D
-59 26 D
-61 19 D
-51 11 D
-38 5 D
-51 3 D
-52 -1 D
-51 -5 D
-38 -7 D
-49 -13 D
-49 -17 D
-58 -26 D
P
FO
U
V 2268 378 T
213 -354 12 6 13 5 12 4 14 3 13 1 14 0 13 -1 13 -3 13 -4 13 -5 12 -6 212 354 13 -354 -354 SP
71 -35 106 Sc
53 106 213 Sc
35 230 283 Sc
18 319 319 Sc
U
V 3213 378 T
-502 0 502 502 2 -251 -251 SP
U
V 4157 378 T
354 71 M
-1 25 D
-7 38 D
-3 12 D
-9 24 D
-18 34 D
-23 31 D
-18 18 D
-30 24 D
-34 19 D
-35 13 D
-38 8 D
-38 2 D
-38 -4 D
-37 -10 D
-24 -9 D
-33 -19 D
-30 -24 D
-18 -18 D
-16 -20 D
-20 -33 D
-14 -36 D
-4 -12 D
-5 -25 D
-3 -38 D
105 105 D
35 17 D
25 9 D
38 8 D
39 4 D
39 -2 D
38 -7 D
25 -7 D
36 -16 D
12 -6 D
FO
-354 -71 M
1 -25 D
7 -38 D
3 -12 D
9 -24 D
18 -34 D
23 -31 D
18 -18 D
30 -24 D
34 -19 D
35 -13 D
38 -8 D
38 -2 D
38 4 D
37 10 D
24 9 D
33 19 D
30 24 D
18 18 D
16 20 D
20 33 D
14 36 D
4 12 D
5 25 D
3 38 D
-105 -105 D
-35 -17 D
-25 -9 D
-38 -8 D
-39 -4 D
-39 2 D
-38 7 D
-25 7 D
-36 16 D
-12 6 D
FO
124 0 0 Sc
U
V 5102 378 T
71 0 -195 -212 124 0 -195 -248 -194 0 177 177 -124 0 230 212 -71 0 354 319 10 -283 -354 SP
U
/QR_fill {0.678 0.847 0.902 C} def
/QR_outline true def
/QR_pen {3 W 0 A [] 0 B} def
V 6047 378 T
/Sk_QR {
PSL_eps_begin
0.36000000 dup scale
1200 72 div dup scale
%%BeginDocument: QR.eps
% Made by Kristof Koch, February 28, 2019
% psxy will define both QR_outline [false], QR_pen [undefined], and QR_fill [black]
/QR {M 0 -6 D 6 0 D 0 6 D P F} bind def
1 A
0 200 M 0 -200 D 200 0 D 0 200 D P F
QR_outline {0 200 M 0 -200 D 200 0 D 0 200 D P V F U QR_pen S} {0 200 M 0 -200 D 200 0 D 0 200 D P F} ifelse
QR_fill
13 187 QR
19 187 QR
25 187 QR
31 187 QR
37 187 QR
43 187 QR
49 187 QR
67 187 QR
91 187 QR
127 187 QR
133 187 QR
145 187 QR
151 187 QR
157 187 QR
163 187 QR
169 187 QR
175 187 QR
181 187 QR
13 181 QR
49 181 QR
61 181 QR
67 181 QR
79 181 QR
85 181 QR
91 181 QR
97 181 QR
103 181 QR
109 181 QR
121 181 QR
145 181 QR
181 181 QR
13 175 QR
25 175 QR
31 175 QR
37 175 QR
49 175 QR
67 175 QR
73 175 QR
79 175 QR
97 175 QR
109 175 QR
121 175 QR
145 175 QR
157 175 QR
163 175 QR
169 175 QR
181 175 QR
13 169 QR
25 169 QR
31 169 QR
37 169 QR
49 169 QR
61 169 QR
67 169 QR
79 169 QR
103 169 QR
115 169 QR
133 169 QR
145 169 QR
157 169 QR
163 169 QR
169 169 QR
181 169 QR
13 163 QR
25 163 QR
31 163 QR
37 163 QR
49 163 QR
73 163 QR
85 163 QR
91 163 QR
109 163 QR
115 163 QR
121 163 QR
127 163 QR
133 163 QR
145 163 QR
157 163 QR
163 163 QR
169 163 QR
181 163 QR
13 157 QR
49 157 QR
61 157 QR
73 157 QR
91 157 QR
97 157 QR
103 157 QR
121 157 QR
133 157 QR
145 157 QR
181 157 QR
13 151 QR
19 151 QR
25 151 QR
31 151 QR
37 151 QR
43 151 QR
49 151 QR
61 151 QR
73 151 QR
85 151 QR
97 151 QR
109 151 QR
121 151 QR
133 151 QR
145 151 QR
151 151 QR
157 151 QR
163 151 QR
169 151 QR
175 151 QR
181 151 QR
85 145 QR
91 145 QR
13 139 QR
19 139 QR
25 139 QR
31 139 QR
37 139 QR
49 139 QR
55 139 QR
61 139 QR
67 139 QR
73 139 QR
85 139 QR
97 139 QR
103 139 QR
109 139 QR
115 139 QR
139 139 QR
151 139 QR
163 139 QR
175 139 QR
37 133 QR
55 133 QR
61 133 QR
67 133 QR
109 133 QR
115 133 QR
121 133 QR
127 133 QR
133 133 QR
139 133 QR
145 133 QR
151 133 QR
157 133 QR
181 133 QR
19 127 QR
25 127 QR
31 127 QR
37 127 QR
43 127 QR
49 127 QR
55 127 QR
67 127 QR
79 127 QR
85 127 QR
103 127 QR
109 127 QR
115 127 QR
133 127 QR
151 127 QR
13 121 QR
19 121 QR
37 121 QR
61 121 QR
67 121 QR
73 121 QR
79 121 QR
97 121 QR
109 121 QR
121 121 QR
133 121 QR
151 121 QR
157 121 QR
175 121 QR
13 115 QR
25 115 QR
31 115 QR
43 115 QR
49 115 QR
55 115 QR
61 115 QR
67 115 QR
79 115 QR
115 115 QR
127 115 QR
163 115 QR
169 115 QR
43 109 QR
55 109 QR
61 109 QR
73 109 QR
85 109 QR
91 109 QR
97 109 QR
109 109 QR
121 109 QR
127 109 QR
133 109 QR
139 109 QR
145 109 QR
151 109 QR
157 109 QR
169 109 QR
181 109 QR
25 103 QR
43 103 QR
49 103 QR
61 103 QR
73 103 QR
91 103 QR
97 103 QR
103 103 QR
115 103 QR
133 103 QR
145 103 QR
169 103 QR
31 97 QR
55 97 QR
61 97 QR
67 97 QR
85 97 QR
91 97 QR
109 97 QR
133 97 QR
139 97 QR
145 97 QR
151 97 QR
175 97 QR
13 91 QR
19 91 QR
43 91 QR
49 91 QR
61 91 QR
67 91 QR
73 91 QR
85 91 QR
97 91 QR
115 91 QR
121 91 QR
127 91 QR
169 91 QR
13 85 QR
37 85 QR
67 85 QR
73 85 QR
115 85 QR
121 85 QR
127 85 QR
139 85 QR
145 85 QR
157 85 QR
163 85 QR
169 85 QR
181 85 QR
13 79 QR
31 79 QR
43 79 QR
49 79 QR
67 79 QR
79 79 QR
85 79 QR
103 79 QR
109 79 QR
133 79 QR
151 79 QR
163 79 QR
169 79 QR
13 73 QR
37 73 QR
55 73 QR
67 73 QR
79 73 QR
97 73 QR
127 73 QR
151 73 QR
157 73 QR
175 73 QR
13 67 QR
25 67 QR
31 67 QR
37 67 QR
49 67 QR
55 67 QR
61 67 QR
79 67 QR
103 67 QR
109 67 QR
115 67 QR
133 67 QR
139 67 QR
145 67 QR
151 67 QR
157 67 QR
169 67 QR
175 67 QR
181 67 QR
61 61 QR
67 61 QR
85 61 QR
91 61 QR
97 61 QR
109 61 QR
133 61 QR
157 61 QR
163 61 QR
169 61 QR
175 61 QR
181 61 QR
13 55 QR
19 55 QR
25 55 QR
31 55 QR
37 55 QR
43 55 QR
49 55 QR
61 55 QR
91 55 QR
97 55 QR
103 55 QR
127 55 QR
133 55 QR
145 55 QR
157 55 QR
163 55 QR
169 55 QR
13 49 QR
49 49 QR
67 49 QR
85 49 QR
91 49 QR
103 49 QR
109 49 QR
121 49 QR
127 49 QR
133 49 QR
157 49 QR
163 49 QR
13 43 QR
25 43 QR
31 43 QR
37 43 QR
49 43 QR
61 43 QR
73 43 QR
85 43 QR
97 43 QR
115 43 QR
133 43 QR
139 43 QR
145 43 QR
151 43 QR
157 43 QR
163 43 QR
169 43 QR
13 37 QR
25 37 QR
31 37 QR
37 37 QR
49 37 QR
61 37 QR
73 37 QR
109 37 QR
115 37 QR
121 37 QR
127 37 QR
151 37 QR
163 37 QR
175 37 QR
181 37 QR
13 31 QR
25 31 QR
31 31 QR
37 31 QR
49 31 QR
61 31 QR
67 31 QR
79 31 QR
85 31 QR
103 31 QR
109 31 QR
115 31 QR
133 31 QR
145 31 QR
151 31 QR
157 31 QR
163 31 QR
169 31 QR
175 31 QR
13 25 QR
49 25 QR
61 25 QR
67 25 QR
79 25 QR
97 25 QR
109 25 QR
133 25 QR
139 25 QR
151 25 QR
163 25 QR
175 25 QR
13 19 QR
19 19 QR
25 19 QR
31 19 QR
37 19 QR
43 19 QR
49 19 QR
61 19 QR
73 19 QR
79 19 QR
115 19 QR
127 19 QR
139 19 QR
145 19 QR
151 19 QR
157 19 QR
163 19 QR
169 19 QR
% End of QR symbol definition
%%EndDocument
PSL_eps_end } def
V -354 -354 T
0.590551181102 dup scale Sk_QR U
U
U
PSL_cliprestore
%%EndObject
0 A
FQ
O0
0 0 TM
% PostScript produced by:
%@GMT: gmt text -N -F+f10p,Helvetica-Bold+jTC -Dj0/1c -R0.6/7.4/0.6/1.4 -Jx2c
%@PROJ: xy 0.60000000 7.40000000 0.60000000 1.40000000 0.600 7.400 0.600 1.400 +xy
%%BeginObject PSL_Layer_3
0 setlinecap
0 setlinejoin
3.32550952342 setmiterlimit
PSL_font_encode 1 get 0 eq {ISOLatin1+_Encoding /Helvetica-Bold /Helvetica-Bold PSL_reencode PSL_font_encode 1 1 put} if
378 -94 M 167 F1
(deltoid) tc Z
1323 -94 M (sectoid) tc Z
2268 -94 M (volcano) tc Z
3213 -94 M (trirot4) tc Z
4157 -94 M (hurricane) tc Z
5102 -94 M (flash) tc Z
6047 -94 M (QR) tc Z
%%EndObject
grestore
PSL_movie_label_completion /PSL_movie_label_completion {} def
PSL_movie_prog_indicator_completion /PSL_movie_prog_indicator_completion {} def
%PSL_Begin_Trailer
%%PageTrailer
U
showpage
%%Trailer
end
%%EOF
