%!PS-Adobe-3.0
%%BoundingBox: 0 0 612 792
%%HiResBoundingBox: 0 0 612.0000 792.0000
%%Title: GMT v6.4.0_ac2b520_2022.04.09 Document from basemap
%%Creator: GMT6
%%For: unknown
%%DocumentNeededResources: font Helvetica Times-Italic
%%CreationDate: Sat Apr  9 14:20:10 2022
%%LanguageLevel: 2
%%DocumentData: Clean7Bit
%%Orientation: Portrait
%%Pages: 1
%%EndComments
%%BeginProlog
250 dict begin
/! {bind def} bind def
/# {load def}!
/A /setgray #
/B /setdash #
/C /setrgbcolor #
/D /rlineto #
/E {dup stringwidth pop}!
/F /fill #
/G /rmoveto #
/H /sethsbcolor #
/I /setpattern #
/K /setcmykcolor #
/L /lineto #
/M /moveto #
/N /newpath #
/P /closepath #
/R /rotate #
/S /stroke #
/T /translate #
/U /grestore #
/V /gsave #
/W /setlinewidth #
/Y {findfont exch scalefont setfont}!
/Z /show #
/FP {true charpath flattenpath}!
/MU {matrix setmatrix}!
/MS {/SMat matrix currentmatrix def}!
/MR {SMat setmatrix}!
/edef {exch def}!
/FS {/fc edef /fs {V fc F U} def}!
/FQ {/fs {} def}!
/O0 {/os {N} def}!
/O1 {/os {P S} def}!
/FO {fs os}!
/Sa {M MS dup 0 exch G 0.726542528 mul -72 R dup 0 D 4 {72 R dup 0 D -144 R dup 0 D} repeat pop MR FO}!
/Sb {M dup 0 D exch 0 exch D neg 0 D FO}!
/SB {MS T /BoxR edef /BoxW edef /BoxH edef BoxR 0 M
  BoxW 0 BoxW BoxH BoxR arct BoxW BoxH 0 BoxH BoxR arct 0 BoxH 0 0 BoxR arct 0 0 BoxW 0 BoxR arct MR FO}!
/Sc {N 3 -1 roll 0 360 arc FO}!
/Sd {M 4 {dup} repeat 0 G neg dup dup D exch D D FO}!
/Se {N MS T R scale 0 0 1 0 360 arc MR FO}!
/Sg {M MS 22.5 R dup 0 exch G -22.5 R 0.765366865 mul dup 0 D 6 {-45 R dup 0 D} repeat pop MR FO}!
/Sh {M MS dup 0 G -120 R dup 0 D 4 {-60 R dup 0 D} repeat pop MR FO}!
/Si {M MS dup neg 0 exch G 60 R 1.732050808 mul dup 0 D 120 R 0 D MR FO}!
/Sj {M MS R dup -2 div 2 index -2 div G dup 0 D exch 0 exch D neg 0 D MR FO}!
/Sn {M MS dup 0 exch G -36 R 1.175570505 mul dup 0 D 3 {-72 R dup 0 D} repeat pop MR FO}!
/Sp {N 3 -1 roll 0 360 arc fs N}!
/SP {M {D} repeat FO}!
/Sr {M dup -2 div 2 index -2 div G dup 0 D exch 0 exch D neg 0 D FO}!
/SR {MS T /BoxR edef /BoxW edef /BoxH edef BoxR BoxW -2 div BoxH -2 div T BoxR 0 M
  BoxW 0 BoxW BoxH BoxR arct BoxW BoxH 0 BoxH BoxR arct 0 BoxH 0 0 BoxR arct 0 0 BoxW 0 BoxR arct MR FO}!
/Ss {M 1.414213562 mul dup dup dup -2 div dup G 0 D 0 exch D neg 0 D FO}!
/St {M MS dup 0 exch G -60 R 1.732050808 mul dup 0 D -120 R 0 D MR FO}!
/SV {0 exch M 0 D D D D D 0 D FO}!
/Sv {0 0 M D D 0 D D D D D 0 D D FO}!
/Sw {2 copy M 5 2 roll arc FO}!
/Sx {M 1.414213562 mul 5 {dup} repeat -2 div dup G D neg 0 G neg D S}!
/Sy {M dup 0 exch G dup -2 mul dup 0 exch D S}!
/S+ {M dup 0 G dup -2 mul dup 0 D exch dup G 0 exch D S}!
/S- {M dup 0 G dup -2 mul dup 0 D S}!
/sw {stringwidth pop}!
/sh {V MU 0 0 M FP pathbbox N 4 1 roll pop pop pop U}!
/sd {V MU 0 0 M FP pathbbox N pop pop exch pop U}!
/sH {V MU 0 0 M FP pathbbox N exch pop exch sub exch pop U}!
/sb {E exch sh}!
/bl {}!
/bc {E -2 div 0 G}!
/br {E neg 0 G}!
/ml {dup 0 exch sh -2 div G}!
/mc {dup E -2 div exch sh -2 div G}!
/mr {dup E neg exch sh -2 div G}!
/tl {dup 0 exch sh neg G}!
/tc {dup E -2 div exch sh neg G}!
/tr {dup E neg exch sh neg G}!
/mx {2 copy lt {exch} if pop}!
/PSL_xorig 0 def /PSL_yorig 0 def
/TM {2 copy T PSL_yorig add /PSL_yorig edef PSL_xorig add /PSL_xorig edef}!
/PSL_reencode {findfont dup length dict begin
  {1 index /FID ne {def}{pop pop} ifelse} forall
  exch /Encoding edef currentdict end definefont pop
}!
/PSL_eps_begin {
  /PSL_eps_state save def
  /PSL_dict_count countdictstack def
  /PSL_op_count count 1 sub def
  userdict begin
  /showpage {} def
  0 setgray 0 setlinecap 1 setlinewidth
  0 setlinejoin 10 setmiterlimit [] 0 setdash newpath
  /languagelevel where
  {pop languagelevel 1 ne {false setstrokeadjust false setoverprint} if} if
}!
/PSL_eps_end {
  count PSL_op_count sub {pop} repeat
  countdictstack PSL_dict_count sub {end} repeat
  PSL_eps_state restore
}!
/PSL_transp {
  /PSL_BM_arg edef /PSL_S_arg edef /PSL_F_arg edef
  /.setfillconstantalpha where
  { pop PSL_BM_arg .setblendmode PSL_S_arg .setstrokeconstantalpha PSL_F_arg .setfillconstantalpha }
  { /pdfmark where {pop [ /BM PSL_BM_arg /CA PSL_S_arg /ca PSL_F_arg /SetTransparency pdfmark} if }
  ifelse
}!
/ISOLatin1+_Encoding [
/.notdef	/.notdef	/.notdef	/.notdef	/.notdef	/.notdef	/.notdef	/.notdef
/.notdef	/.notdef	/.notdef	/.notdef	/.notdef	/.notdef	/.notdef	/.notdef
/.notdef	/.notdef	/.notdef	/.notdef	/.notdef	/.notdef	/.notdef	/.notdef
/.notdef	/bullet		/ellipsis	/trademark	/emdash		/endash		/fi		/zcaron
/space		/exclam		/quotedbl	/numbersign	/dollar		/percent	/ampersand	/quoteright
/parenleft	/parenright	/asterisk	/plus		/comma		/minus		/period		/slash
/zero		/one		/two		/three		/four		/five		/six		/seven
/eight		/nine		/colon		/semicolon	/less		/equal		/greater	/question
/at		/A		/B		/C		/D		/E		/F		/G
/H		/I		/J		/K		/L		/M		/N		/O
/P		/Q		/R		/S		/T		/U		/V		/W
/X		/Y		/Z		/bracketleft	/backslash	/bracketright	/asciicircum	/underscore
/quoteleft	/a		/b		/c 		/d		/e		/f		/g
/h		/i		/j		/k		/l		/m		/n		/o
/p		/q		/r		/s		/t		/u		/v		/w
/x		/y		/z		/braceleft	/bar		/braceright	/asciitilde	/scaron
/OE		/dagger		/daggerdbl	/Lslash		/fraction	/guilsinglleft	/Scaron		/guilsinglright
/oe		/Ydieresis	/Zcaron		/lslash		/perthousand	/quotedblbase	/quotedblleft	/quotedblright
/dotlessi	/grave		/acute		/circumflex	/tilde		/macron		/breve		/dotaccent
/dieresis	/quotesinglbase	/ring		/cedilla	/quotesingle	/hungarumlaut	/ogonek		/caron
/space		/exclamdown	/cent		/sterling	/currency	/yen		/brokenbar	/section
/dieresis	/copyright	/ordfeminine	/guillemotleft	/logicalnot	/hyphen		/registered	/macron
/degree		/plusminus	/twosuperior	/threesuperior	/acute		/mu		/paragraph	/periodcentered
/cedilla	/onesuperior	/ordmasculine	/guillemotright	/onequarter	/onehalf	/threequarters	/questiondown
/Agrave		/Aacute		/Acircumflex	/Atilde		/Adieresis	/Aring		/AE		/Ccedilla
/Egrave		/Eacute		/Ecircumflex	/Edieresis	/Igrave		/Iacute		/Icircumflex	/Idieresis
/Eth		/Ntilde		/Ograve		/Oacute		/Ocircumflex	/Otilde		/Odieresis	/multiply
/Oslash		/Ugrave		/Uacute		/Ucircumflex	/Udieresis	/Yacute		/Thorn		/germandbls
/agrave		/aacute		/acircumflex	/atilde		/adieresis	/aring		/ae		/ccedilla
/egrave		/eacute		/ecircumflex	/edieresis	/igrave		/iacute		/icircumflex	/idieresis
/eth		/ntilde		/ograve		/oacute		/ocircumflex	/otilde		/odieresis	/divide
/oslash		/ugrave		/uacute		/ucircumflex	/udieresis	/yacute		/thorn		/ydieresis
] def
/PSL_font_encode 0 0 0 0 0 0 0 0 0 0 0 0 0 0 0 0 0 0 0 0 0 0 0 0 0 0 0 0 0 0 0 0 0 0 0 0 0 0 0 39 array astore def
/F0 {/Helvetica Y}!
/F1 {/Helvetica-Bold Y}!
/F2 {/Helvetica-Oblique Y}!
/F3 {/Helvetica-BoldOblique Y}!
/F4 {/Times-Roman Y}!
/F5 {/Times-Bold Y}!
/F6 {/Times-Italic Y}!
/F7 {/Times-BoldItalic Y}!
/F8 {/Courier Y}!
/F9 {/Courier-Bold Y}!
/F10 {/Courier-Oblique Y}!
/F11 {/Courier-BoldOblique Y}!
/F12 {/Symbol Y}!
/F13 {/AvantGarde-Book Y}!
/F14 {/AvantGarde-BookOblique Y}!
/F15 {/AvantGarde-Demi Y}!
/F16 {/AvantGarde-DemiOblique Y}!
/F17 {/Bookman-Demi Y}!
/F18 {/Bookman-DemiItalic Y}!
/F19 {/Bookman-Light Y}!
/F20 {/Bookman-LightItalic Y}!
/F21 {/Helvetica-Narrow Y}!
/F22 {/Helvetica-Narrow-Bold Y}!
/F23 {/Helvetica-Narrow-Oblique Y}!
/F24 {/Helvetica-Narrow-BoldOblique Y}!
/F25 {/NewCenturySchlbk-Roman Y}!
/F26 {/NewCenturySchlbk-Italic Y}!
/F27 {/NewCenturySchlbk-Bold Y}!
/F28 {/NewCenturySchlbk-BoldItalic Y}!
/F29 {/Palatino-Roman Y}!
/F30 {/Palatino-Italic Y}!
/F31 {/Palatino-Bold Y}!
/F32 {/Palatino-BoldItalic Y}!
/F33 {/ZapfChancery-MediumItalic Y}!
/F34 {/ZapfDingbats Y}!
/F35 {/Ryumin-Light-EUC-H Y}!
/F36 {/Ryumin-Light-EUC-V Y}!
/F37 {/GothicBBB-Medium-EUC-H Y}!
/F38 {/GothicBBB-Medium-EUC-V Y}!
/PSL_pathtextdict 26 dict def
/PSL_pathtext
  {PSL_pathtextdict begin
    /ydepth exch def
    /textheight exch def
    /just exch def
    /offset exch def
    /str exch def
    /pathdist 0 def
    /setdist offset def
    /charcount 0 def
    /justy just 4 idiv textheight mul 2 div neg ydepth sub def
    V flattenpath
	{movetoproc} {linetoproc}
	{curvetoproc} {closepathproc}
	pathforall
    U N
    end
  } def
PSL_pathtextdict begin
/movetoproc
  { /newy exch def /newx exch def
    /firstx newx def /firsty newy def
    /ovr 0 def
    newx newy transform
    /cpy exch def /cpx exch def
  } def
/linetoproc
  { /oldx newx def /oldy newy def
    /newy exch def /newx exch def
    /dx newx oldx sub def
    /dy newy oldy sub def
    /dist dx dup mul dy dup mul add sqrt def
    dist 0 ne
    { /dsx dx dist div ovr mul def
      /dsy dy dist div ovr mul def
      oldx dsx add oldy dsy add transform
      /cpy exch def /cpx exch def
      /pathdist pathdist dist add def
      {setdist pathdist le
	  {charcount str length lt
	      {setchar} {exit} ifelse}
	  { /ovr setdist pathdist sub def
	    exit}
	  ifelse
      } loop
    } if
  } def
/curvetoproc
  { (ERROR: No curveto's after flattenpath!)
    print
  } def
/closepathproc
  {firstx firsty linetoproc
    firstx firsty movetoproc
  } def
/setchar
  { /char str charcount 1 getinterval def
    /charcount charcount 1 add def
    /charwidth char stringwidth pop def
    V cpx cpy itransform T
      dy dx atan R
      0 justy M
      PSL_font_F {
        char show}
      if
      PSL_font_FO {
        currentpoint N M V char true charpath fs U V char false charpath S U char E 0 G
      } if
      PSL_font_OF {
        currentpoint N M V char false charpath S U V char true charpath fs U char E 0 G
      } if
      0 justy neg G currentpoint transform
      /cpy exch def /cpx exch def
    U /setdist setdist charwidth add def
  } def
end
/PSL_set_label_heights
{
  /PSL_n_labels_minus_1 PSL_n_labels 1 sub def
  /PSL_heights PSL_n_labels array def
  0 1 PSL_n_labels_minus_1
  { /psl_k exch def
    /psl_label PSL_label_str psl_k get def
    PSL_label_font psl_k get cvx exec
    psl_label sH /PSL_height edef
    PSL_heights psl_k PSL_height put
  } for
} def
/PSL_curved_path_labels
{ /psl_bits exch def
  /PSL_placetext psl_bits 2 and 2 eq def
  /PSL_clippath psl_bits 4 and 4 eq def
  /PSL_strokeline false def
  /PSL_fillbox psl_bits 128 and 128 eq def
  /PSL_drawbox psl_bits 256 and 256 eq def
  /PSL_font_F  psl_bits 1536 and 0 eq def
  /PSL_font_FO psl_bits 512 and 512 eq def
  /PSL_font_OF psl_bits 1024 and 1024 eq def
  /PSL_n_paths1 PSL_n_paths 1 sub def
  /PSL_usebox PSL_fillbox PSL_drawbox or def
  PSL_clippath {clipsave N clippath} if
  /psl_k 0 def
  /psl_p 0 def
  0 1 PSL_n_paths1
  { /psl_kk exch def
    /PSL_n PSL_path_n  psl_kk get def
    /PSL_m PSL_label_n psl_kk get def
    /PSL_x PSL_path_x psl_k PSL_n getinterval def
    /PSL_y PSL_path_y psl_k PSL_n getinterval def
    /PSL_node_tmp PSL_label_node psl_p PSL_m getinterval def
    /PSL_angle_tmp PSL_label_angle psl_p PSL_m getinterval def
    /PSL_str_tmp PSL_label_str psl_p PSL_m getinterval def
    /PSL_fnt_tmp PSL_label_font psl_p PSL_m getinterval def
    PSL_curved_path_label
    /psl_k psl_k PSL_n add def
    /psl_p psl_p PSL_m add def
  } for
  PSL_clippath {PSL_eoclip} if N
} def
/PSL_curved_path_label
{
  /PSL_n1 PSL_n 1 sub def
  /PSL_m1 PSL_m 1 sub def
  PSL_CT_calcstringwidth
  PSL_CT_calclinedist
  PSL_CT_excludelabels
  PSL_CT_addcutpoints
  /PSL_nn1 PSL_nn 1 sub def
  /n 0 def
  /k 0 def
  /j 0 def
  /PSL_seg 0 def
  /PSL_xp PSL_nn array def
  /PSL_yp PSL_nn array def
  PSL_xp 0 PSL_xx 0 get put
  PSL_yp 0 PSL_yy 0 get put
  1 1 PSL_nn1
  { /i exch def
    /node_type PSL_kind i get def
    /j j 1 add def
    PSL_xp j PSL_xx i get put
    PSL_yp j PSL_yy i get put
    node_type 1 eq
    {n 0 eq
      {PSL_CT_drawline}
      {
        PSL_CT_reversepath
	      PSL_CT_textline}
      ifelse
      /j 0 def
      PSL_xp j PSL_xx i get put
      PSL_yp j PSL_yy i get put
    } if
  } for
  n 0 eq {PSL_CT_drawline} if
} def
/PSL_CT_textline
{ PSL_fnt k get cvx exec
  /PSL_height PSL_heights k get def
  PSL_placetext	{PSL_CT_placelabel} if
  PSL_clippath {PSL_CT_clippath} if
  /n 0 def /k k 1 add def
} def
/PSL_CT_calcstringwidth
{ /PSL_width_tmp PSL_m array def
  0 1 PSL_m1
  { /i exch def
    PSL_fnt_tmp i get cvx exec
    PSL_width_tmp i PSL_str_tmp i get stringwidth pop put
  } for
} def
/PSL_CT_calclinedist
{ /PSL_newx PSL_x 0 get def
  /PSL_newy PSL_y 0 get def
  /dist 0.0 def
  /PSL_dist PSL_n array def
  PSL_dist 0 0.0 put
  1 1 PSL_n1
  { /i exch def
    /PSL_oldx PSL_newx def
    /PSL_oldy PSL_newy def
    /PSL_newx PSL_x i get def
    /PSL_newy PSL_y i get def
    /dx PSL_newx PSL_oldx sub def
    /dy PSL_newy PSL_oldy sub def
    /dist dist dx dx mul dy dy mul add sqrt add def
    PSL_dist i dist put
  } for
} def
/PSL_CT_excludelabels
{ /k 0 def
  /PSL_width PSL_m array def
  /PSL_angle PSL_m array def
  /PSL_node PSL_m array def
  /PSL_str PSL_m array def
  /PSL_fnt PSL_m array def
  /lastdist PSL_dist PSL_n1 get def
  0 1 PSL_m1
  { /i exch def
    /dist PSL_dist PSL_node_tmp i get get def
    /halfwidth PSL_width_tmp i get 2 div PSL_gap_x add def
    /L_dist dist halfwidth sub def
    /R_dist dist halfwidth add def
    L_dist 0 gt R_dist lastdist lt and
    {
      PSL_width k PSL_width_tmp i get put
      PSL_node k PSL_node_tmp i get put
      PSL_angle k PSL_angle_tmp i get put
      PSL_str k PSL_str_tmp i get put
      PSL_fnt k PSL_fnt_tmp i get put
      /k k 1 add def
    } if
  } for
  /PSL_m k def
  /PSL_m1 PSL_m 1 sub def
} def
/PSL_CT_addcutpoints
{ /k 0 def
  /PSL_nc PSL_m 2 mul 1 add def
  /PSL_cuts PSL_nc array def
  /PSL_nc1 PSL_nc 1 sub def
  0 1 PSL_m1
  { /i exch def
    /dist PSL_dist PSL_node i get get def
    /halfwidth PSL_width i get 2 div PSL_gap_x add def
    PSL_cuts k dist halfwidth sub put
    /k k 1 add def
    PSL_cuts k dist halfwidth add put
    /k k 1 add def
  } for
  PSL_cuts k 100000.0 put
  /PSL_nn PSL_n PSL_m 2 mul add def
  /PSL_xx PSL_nn array def
  /PSL_yy PSL_nn array def
  /PSL_kind PSL_nn array def
  /j 0 def
  /k 0 def
  /dist 0.0 def
  0 1 PSL_n1
  { /i exch def
    /last_dist dist def
    /dist PSL_dist i get def
    k 1 PSL_nc1
    { /kk exch def
      /this_cut PSL_cuts kk get def
      dist this_cut gt
      { /ds dist last_dist sub def
	/f ds 0.0 eq {0.0} {dist this_cut sub ds div} ifelse def
	/i1 i 0 eq {0} {i 1 sub} ifelse def
	PSL_xx j PSL_x i get dup PSL_x i1 get sub f mul sub put
	PSL_yy j PSL_y i get dup PSL_y i1 get sub f mul sub put
	PSL_kind j 1 put
	/j j 1 add def
	/k k 1 add def
      } if
    } for
    dist PSL_cuts k get le
    {PSL_xx j PSL_x i get put PSL_yy j PSL_y i get put
      PSL_kind j 0 put
      /j j 1 add def
    } if
  } for
} def
/PSL_CT_reversepath
{PSL_xp j get PSL_xp 0 get lt
  {0 1 j 2 idiv
    { /left exch def
      /right j left sub def
      /tmp PSL_xp left get def
      PSL_xp left PSL_xp right get put
      PSL_xp right tmp put
      /tmp PSL_yp left get def
      PSL_yp left PSL_yp right get put
      PSL_yp right tmp put
    } for
  } if
} def
/PSL_CT_placelabel
{
  /PSL_just PSL_label_justify k get def
  /PSL_height PSL_heights k get def
  /psl_label PSL_str k get def
  /psl_depth psl_label sd def
  PSL_usebox
  {PSL_CT_clippath
    PSL_fillbox
    {V PSL_setboxrgb fill U} if
    PSL_drawbox
    {V PSL_setboxpen S U} if N
  } if
  PSL_CT_placeline psl_label PSL_gap_x PSL_just PSL_height psl_depth PSL_pathtext
} def
/PSL_CT_clippath
{
  /H PSL_height 2 div PSL_gap_y add def
  /xoff j 1 add array def
  /yoff j 1 add array def
  /angle 0 def
  0 1 j {
    /ii exch def
    /x PSL_xp ii get def
    /y PSL_yp ii get def
    ii 0 eq {
      /x1 PSL_xp 1 get def
      /y1 PSL_yp 1 get def
      /dx x1 x sub def
      /dy y1 y sub def
    }
    { /i1 ii 1 sub def
      /x1 PSL_xp i1 get def
      /y1 PSL_yp i1 get def
      /dx x x1 sub def
      /dy y y1 sub def
    } ifelse
    dx 0.0 eq dy 0.0 eq and not
    { /angle dy dx atan 90 add def} if
    /sina angle sin def
    /cosa angle cos def
    xoff ii H cosa mul put
    yoff ii H sina mul put
  } for
  PSL_xp 0 get xoff 0 get add PSL_yp 0 get yoff 0 get add M
  1 1 j {
    /ii exch def
    PSL_xp ii get xoff ii get add PSL_yp ii get yoff ii get add L
  } for
  j -1 0 {
    /ii exch def
    PSL_xp ii get xoff ii get sub PSL_yp ii get yoff ii get sub L
  } for P
} def
/PSL_CT_drawline
{
  /str 20 string def
  PSL_strokeline
  {PSL_CT_placeline S} if
  /PSL_seg PSL_seg 1 add def
  /n 1 def
} def
/PSL_CT_placeline
{PSL_xp 0 get PSL_yp 0 get M
  1 1 j { /ii exch def PSL_xp ii get PSL_yp ii get L} for
} def
/PSL_draw_path_lines
{
  /PSL_n_paths1 PSL_n_paths 1 sub def
  V
  /psl_start 0 def
  0 1 PSL_n_paths1
  { /psl_k exch def
    /PSL_n PSL_path_n psl_k get def
    /PSL_n1 PSL_n 1 sub def
    PSL_path_pen psl_k get cvx exec
    N
    PSL_path_x psl_start get PSL_path_y psl_start get M
    1 1 PSL_n1
    { /psl_i exch def
      /psl_kk psl_i psl_start add def
      PSL_path_x psl_kk get PSL_path_y psl_kk get L
    } for
    /psl_xclose PSL_path_x psl_kk get PSL_path_x psl_start get sub def
    /psl_yclose PSL_path_y psl_kk get PSL_path_y psl_start get sub def
    psl_xclose 0 eq psl_yclose 0 eq and { P } if
    S
    /psl_start psl_start PSL_n add def
  } for
  U
} def
/PSL_straight_path_labels
{
  /psl_bits exch def
  /PSL_placetext psl_bits 2 and 2 eq def
  /PSL_rounded psl_bits 32 and 32 eq def
  /PSL_fillbox psl_bits 128 and 128 eq def
  /PSL_drawbox psl_bits 256 and 256 eq def
  /PSL_font_F  psl_bits 1536 and 0 eq def
  /PSL_font_FO psl_bits 512 and 512 eq def
  /PSL_font_OF psl_bits 1024 and 1024 eq def
  /PSL_n_labels_minus_1 PSL_n_labels 1 sub def
  /PSL_usebox PSL_fillbox PSL_drawbox or def
  0 1 PSL_n_labels_minus_1
  { /psl_k exch def
    PSL_ST_prepare_text
    PSL_usebox
    {  PSL_rounded
        {PSL_ST_textbox_round}
        {PSL_ST_textbox_rect}
      ifelse
      PSL_fillbox {V PSL_setboxrgb fill U} if
      PSL_drawbox {V PSL_setboxpen S U} if
      N
    } if
    PSL_font_F {
      PSL_placetext {PSL_ST_place_label} if
    } if
    PSL_font_FO {
      PSL_placetext {PSL_ST_place_label_FO} if
    } if
    PSL_font_OF {
      PSL_placetext {PSL_ST_place_label_OF} if
    } if
  } for
} def
/PSL_straight_path_clip
{
  /psl_bits exch def
  /PSL_rounded psl_bits 32 and 32 eq def
  /PSL_n_labels_minus_1 PSL_n_labels 1 sub def
  N clipsave clippath
  0 1 PSL_n_labels_minus_1
  { /psl_k exch def
    PSL_ST_prepare_text
    PSL_rounded
      {PSL_ST_textbox_round}
      {PSL_ST_textbox_rect}
    ifelse
  } for
  PSL_eoclip N
} def
/PSL_ST_prepare_text
{
  /psl_xp PSL_txt_x psl_k get def
  /psl_yp PSL_txt_y psl_k get def
  /psl_label PSL_label_str psl_k get def
  PSL_label_font psl_k get cvx exec
  /PSL_height PSL_heights psl_k get def
  /psl_boxH PSL_height PSL_gap_y 2 mul add def
  /PSL_just PSL_label_justify psl_k get def
  /PSL_justx PSL_just 4 mod 1 sub 2 div neg def
  /PSL_justy PSL_just 4 idiv 2 div neg def
  /psl_SW psl_label stringwidth pop def
  /psl_boxW psl_SW PSL_gap_x 2 mul add def
  /psl_x0 psl_SW PSL_justx mul def
  /psl_y0 PSL_justy PSL_height mul def
  /psl_angle PSL_label_angle psl_k get def
} def
/PSL_ST_textbox_rect
{
  psl_xp psl_yp T psl_angle R psl_x0 psl_y0 T
  PSL_gap_x neg PSL_gap_y neg M
  0 psl_boxH D psl_boxW 0 D 0 psl_boxH neg D P
  psl_x0 neg psl_y0 neg T psl_angle neg R psl_xp neg psl_yp neg T
} def
/PSL_ST_textbox_round
{
  /psl_BoxR PSL_gap_x PSL_gap_y lt {PSL_gap_x} {PSL_gap_y} ifelse def
  /psl_xd PSL_gap_x psl_BoxR sub def
  /psl_yd PSL_gap_y psl_BoxR sub def
  /psl_xL PSL_gap_x neg def
  /psl_yB PSL_gap_y neg def
  /psl_yT psl_boxH psl_yB add def
  /psl_H2 PSL_height psl_yd 2 mul add def
  /psl_W2 psl_SW psl_xd 2 mul add def
  /psl_xR psl_xL psl_boxW add def
  /psl_x0 psl_SW PSL_justx mul def
  psl_xp psl_yp T psl_angle R psl_x0 psl_y0 T
  psl_xL psl_yd M
  psl_xL psl_yT psl_xR psl_yT psl_BoxR arct psl_W2 0 D
  psl_xR psl_yT psl_xR psl_yB psl_BoxR arct 0 psl_H2 neg D
  psl_xR psl_yB psl_xL psl_yB psl_BoxR arct psl_W2 neg 0 D
  psl_xL psl_yB psl_xL psl_yd psl_BoxR arct P
  psl_x0 neg psl_y0 neg T psl_angle neg R psl_xp neg psl_yp neg T
} def
/PSL_ST_place_label
{
    V psl_xp psl_yp T psl_angle R
    psl_SW PSL_justx mul psl_y0 M
    psl_label dup sd neg 0 exch G show
    U
} def
/PSL_ST_place_label_FO
{
    V psl_xp psl_yp T psl_angle R
    psl_SW PSL_justx mul psl_y0 M
    psl_label dup sd neg 0 exch G false charpath V fs U S N
    U
} def
/PSL_ST_place_label_OF
{
    V psl_xp psl_yp T psl_angle R
    psl_SW PSL_justx mul psl_y0 M
    psl_label dup sd neg 0 exch G false charpath V S U fs N
    U
} def
/PSL_nclip 0 def
/PSL_clip {clip /PSL_nclip PSL_nclip 1 add def} def
/PSL_eoclip {eoclip /PSL_nclip PSL_nclip 1 add def} def
/PSL_cliprestore {cliprestore /PSL_nclip PSL_nclip 1 sub def} def
%%EndProlog
%%BeginSetup
/PSLevel /languagelevel where {pop languagelevel} {1} ifelse def
%%EndSetup
%%Page: 1 1
%%BeginPageSetup
V 0.06 0.06 scale
%%EndPageSetup
/PSL_page_xsize 10200 def
/PSL_page_ysize 13200 def
/PSL_plot_completion {} def
/PSL_movie_label_completion {} def
/PSL_movie_prog_indicator_completion {} def
%PSL_End_Header
gsave
0 A
FQ
O0
1200 1200 TM
% PostScript produced by:
%@GMT: gmt basemap -R-1/1/0/1 -JX6i/1i -Bxaf+l@~g@~ -Byaf+ls(@~g@~)
%@PROJ: xy -1.00000000 1.00000000 0.00000000 1.00000000 -1.000 1.000 0.000 1.000 +xy
%%BeginObject PSL_Layer_1
0 setlinecap
0 setlinejoin
3.32550952342 setmiterlimit
21 W
0 A
/PSL_slant_y 0 def /PSL_slant_x 0 def
2 setlinecap
N 0 1200 M 0 -1200 D S
/PSL_A0_y 57 def
/PSL_A1_y 0 def
7 W
N 0 0 M -57 0 D S
N 0 240 M -57 0 D S
N 0 480 M -57 0 D S
N 0 720 M -57 0 D S
N 0 960 M -57 0 D S
N 0 1200 M -57 0 D S
PSL_font_encode 6 get 0 eq {ISOLatin1+_Encoding /Times-Italic /Times-Italic PSL_reencode PSL_font_encode 6 1 put} if
/MM {neg exch M} def
/PSL_AH0 0
150 F6
(0.0) sw mx
(0.2) sw mx
(0.4) sw mx
(0.6) sw mx
(0.8) sw mx
(1.0) sw mx
def
/PSL_A0_y PSL_A0_y 42 add def
0 PSL_A0_y MM
(0.0) mr Z
240 PSL_A0_y MM
(0.2) mr Z
480 PSL_A0_y MM
(0.4) mr Z
720 PSL_A0_y MM
(0.6) mr Z
960 PSL_A0_y MM
(0.8) mr Z
1200 PSL_A0_y MM
(1.0) mr Z
/PSL_A0_y PSL_A0_y PSL_AH0 add def
N 0 120 M -28 0 D S
N 0 360 M -28 0 D S
N 0 600 M -28 0 D S
N 0 840 M -28 0 D S
N 0 1080 M -28 0 D S
/PSL_LH 200 F6
(M) sh def
/PSL_L_y PSL_A0_y PSL_A1_y mx 85 add def
600 PSL_L_y MM
V 90 R V MU 0 0 M (s\() FP 200 F12 (g) FP 200 F6 (\)) FP pathbbox N pop exch pop add U -2 div 0 G
(s\() Z
200 F12 (g) Z
200 F6 (\)) Z
U
7200 0 T
21 W
N 0 1200 M 0 -1200 D S
-7200 0 T
N 0 0 M 7200 0 D S
/PSL_A0_y 57 def
/PSL_A1_y 0 def
7 W
N 0 0 M 0 -57 D S
N 1800 0 M 0 -57 D S
N 3600 0 M 0 -57 D S
N 5400 0 M 0 -57 D S
N 7200 0 M 0 -57 D S
/MM {neg M} def
/PSL_AH0 0
150 F6
(-1.0) sh mx
(-0.5) sh mx
(0.0) sh mx
(0.5) sh mx
(1.0) sh mx
def
/PSL_A0_y PSL_A0_y 42 add PSL_AH0 add def
0 PSL_A0_y MM
(-1.0) bc Z
1800 PSL_A0_y MM
(-0.5) bc Z
3600 PSL_A0_y MM
(0.0) bc Z
5400 PSL_A0_y MM
(0.5) bc Z
7200 PSL_A0_y MM
(1.0) bc Z
N 360 0 M 0 -28 D S
N 720 0 M 0 -28 D S
N 1080 0 M 0 -28 D S
N 1440 0 M 0 -28 D S
N 2160 0 M 0 -28 D S
N 2520 0 M 0 -28 D S
N 2880 0 M 0 -28 D S
N 3240 0 M 0 -28 D S
N 3960 0 M 0 -28 D S
N 4320 0 M 0 -28 D S
N 4680 0 M 0 -28 D S
N 5040 0 M 0 -28 D S
N 5760 0 M 0 -28 D S
N 6120 0 M 0 -28 D S
N 6480 0 M 0 -28 D S
N 6840 0 M 0 -28 D S
/PSL_LH 200 F6
(M) sh def
/PSL_L_y PSL_A0_y PSL_A1_y mx 85 add PSL_LH add def
3600 PSL_L_y MM
V MU 0 0 M 200 F12 (g) FP pathbbox N pop exch pop add U -2 div 0 G
200 F12 (g) Z
0 1200 T
21 W
N 0 0 M 7200 0 D S
0 -1200 T
0 setlinecap
0 A
%%EndObject
0 A
FQ
O0
0 0 TM
% PostScript produced by:
%@GMT: gmt plot -W1p,red '-l@%6%p = 2@%%+jBC' -R-1/1/0/1 -JX6i/1i
%@PROJ: xy -1.00000000 1.00000000 0.00000000 1.00000000 -1.000 1.000 0.000 1.000 +xy
%%BeginObject PSL_Layer_2
0 setlinecap
0 setlinejoin
3.32550952342 setmiterlimit
V
17 W
1 0 0 C
clipsave
0 0 M
7200 0 D
0 1200 D
-7200 0 D
P
PSL_clip N
0 0 M
18 12 D
18 12 D
65 42 D
7 5 D
29 18 D
7 5 D
29 18 D
7 5 D
47 29 D
7 5 D
22 13 D
10 7 D
8 4 D
10 7 D
44 26 D
10 7 D
8 4 D
10 7 D
15 8 D
7 5 D
47 27 D
7 5 D
29 17 D
151 85 D
90 49 D
36 20 D
11 5 D
25 14 D
11 5 D
43 23 D
11 5 D
32 17 D
15 7 D
68 34 D
11 5 D
32 16 D
119 56 D
137 61 D
115 49 D
72 29 D
108 42 D
97 36 D
108 38 D
133 44 D
112 34 D
108 31 D
86 24 D
33 8 D
144 35 D
155 33 D
111 21 D
159 26 D
86 12 D
140 17 D
166 15 D
90 6 D
97 5 D
126 4 D
173 1 D
148 -4 D
172 -10 D
170 -15 D
144 -17 D
126 -18 D
126 -21 D
111 -21 D
130 -27 D
119 -28 D
79 -20 D
162 -44 D
36 -10 D
14 -5 D
94 -28 D
14 -5 D
33 -10 D
14 -5 D
133 -45 D
130 -47 D
25 -10 D
101 -39 D
147 -61 D
90 -39 D
87 -39 D
119 -56 D
25 -12 D
65 -32 D
79 -40 D
57 -30 D
15 -7 D
21 -12 D
15 -7 D
219 -121 D
51 -30 D
29 -16 D
10 -7 D
44 -25 D
10 -7 D
15 -8 D
7 -5 D
11 -6 D
7 -5 D
47 -28 D
7 -5 D
11 -6 D
7 -5 D
22 -13 D
10 -7 D
33 -20 D
7 -5 D
29 -18 D
7 -5 D
29 -18 D
7 -5 D
65 -42 D
7 -5 D
18 -12 D
18 -12 D
S
PSL_cliprestore
U
%%EndObject
0 A
FQ
O0
0 0 TM
% PostScript produced by:
%@GMT: gmt plot -W0.5p,red,- -R-1/1/0/1 -JX6i/1i
%@PROJ: xy -1.00000000 1.00000000 0.00000000 1.00000000 -1.000 1.000 0.000 1.000 +xy
%%BeginObject PSL_Layer_3
0 setlinecap
0 setlinejoin
3.32550952342 setmiterlimit
V
8 W
[67 33] 0 B
1 0 0 C
clipsave
0 0 M
7200 0 D
0 1200 D
-7200 0 D
P
PSL_clip N
0 800 M
7200 0 D
S
PSL_cliprestore
U
[] 0 B
%%EndObject
0 A
FQ
O0
0 0 TM
% PostScript produced by:
%@GMT: gmt plot -W1p,green '-l@%6%p = 5@%%' -R-1/1/0/1 -JX6i/1i
%@PROJ: xy -1.00000000 1.00000000 0.00000000 1.00000000 -1.000 1.000 0.000 1.000 +xy
%%BeginObject PSL_Layer_4
0 setlinecap
0 setlinejoin
3.32550952342 setmiterlimit
V
17 W
0 1 0 C
clipsave
0 0 M
7200 0 D
0 1200 D
-7200 0 D
P
PSL_clip N
0 0 M
54 87 D
36 56 D
29 42 D
7 11 D
50 71 D
15 19 D
25 33 D
50 64 D
15 17 D
7 9 D
36 42 D
32 36 D
29 32 D
4 3 D
25 27 D
4 3 D
3 4 D
4 3 D
7 8 D
4 3 D
3 4 D
4 3 D
7 8 D
4 3 D
3 4 D
15 13 D
3 4 D
4 3 D
3 4 D
8 6 D
3 4 D
65 57 D
54 44 D
14 12 D
26 19 D
61 44 D
25 17 D
79 50 D
22 12 D
7 5 D
72 39 D
11 5 D
50 25 D
83 36 D
72 28 D
72 25 D
40 12 D
14 5 D
90 25 D
29 7 D
90 20 D
108 20 D
140 20 D
108 12 D
105 9 D
86 6 D
112 6 D
129 5 D
112 3 D
104 2 D
162 2 D
414 2 D
1494 -1 D
281 -4 D
220 -7 D
180 -10 D
154 -13 D
98 -11 D
140 -20 D
83 -15 D
54 -11 D
83 -19 D
115 -31 D
14 -5 D
15 -4 D
14 -5 D
65 -22 D
72 -28 D
72 -31 D
36 -17 D
65 -33 D
54 -29 D
10 -7 D
40 -23 D
47 -30 D
7 -5 D
47 -32 D
54 -40 D
54 -43 D
61 -52 D
29 -26 D
3 -4 D
8 -6 D
3 -4 D
4 -3 D
3 -4 D
15 -13 D
3 -4 D
8 -7 D
3 -4 D
4 -3 D
3 -4 D
8 -7 D
3 -4 D
4 -3 D
3 -4 D
8 -7 D
21 -23 D
4 -3 D
32 -35 D
58 -66 D
7 -9 D
40 -48 D
43 -56 D
25 -34 D
11 -14 D
47 -66 D
10 -16 D
51 -76 D
54 -87 D
7 -12 D
S
PSL_cliprestore
U
%%EndObject
0 A
FQ
O0
0 0 TM
% PostScript produced by:
%@GMT: gmt plot -W0.5p,green,- -R-1/1/0/1 -JX6i/1i
%@PROJ: xy -1.00000000 1.00000000 0.00000000 1.00000000 -1.000 1.000 0.000 1.000 +xy
%%BeginObject PSL_Layer_5
0 setlinecap
0 setlinejoin
3.32550952342 setmiterlimit
V
8 W
[67 33] 0 B
0 1 0 C
clipsave
0 0 M
7200 0 D
0 1200 D
-7200 0 D
P
PSL_clip N
0 1000 M
7200 0 D
S
PSL_cliprestore
U
[] 0 B
%%EndObject
0 A
FQ
O0
0 0 TM
% PostScript produced by:
%@GMT: gmt plot -W1p,blue '-l@%6%p = 10@%%' -R-1/1/0/1 -JX6i/1i
%@PROJ: xy -1.00000000 1.00000000 0.00000000 1.00000000 -1.000 1.000 0.000 1.000 +xy
%%BeginObject PSL_Layer_6
0 setlinecap
0 setlinejoin
3.32550952342 setmiterlimit
V
17 W
0 0 1 C
clipsave
0 0 M
7200 0 D
0 1200 D
-7200 0 D
P
PSL_clip N
0 0 M
36 115 D
36 105 D
36 95 D
36 87 D
36 80 D
43 85 D
29 52 D
25 42 D
36 56 D
36 50 D
36 46 D
29 33 D
32 35 D
26 24 D
3 4 D
43 38 D
15 11 D
21 17 D
29 20 D
29 19 D
11 6 D
7 5 D
43 24 D
15 7 D
36 17 D
57 23 D
29 10 D
54 17 D
32 9 D
98 21 D
100 15 D
83 9 D
101 8 D
119 6 D
133 4 D
194 3 D
447 2 D
3272 -1 D
256 -4 D
162 -6 D
133 -9 D
104 -11 D
83 -12 D
69 -13 D
79 -19 D
29 -8 D
14 -5 D
40 -13 D
75 -31 D
33 -16 D
54 -29 D
10 -7 D
8 -4 D
14 -10 D
29 -19 D
36 -28 D
21 -17 D
33 -29 D
3 -4 D
26 -24 D
54 -59 D
14 -18 D
40 -51 D
18 -25 D
14 -22 D
40 -62 D
14 -25 D
29 -52 D
36 -71 D
36 -77 D
36 -86 D
36 -94 D
36 -103 D
36 -112 D
7 -24 D
S
PSL_cliprestore
U
%%EndObject
0 A
FQ
O0
0 0 TM
% PostScript produced by:
%@GMT: gmt plot -W0.5p,blue,- -R-1/1/0/1 -JX6i/1i
%@PROJ: xy -1.00000000 1.00000000 0.00000000 1.00000000 -1.000 1.000 0.000 1.000 +xy
%%BeginObject PSL_Layer_7
0 setlinecap
0 setlinejoin
3.32550952342 setmiterlimit
V
8 W
[67 33] 0 B
0 0 1 C
clipsave
0 0 M
7200 0 D
0 1200 D
-7200 0 D
P
PSL_clip N
0 1091 M
7200 0 D
S
PSL_cliprestore
U
[] 0 B
%%EndObject
0 A
FQ
O0
0 0 TM
% PostScript produced by:
%@GMT: gmt plot -W1p,black '-l@%6%p = 100@%%' -R-1/1/0/1 -JX6i/1i
%@PROJ: xy -1.00000000 1.00000000 0.00000000 1.00000000 -1.000 1.000 0.000 1.000 +xy
%%BeginObject PSL_Layer_8
0 setlinecap
0 setlinejoin
3.32550952342 setmiterlimit
V
17 W
clipsave
0 0 M
7200 0 D
0 1200 D
-7200 0 D
P
PSL_clip N
0 0 M
14 396 D
18 318 D
18 193 D
18 117 D
18 70 D
18 43 D
11 17 D
11 12 D
14 12 D
18 9 D
33 8 D
36 3 D
83 2 D
6656 -1 D
43 -4 D
33 -8 D
18 -9 D
18 -16 D
10 -13 D
8 -12 D
18 -43 D
18 -70 D
18 -117 D
18 -193 D
18 -318 D
14 -396 D
S
PSL_cliprestore
U
%%EndObject
0 A
FQ
O0
0 0 TM
% PostScript produced by:
%@GMT: gmt plot -W0.5p,black,- -R-1/1/0/1 -JX6i/1i
%@PROJ: xy -1.00000000 1.00000000 0.00000000 1.00000000 -1.000 1.000 0.000 1.000 +xy
%%BeginObject PSL_Layer_9
0 setlinecap
0 setlinejoin
3.32550952342 setmiterlimit
V
8 W
[67 33] 0 B
clipsave
0 0 M
7200 0 D
0 1200 D
-7200 0 D
P
PSL_clip N
0 1188 M
7200 0 D
S
PSL_cliprestore
U
[] 0 B
%%EndObject
0 A
FQ
O0
0 0 TM
% PostScript produced by:
%@GMT: gmt legend -DjCB+w0i+o0.2c -F+p1p+gwhite -S1 -R-1/1/0/1 -JX6i/1i
%@PROJ: xy -1.00000000 1.00000000 0.00000000 1.00000000 -1.000 1.000 0.000 1.000 +xy
%%BeginObject PSL_Layer_10
0 setlinecap
0 setlinejoin
3.32550952342 setmiterlimit
/PSL_legend_label_width 0 def
/PSL_legend_string_width 0 def
PSL_font_encode 6 get 0 eq {ISOLatin1+_Encoding /Times-Italic /Times-Italic PSL_reencode PSL_font_encode 6 1 put} if
150 F6
V MU 0 0 M 150 F6 (p = 2) FP pathbbox N /PSL_tmp_h edef /PSL_tmp_x1 edef /PSL_tmp_d edef /PSL_tmp_x0 edef /PSL_tmp_w PSL_tmp_x1 PSL_tmp_x0 add def U
PSL_tmp_w PSL_legend_label_width gt { /PSL_legend_label_width PSL_tmp_w def } if
V MU 0 0 M 150 F6 (p = 5) FP pathbbox N /PSL_tmp_h edef /PSL_tmp_x1 edef /PSL_tmp_d edef /PSL_tmp_x0 edef /PSL_tmp_w PSL_tmp_x1 PSL_tmp_x0 add def U
PSL_tmp_w PSL_legend_label_width gt { /PSL_legend_label_width PSL_tmp_w def } if
V MU 0 0 M 150 F6 (p = 10) FP pathbbox N /PSL_tmp_h edef /PSL_tmp_x1 edef /PSL_tmp_d edef /PSL_tmp_x0 edef /PSL_tmp_w PSL_tmp_x1 PSL_tmp_x0 add def U
PSL_tmp_w PSL_legend_label_width gt { /PSL_legend_label_width PSL_tmp_w def } if
V MU 0 0 M 150 F6 (p = 100) FP pathbbox N /PSL_tmp_h edef /PSL_tmp_x1 edef /PSL_tmp_d edef /PSL_tmp_x0 edef /PSL_tmp_w PSL_tmp_x1 PSL_tmp_x0 add def U
PSL_tmp_w PSL_legend_label_width gt { /PSL_legend_label_width PSL_tmp_w def } if
/PSL_tmp_w 296 def
/PSL_legend_clear_x 133 def
/PSL_tmp_w PSL_tmp_w PSL_legend_label_width add def
/PSL_legend_box_width PSL_tmp_w PSL_legend_string_width gt { PSL_tmp_w } { PSL_legend_string_width} ifelse PSL_legend_clear_x add def
/PSL_legend_box_height 793 def
3298 94 T
PSL_legend_box_width PSL_legend_box_height sub 1 2 div mul neg 0 translate
V
17 W
{1 A} FS
O1
0 0 M PSL_legend_box_width 0 D 0 PSL_legend_box_height D PSL_legend_box_width neg 0 D P FO N
U
0 A
FQ
O0
0 0 TM
% PostScript produced by:
%@GMT: gmt plot -R0/6/0/1 -Jx1i -O -K -N -S @GMTAPI@-S-I-D-D-T-N-000001 --PROJ_LENGTH_UNIT=inch --GMT_HISTORY=readonly
%@PROJ: xy 0.00000000 6.00000000 0.00000000 1.00000000 0.000 6.000 0.000 1.000 +xy
%%BeginObject PSL_Layer_11
0 setlinecap
0 setlinejoin
3.32550952342 setmiterlimit
V
4 W
O1
17 W
1 0 0 C
106 172 644 S-
0 1 0 C
106 172 479 S-
0 0 1 C
106 172 314 S-
0 A
106 172 149 S-
U
%%EndObject
0 A
FQ
O0
0 0 TM
% PostScript produced by:
%@GMT: gmt text -R0/6/0/1 -Jx1i -O -K -N -F+f+j @GMTAPI@-S-I-D-D-N-N-000002 --GMT_HISTORY=readonly
%@PROJ: xy 0.00000000 6.00000000 0.00000000 1.00000000 0.000 6.000 0.000 1.000 +xy
%%BeginObject PSL_Layer_12
0 setlinecap
0 setlinejoin
3.32550952342 setmiterlimit
363 594 M 150 F6 (p = 2) Z
363 429 M 150 F6
150 F6 (p = 5) Z
363 264 M 150 F6
150 F6 (p = 10) Z
363 99 M 150 F6
150 F6 (p = 100) Z
%%EndObject
PSL_legend_box_width PSL_legend_box_height sub 1 2 div mul 0 translate
-3298 -94 T
%%EndObject
grestore
PSL_movie_label_completion /PSL_movie_label_completion {} def
PSL_movie_prog_indicator_completion /PSL_movie_prog_indicator_completion {} def
%PSL_Begin_Trailer
%%PageTrailer
U
showpage
%%Trailer
end
%%EOF
