%!PS-Adobe-3.0
%%BoundingBox: 0 0 624 341
%%HiResBoundingBox: 0 0 623.6220 340.1570
%%Title: GMT v6.5.0_db679d7_2023.08.14 Document from plot
%%Creator: GMT6
%%For: unknown
%%DocumentNeededResources: font Helvetica
%%CreationDate: Mon Aug 14 13:14:03 2023
%%LanguageLevel: 2
%%DocumentData: Clean7Bit
%%Orientation: Portrait
%%Pages: 1
%%EndComments
%%BeginProlog
250 dict begin
/! {bind def} bind def
/# {load def}!
/A /setgray #
/B /setdash #
/C /setrgbcolor #
/D /rlineto #
/E {dup stringwidth pop}!
/F /fill #
/G /rmoveto #
/H /sethsbcolor #
/I /setpattern #
/K /setcmykcolor #
/L /lineto #
/M /moveto #
/N /newpath #
/P /closepath #
/R /rotate #
/S /stroke #
/T /translate #
/U /grestore #
/V /gsave #
/W /setlinewidth #
/Y {findfont exch scalefont setfont}!
/Z /show #
/FP {true charpath flattenpath}!
/MU {matrix setmatrix}!
/MS {/SMat matrix currentmatrix def}!
/MR {SMat setmatrix}!
/edef {exch def}!
/FS {/fc edef /fs {V fc F U} def}!
/FQ {/fs {} def}!
/O0 {/os {N} def}!
/O1 {/os {P S} def}!
/FO {fs os}!
/Sa {M MS dup 0 exch G 0.726542528 mul -72 R dup 0 D 4 {72 R dup 0 D -144 R dup 0 D} repeat pop MR FO}!
/Sb {M dup 0 D exch 0 exch D neg 0 D FO}!
/SB {MS T /BoxR edef /BoxW edef /BoxH edef BoxR 0 M
  BoxW 0 BoxW BoxH BoxR arct BoxW BoxH 0 BoxH BoxR arct 0 BoxH 0 0 BoxR arct 0 0 BoxW 0 BoxR arct MR FO}!
/Sc {N 3 -1 roll 0 360 arc FO}!
/Sd {M 4 {dup} repeat 0 G neg dup dup D exch D D FO}!
/Se {N MS T R scale 0 0 1 0 360 arc MR FO}!
/Sg {M MS 22.5 R dup 0 exch G -22.5 R 0.765366865 mul dup 0 D 6 {-45 R dup 0 D} repeat pop MR FO}!
/Sh {M MS dup 0 G -120 R dup 0 D 4 {-60 R dup 0 D} repeat pop MR FO}!
/Si {M MS dup neg 0 exch G 60 R 1.732050808 mul dup 0 D 120 R 0 D MR FO}!
/Sj {M MS R dup -2 div 2 index -2 div G dup 0 D exch 0 exch D neg 0 D MR FO}!
/Sn {M MS dup 0 exch G -36 R 1.175570505 mul dup 0 D 3 {-72 R dup 0 D} repeat pop MR FO}!
/Sp {N 3 -1 roll 0 360 arc fs N}!
/SP {M {D} repeat FO}!
/Sr {M dup -2 div 2 index -2 div G dup 0 D exch 0 exch D neg 0 D FO}!
/SR {MS T /BoxR edef /BoxW edef /BoxH edef BoxR BoxW -2 div BoxH -2 div T BoxR 0 M
  BoxW 0 BoxW BoxH BoxR arct BoxW BoxH 0 BoxH BoxR arct 0 BoxH 0 0 BoxR arct 0 0 BoxW 0 BoxR arct MR FO}!
/Ss {M 1.414213562 mul dup dup dup -2 div dup G 0 D 0 exch D neg 0 D FO}!
/St {M MS dup 0 exch G -60 R 1.732050808 mul dup 0 D -120 R 0 D MR FO}!
/SV {0 exch M 0 D D D D D 0 D FO}!
/Sv {0 0 M D D 0 D D D D D 0 D D FO}!
/Sw {2 copy M 5 2 roll arc FO}!
/Sx {M 1.414213562 mul 5 {dup} repeat -2 div dup G D neg 0 G neg D S}!
/Sy {M dup 0 exch G dup -2 mul dup 0 exch D S}!
/S+ {M dup 0 G dup -2 mul dup 0 D exch dup G 0 exch D S}!
/S- {M dup 0 G dup -2 mul dup 0 D S}!
/sw {stringwidth pop}!
/sh {V MU 0 0 M FP pathbbox N 4 1 roll pop pop pop U}!
/sd {V MU 0 0 M FP pathbbox N pop pop exch pop U}!
/sH {V MU 0 0 M FP pathbbox N exch pop exch sub exch pop U}!
/sb {E exch sh}!
/bl {}!
/bc {E -2 div 0 G}!
/br {E neg 0 G}!
/ml {dup 0 exch sh -2 div G}!
/mc {dup E -2 div exch sh -2 div G}!
/mr {dup E neg exch sh -2 div G}!
/tl {dup 0 exch sh neg G}!
/tc {dup E -2 div exch sh neg G}!
/tr {dup E neg exch sh neg G}!
/mx {2 copy lt {exch} if pop}!
/PSL_xorig 0 def /PSL_yorig 0 def
/TM {2 copy T PSL_yorig add /PSL_yorig edef PSL_xorig add /PSL_xorig edef}!
/PSL_reencode {findfont dup length dict begin
  {1 index /FID ne {def}{pop pop} ifelse} forall
  exch /Encoding edef currentdict end definefont pop
}!
/PSL_eps_begin {
  /PSL_eps_state save def
  /PSL_dict_count countdictstack def
  /PSL_op_count count 1 sub def
  userdict begin
  /showpage {} def
  0 setgray 0 setlinecap 1 setlinewidth
  0 setlinejoin 10 setmiterlimit [] 0 setdash newpath
  /languagelevel where
  {pop languagelevel 1 ne {false setstrokeadjust false setoverprint} if} if
}!
/PSL_eps_end {
  count PSL_op_count sub {pop} repeat
  countdictstack PSL_dict_count sub {end} repeat
  PSL_eps_state restore
}!
/PSL_transp {
  /PSL_BM_arg edef /PSL_S_arg edef /PSL_F_arg edef
  /.setfillconstantalpha where
  { pop PSL_BM_arg .setblendmode PSL_S_arg .setstrokeconstantalpha PSL_F_arg .setfillconstantalpha }
  { /pdfmark where {pop [ /BM PSL_BM_arg /CA PSL_S_arg /ca PSL_F_arg /SetTransparency pdfmark} if }
  ifelse
}!
/ISOLatin1+_Encoding [
/.notdef	/.notdef	/.notdef	/.notdef	/.notdef	/.notdef	/.notdef	/.notdef
/.notdef	/.notdef	/.notdef	/.notdef	/.notdef	/.notdef	/.notdef	/.notdef
/.notdef	/.notdef	/.notdef	/.notdef	/.notdef	/.notdef	/.notdef	/.notdef
/.notdef	/bullet		/ellipsis	/trademark	/emdash		/endash		/fi		/zcaron
/space		/exclam		/quotedbl	/numbersign	/dollar		/percent	/ampersand	/quoteright
/parenleft	/parenright	/asterisk	/plus		/comma		/minus		/period		/slash
/zero		/one		/two		/three		/four		/five		/six		/seven
/eight		/nine		/colon		/semicolon	/less		/equal		/greater	/question
/at		/A		/B		/C		/D		/E		/F		/G
/H		/I		/J		/K		/L		/M		/N		/O
/P		/Q		/R		/S		/T		/U		/V		/W
/X		/Y		/Z		/bracketleft	/backslash	/bracketright	/asciicircum	/underscore
/quoteleft	/a		/b		/c 		/d		/e		/f		/g
/h		/i		/j		/k		/l		/m		/n		/o
/p		/q		/r		/s		/t		/u		/v		/w
/x		/y		/z		/braceleft	/bar		/braceright	/asciitilde	/scaron
/OE		/dagger		/daggerdbl	/Lslash		/fraction	/guilsinglleft	/Scaron		/guilsinglright
/oe		/Ydieresis	/Zcaron		/lslash		/perthousand	/quotedblbase	/quotedblleft	/quotedblright
/dotlessi	/grave		/acute		/circumflex	/tilde		/macron		/breve		/dotaccent
/dieresis	/quotesinglbase	/ring		/cedilla	/quotesingle	/hungarumlaut	/ogonek		/caron
/space		/exclamdown	/cent		/sterling	/currency	/yen		/brokenbar	/section
/dieresis	/copyright	/ordfeminine	/guillemotleft	/logicalnot	/hyphen		/registered	/macron
/degree		/plusminus	/twosuperior	/threesuperior	/acute		/mu		/paragraph	/periodcentered
/cedilla	/onesuperior	/ordmasculine	/guillemotright	/onequarter	/onehalf	/threequarters	/questiondown
/Agrave		/Aacute		/Acircumflex	/Atilde		/Adieresis	/Aring		/AE		/Ccedilla
/Egrave		/Eacute		/Ecircumflex	/Edieresis	/Igrave		/Iacute		/Icircumflex	/Idieresis
/Eth		/Ntilde		/Ograve		/Oacute		/Ocircumflex	/Otilde		/Odieresis	/multiply
/Oslash		/Ugrave		/Uacute		/Ucircumflex	/Udieresis	/Yacute		/Thorn		/germandbls
/agrave		/aacute		/acircumflex	/atilde		/adieresis	/aring		/ae		/ccedilla
/egrave		/eacute		/ecircumflex	/edieresis	/igrave		/iacute		/icircumflex	/idieresis
/eth		/ntilde		/ograve		/oacute		/ocircumflex	/otilde		/odieresis	/divide
/oslash		/ugrave		/uacute		/ucircumflex	/udieresis	/yacute		/thorn		/ydieresis
] def
/PSL_font_encode 0 0 0 0 0 0 0 0 0 0 0 0 0 0 0 0 0 0 0 0 0 0 0 0 0 0 0 0 0 0 0 0 0 0 0 0 0 0 0 39 array astore def
/F0 {/Helvetica Y}!
/F1 {/Helvetica-Bold Y}!
/F2 {/Helvetica-Oblique Y}!
/F3 {/Helvetica-BoldOblique Y}!
/F4 {/Times-Roman Y}!
/F5 {/Times-Bold Y}!
/F6 {/Times-Italic Y}!
/F7 {/Times-BoldItalic Y}!
/F8 {/Courier Y}!
/F9 {/Courier-Bold Y}!
/F10 {/Courier-Oblique Y}!
/F11 {/Courier-BoldOblique Y}!
/F12 {/Symbol Y}!
/F13 {/AvantGarde-Book Y}!
/F14 {/AvantGarde-BookOblique Y}!
/F15 {/AvantGarde-Demi Y}!
/F16 {/AvantGarde-DemiOblique Y}!
/F17 {/Bookman-Demi Y}!
/F18 {/Bookman-DemiItalic Y}!
/F19 {/Bookman-Light Y}!
/F20 {/Bookman-LightItalic Y}!
/F21 {/Helvetica-Narrow Y}!
/F22 {/Helvetica-Narrow-Bold Y}!
/F23 {/Helvetica-Narrow-Oblique Y}!
/F24 {/Helvetica-Narrow-BoldOblique Y}!
/F25 {/NewCenturySchlbk-Roman Y}!
/F26 {/NewCenturySchlbk-Italic Y}!
/F27 {/NewCenturySchlbk-Bold Y}!
/F28 {/NewCenturySchlbk-BoldItalic Y}!
/F29 {/Palatino-Roman Y}!
/F30 {/Palatino-Italic Y}!
/F31 {/Palatino-Bold Y}!
/F32 {/Palatino-BoldItalic Y}!
/F33 {/ZapfChancery-MediumItalic Y}!
/F34 {/ZapfDingbats Y}!
/F35 {/Ryumin-Light-EUC-H Y}!
/F36 {/Ryumin-Light-EUC-V Y}!
/F37 {/GothicBBB-Medium-EUC-H Y}!
/F38 {/GothicBBB-Medium-EUC-V Y}!
/PSL_pathtextdict 26 dict def
/PSL_pathtext
  {PSL_pathtextdict begin
    /ydepth exch def
    /textheight exch def
    /just exch def
    /offset exch def
    /str exch def
    /pathdist 0 def
    /setdist offset def
    /charcount 0 def
    /justy just 4 idiv textheight mul 2 div neg ydepth sub def
    V flattenpath
	{movetoproc} {linetoproc}
	{curvetoproc} {closepathproc}
	pathforall
    U N
    end
  } def
PSL_pathtextdict begin
/movetoproc
  { /newy exch def /newx exch def
    /firstx newx def /firsty newy def
    /ovr 0 def
    newx newy transform
    /cpy exch def /cpx exch def
  } def
/linetoproc
  { /oldx newx def /oldy newy def
    /newy exch def /newx exch def
    /dx newx oldx sub def
    /dy newy oldy sub def
    /dist dx dup mul dy dup mul add sqrt def
    dist 0 ne
    { /dsx dx dist div ovr mul def
      /dsy dy dist div ovr mul def
      oldx dsx add oldy dsy add transform
      /cpy exch def /cpx exch def
      /pathdist pathdist dist add def
      {setdist pathdist le
	  {charcount str length lt
	      {setchar} {exit} ifelse}
	  { /ovr setdist pathdist sub def
	    exit}
	  ifelse
      } loop
    } if
  } def
/curvetoproc
  { (ERROR: No curveto's after flattenpath!)
    print
  } def
/closepathproc
  {firstx firsty linetoproc
    firstx firsty movetoproc
  } def
/setchar
  { /char str charcount 1 getinterval def
    /charcount charcount 1 add def
    /charwidth char stringwidth pop def
    V cpx cpy itransform T
      dy dx atan R
      0 justy M
      PSL_font_F {
        char show}
      if
      PSL_font_FO {
        currentpoint N M V char true charpath fs U V char false charpath S U char E 0 G
      } if
      PSL_font_OF {
        currentpoint N M V char false charpath S U V char true charpath fs U char E 0 G
      } if
      0 justy neg G currentpoint transform
      /cpy exch def /cpx exch def
    U /setdist setdist charwidth add def
  } def
end
/PSL_set_label_heights
{
  /PSL_n_labels_minus_1 PSL_n_labels 1 sub def
  /PSL_heights PSL_n_labels array def
  0 1 PSL_n_labels_minus_1
  { /psl_k exch def
    /psl_label PSL_label_str psl_k get def
    PSL_label_font psl_k get cvx exec
    psl_label sH /PSL_height edef
    PSL_heights psl_k PSL_height put
  } for
} def
/PSL_curved_path_labels
{ /psl_bits exch def
  /PSL_placetext psl_bits 2 and 2 eq def
  /PSL_clippath psl_bits 4 and 4 eq def
  /PSL_strokeline false def
  /PSL_fillbox psl_bits 128 and 128 eq def
  /PSL_drawbox psl_bits 256 and 256 eq def
  /PSL_font_F  psl_bits 1536 and 0 eq def
  /PSL_font_FO psl_bits 512 and 512 eq def
  /PSL_font_OF psl_bits 1024 and 1024 eq def
  /PSL_n_paths1 PSL_n_paths 1 sub def
  /PSL_usebox PSL_fillbox PSL_drawbox or def
  PSL_clippath {clipsave N clippath} if
  /psl_k 0 def
  /psl_p 0 def
  0 1 PSL_n_paths1
  { /psl_kk exch def
    /PSL_n PSL_path_n  psl_kk get def
    /PSL_m PSL_label_n psl_kk get def
    /PSL_x PSL_path_x psl_k PSL_n getinterval def
    /PSL_y PSL_path_y psl_k PSL_n getinterval def
    /PSL_node_tmp PSL_label_node psl_p PSL_m getinterval def
    /PSL_angle_tmp PSL_label_angle psl_p PSL_m getinterval def
    /PSL_str_tmp PSL_label_str psl_p PSL_m getinterval def
    /PSL_fnt_tmp PSL_label_font psl_p PSL_m getinterval def
    PSL_curved_path_label
    /psl_k psl_k PSL_n add def
    /psl_p psl_p PSL_m add def
  } for
  PSL_clippath {PSL_eoclip} if N
} def
/PSL_curved_path_label
{
  /PSL_n1 PSL_n 1 sub def
  /PSL_m1 PSL_m 1 sub def
  PSL_CT_calcstringwidth
  PSL_CT_calclinedist
  PSL_CT_excludelabels
  PSL_CT_addcutpoints
  /PSL_nn1 PSL_nn 1 sub def
  /n 0 def
  /k 0 def
  /j 0 def
  /PSL_seg 0 def
  /PSL_xp PSL_nn array def
  /PSL_yp PSL_nn array def
  PSL_xp 0 PSL_xx 0 get put
  PSL_yp 0 PSL_yy 0 get put
  1 1 PSL_nn1
  { /i exch def
    /node_type PSL_kind i get def
    /j j 1 add def
    PSL_xp j PSL_xx i get put
    PSL_yp j PSL_yy i get put
    node_type 1 eq
    {n 0 eq
      {PSL_CT_drawline}
      {
        PSL_CT_reversepath
	      PSL_CT_textline}
      ifelse
      /j 0 def
      PSL_xp j PSL_xx i get put
      PSL_yp j PSL_yy i get put
    } if
  } for
  n 0 eq {PSL_CT_drawline} if
} def
/PSL_CT_textline
{ PSL_fnt k get cvx exec
  /PSL_height PSL_heights k get def
  PSL_placetext	{PSL_CT_placelabel} if
  PSL_clippath {PSL_CT_clippath} if
  /n 0 def /k k 1 add def
} def
/PSL_CT_calcstringwidth
{ /PSL_width_tmp PSL_m array def
  0 1 PSL_m1
  { /i exch def
    PSL_fnt_tmp i get cvx exec
    PSL_width_tmp i PSL_str_tmp i get stringwidth pop put
  } for
} def
/PSL_CT_calclinedist
{ /PSL_newx PSL_x 0 get def
  /PSL_newy PSL_y 0 get def
  /dist 0.0 def
  /PSL_dist PSL_n array def
  PSL_dist 0 0.0 put
  1 1 PSL_n1
  { /i exch def
    /PSL_oldx PSL_newx def
    /PSL_oldy PSL_newy def
    /PSL_newx PSL_x i get def
    /PSL_newy PSL_y i get def
    /dx PSL_newx PSL_oldx sub def
    /dy PSL_newy PSL_oldy sub def
    /dist dist dx dx mul dy dy mul add sqrt add def
    PSL_dist i dist put
  } for
} def
/PSL_CT_excludelabels
{ /k 0 def
  /PSL_width PSL_m array def
  /PSL_angle PSL_m array def
  /PSL_node PSL_m array def
  /PSL_str PSL_m array def
  /PSL_fnt PSL_m array def
  /lastdist PSL_dist PSL_n1 get def
  0 1 PSL_m1
  { /i exch def
    /dist PSL_dist PSL_node_tmp i get get def
    /halfwidth PSL_width_tmp i get 2 div PSL_gap_x add def
    /L_dist dist halfwidth sub def
    /R_dist dist halfwidth add def
    L_dist 0 gt R_dist lastdist lt and
    {
      PSL_width k PSL_width_tmp i get put
      PSL_node k PSL_node_tmp i get put
      PSL_angle k PSL_angle_tmp i get put
      PSL_str k PSL_str_tmp i get put
      PSL_fnt k PSL_fnt_tmp i get put
      /k k 1 add def
    } if
  } for
  /PSL_m k def
  /PSL_m1 PSL_m 1 sub def
} def
/PSL_CT_addcutpoints
{ /k 0 def
  /PSL_nc PSL_m 2 mul 1 add def
  /PSL_cuts PSL_nc array def
  /PSL_nc1 PSL_nc 1 sub def
  0 1 PSL_m1
  { /i exch def
    /dist PSL_dist PSL_node i get get def
    /halfwidth PSL_width i get 2 div PSL_gap_x add def
    PSL_cuts k dist halfwidth sub put
    /k k 1 add def
    PSL_cuts k dist halfwidth add put
    /k k 1 add def
  } for
  PSL_cuts k 100000.0 put
  /PSL_nn PSL_n PSL_m 2 mul add def
  /PSL_xx PSL_nn array def
  /PSL_yy PSL_nn array def
  /PSL_kind PSL_nn array def
  /j 0 def
  /k 0 def
  /dist 0.0 def
  0 1 PSL_n1
  { /i exch def
    /last_dist dist def
    /dist PSL_dist i get def
    k 1 PSL_nc1
    { /kk exch def
      /this_cut PSL_cuts kk get def
      dist this_cut gt
      { /ds dist last_dist sub def
	/f ds 0.0 eq {0.0} {dist this_cut sub ds div} ifelse def
	/i1 i 0 eq {0} {i 1 sub} ifelse def
	PSL_xx j PSL_x i get dup PSL_x i1 get sub f mul sub put
	PSL_yy j PSL_y i get dup PSL_y i1 get sub f mul sub put
	PSL_kind j 1 put
	/j j 1 add def
	/k k 1 add def
      } if
    } for
    dist PSL_cuts k get le
    {PSL_xx j PSL_x i get put PSL_yy j PSL_y i get put
      PSL_kind j 0 put
      /j j 1 add def
    } if
  } for
} def
/PSL_CT_reversepath
{PSL_xp j get PSL_xp 0 get lt
  {0 1 j 2 idiv
    { /left exch def
      /right j left sub def
      /tmp PSL_xp left get def
      PSL_xp left PSL_xp right get put
      PSL_xp right tmp put
      /tmp PSL_yp left get def
      PSL_yp left PSL_yp right get put
      PSL_yp right tmp put
    } for
  } if
} def
/PSL_CT_placelabel
{
  /PSL_just PSL_label_justify k get def
  /PSL_height PSL_heights k get def
  /psl_label PSL_str k get def
  /psl_depth psl_label sd def
  PSL_usebox
  {PSL_CT_clippath
    PSL_fillbox
    {V PSL_setboxrgb fill U} if
    PSL_drawbox
    {V PSL_setboxpen S U} if N
  } if
  PSL_CT_placeline psl_label PSL_gap_x PSL_just PSL_height psl_depth PSL_pathtext
} def
/PSL_CT_clippath
{
  /H PSL_height 2 div PSL_gap_y add def
  /xoff j 1 add array def
  /yoff j 1 add array def
  /angle 0 def
  0 1 j {
    /ii exch def
    /x PSL_xp ii get def
    /y PSL_yp ii get def
    ii 0 eq {
      /x1 PSL_xp 1 get def
      /y1 PSL_yp 1 get def
      /dx x1 x sub def
      /dy y1 y sub def
    }
    { /i1 ii 1 sub def
      /x1 PSL_xp i1 get def
      /y1 PSL_yp i1 get def
      /dx x x1 sub def
      /dy y y1 sub def
    } ifelse
    dx 0.0 eq dy 0.0 eq and not
    { /angle dy dx atan 90 add def} if
    /sina angle sin def
    /cosa angle cos def
    xoff ii H cosa mul put
    yoff ii H sina mul put
  } for
  PSL_xp 0 get xoff 0 get add PSL_yp 0 get yoff 0 get add M
  1 1 j {
    /ii exch def
    PSL_xp ii get xoff ii get add PSL_yp ii get yoff ii get add L
  } for
  j -1 0 {
    /ii exch def
    PSL_xp ii get xoff ii get sub PSL_yp ii get yoff ii get sub L
  } for P
} def
/PSL_CT_drawline
{
  /str 20 string def
  PSL_strokeline
  {PSL_CT_placeline S} if
  /PSL_seg PSL_seg 1 add def
  /n 1 def
} def
/PSL_CT_placeline
{PSL_xp 0 get PSL_yp 0 get M
  1 1 j { /ii exch def PSL_xp ii get PSL_yp ii get L} for
} def
/PSL_draw_path_lines
{
  /PSL_n_paths1 PSL_n_paths 1 sub def
  V
  /psl_start 0 def
  0 1 PSL_n_paths1
  { /psl_k exch def
    /PSL_n PSL_path_n psl_k get def
    /PSL_n1 PSL_n 1 sub def
    PSL_path_pen psl_k get cvx exec
    N
    PSL_path_x psl_start get PSL_path_y psl_start get M
    1 1 PSL_n1
    { /psl_i exch def
      /psl_kk psl_i psl_start add def
      PSL_path_x psl_kk get PSL_path_y psl_kk get L
    } for
    /psl_xclose PSL_path_x psl_kk get PSL_path_x psl_start get sub def
    /psl_yclose PSL_path_y psl_kk get PSL_path_y psl_start get sub def
    psl_xclose 0 eq psl_yclose 0 eq and { P } if
    S
    /psl_start psl_start PSL_n add def
  } for
  U
} def
/PSL_straight_path_labels
{
  /psl_bits exch def
  /PSL_placetext psl_bits 2 and 2 eq def
  /PSL_rounded psl_bits 32 and 32 eq def
  /PSL_fillbox psl_bits 128 and 128 eq def
  /PSL_drawbox psl_bits 256 and 256 eq def
  /PSL_font_F  psl_bits 1536 and 0 eq def
  /PSL_font_FO psl_bits 512 and 512 eq def
  /PSL_font_OF psl_bits 1024 and 1024 eq def
  /PSL_n_labels_minus_1 PSL_n_labels 1 sub def
  /PSL_usebox PSL_fillbox PSL_drawbox or def
  0 1 PSL_n_labels_minus_1
  { /psl_k exch def
    PSL_ST_prepare_text
    PSL_usebox
    {  PSL_rounded
        {PSL_ST_textbox_round}
        {PSL_ST_textbox_rect}
      ifelse
      PSL_fillbox {V PSL_setboxrgb fill U} if
      PSL_drawbox {V PSL_setboxpen S U} if
      N
    } if
    PSL_font_F {
      PSL_placetext {PSL_ST_place_label} if
    } if
    PSL_font_FO {
      PSL_placetext {PSL_ST_place_label_FO} if
    } if
    PSL_font_OF {
      PSL_placetext {PSL_ST_place_label_OF} if
    } if
  } for
} def
/PSL_straight_path_clip
{
  /psl_bits exch def
  /PSL_rounded psl_bits 32 and 32 eq def
  /PSL_n_labels_minus_1 PSL_n_labels 1 sub def
  N clipsave clippath
  0 1 PSL_n_labels_minus_1
  { /psl_k exch def
    PSL_ST_prepare_text
    PSL_rounded
      {PSL_ST_textbox_round}
      {PSL_ST_textbox_rect}
    ifelse
  } for
  PSL_eoclip N
} def
/PSL_ST_prepare_text
{
  /psl_xp PSL_txt_x psl_k get def
  /psl_yp PSL_txt_y psl_k get def
  /psl_label PSL_label_str psl_k get def
  PSL_label_font psl_k get cvx exec
  /PSL_height PSL_heights psl_k get def
  /psl_boxH PSL_height PSL_gap_y 2 mul add def
  /PSL_just PSL_label_justify psl_k get def
  /PSL_justx PSL_just 4 mod 1 sub 2 div neg def
  /PSL_justy PSL_just 4 idiv 2 div neg def
  /psl_SW psl_label stringwidth pop def
  /psl_boxW psl_SW PSL_gap_x 2 mul add def
  /psl_x0 psl_SW PSL_justx mul def
  /psl_y0 PSL_justy PSL_height mul def
  /psl_angle PSL_label_angle psl_k get def
} def
/PSL_ST_textbox_rect
{
  psl_xp psl_yp T psl_angle R psl_x0 psl_y0 T
  PSL_gap_x neg PSL_gap_y neg M
  0 psl_boxH D psl_boxW 0 D 0 psl_boxH neg D P
  psl_x0 neg psl_y0 neg T psl_angle neg R psl_xp neg psl_yp neg T
} def
/PSL_ST_textbox_round
{
  /psl_BoxR PSL_gap_x PSL_gap_y lt {PSL_gap_x} {PSL_gap_y} ifelse def
  /psl_xd PSL_gap_x psl_BoxR sub def
  /psl_yd PSL_gap_y psl_BoxR sub def
  /psl_xL PSL_gap_x neg def
  /psl_yB PSL_gap_y neg def
  /psl_yT psl_boxH psl_yB add def
  /psl_H2 PSL_height psl_yd 2 mul add def
  /psl_W2 psl_SW psl_xd 2 mul add def
  /psl_xR psl_xL psl_boxW add def
  /psl_x0 psl_SW PSL_justx mul def
  psl_xp psl_yp T psl_angle R psl_x0 psl_y0 T
  psl_xL psl_yd M
  psl_xL psl_yT psl_xR psl_yT psl_BoxR arct psl_W2 0 D
  psl_xR psl_yT psl_xR psl_yB psl_BoxR arct 0 psl_H2 neg D
  psl_xR psl_yB psl_xL psl_yB psl_BoxR arct psl_W2 neg 0 D
  psl_xL psl_yB psl_xL psl_yd psl_BoxR arct P
  psl_x0 neg psl_y0 neg T psl_angle neg R psl_xp neg psl_yp neg T
} def
/PSL_ST_place_label
{
    V psl_xp psl_yp T psl_angle R
    psl_SW PSL_justx mul psl_y0 M
    psl_label dup sd neg 0 exch G show
    U
} def
/PSL_ST_place_label_FO
{
    V psl_xp psl_yp T psl_angle R
    psl_SW PSL_justx mul psl_y0 M
    psl_label dup sd neg 0 exch G false charpath V fs U S N
    U
} def
/PSL_ST_place_label_OF
{
    V psl_xp psl_yp T psl_angle R
    psl_SW PSL_justx mul psl_y0 M
    psl_label dup sd neg 0 exch G false charpath V S U fs N
    U
} def
/PSL_nclip 0 def
/PSL_clip {clip /PSL_nclip PSL_nclip 1 add def} def
/PSL_eoclip {eoclip /PSL_nclip PSL_nclip 1 add def} def
/PSL_cliprestore {cliprestore /PSL_nclip PSL_nclip 1 sub def} def
%%EndProlog
%%BeginSetup
/PSLevel /languagelevel where {pop languagelevel} {1} ifelse def
%%EndSetup
%%Page: 1 1
%%BeginPageSetup
V 0.06 0.06 scale
%%EndPageSetup
/PSL_page_xsize 10394 def
/PSL_page_ysize 5669 def
/PSL_plot_completion {} def
/PSL_movie_label_completion {} def
/PSL_movie_prog_indicator_completion {} def
%PSL_End_Header
gsave
0 A
FQ
O0
2079 1063 TM
% PostScript produced by:
%@GMT: gmt plot -R-0.5/1.5/-0.1/2.1 -JX13.2c/2c -X4.4c -Y2.25c /Users/pwessel/UH/RESEARCH/CVSPROJECTS/GMTdev/gmt-dev/rbuild/doc/scripts/psevents_action/stepfunction.txt -W5p,lightblue@50
%@PROJ: xy -0.50000000 1.50000000 -0.10000000 2.10000000 -0.500 1.500 -0.100 2.100 +xy
%%BeginObject PSL_Layer_1
0 setlinecap
0 setlinejoin
3.32550952342 setmiterlimit
V
83 W
0.678 0.847 0.902 C 0.5 0.5 /Normal PSL_transp
clipsave
0 0 M
6236 0 D
0 945 D
-6236 0 D
P
PSL_clip N
0 43 M
1559 0 D
0 429 D
3118 0 D
0 -429 D
1559 0 D
S
PSL_cliprestore
U
%%EndObject
1 1 /Normal PSL_transp
0 A
FQ
O0
0 0 TM
% PostScript produced by:
%@GMT: gmt plot size_vs_time.txt -W1p,red -BW '-Bafg0.25+lSize scale' -R-0.5/1.5/-0.1/2.1 -JX13.2c/2c
%@PROJ: xy -0.50000000 1.50000000 -0.10000000 2.10000000 -0.500 1.500 -0.100 2.100 +xy
%%BeginObject PSL_Layer_2
0 setlinecap
0 setlinejoin
3.32550952342 setmiterlimit
3 W
0 A
0 0 M
0 945 D
S
780 0 M
0 945 D
S
1559 0 M
0 945 D
S
2339 0 M
0 945 D
S
3118 0 M
0 945 D
S
3898 0 M
0 945 D
S
4677 0 M
0 945 D
S
5457 0 M
0 945 D
S
6236 0 M
0 945 D
S
0 43 M
6236 0 D
S
0 150 M
6236 0 D
S
0 258 M
6236 0 D
S
0 365 M
6236 0 D
S
0 472 M
6236 0 D
S
0 580 M
6236 0 D
S
0 687 M
6236 0 D
S
0 795 M
6236 0 D
S
0 902 M
6236 0 D
S
V
17 W
1 0 0 C
clipsave
0 0 M
6236 0 D
0 945 D
-6236 0 D
P
PSL_clip N
0 43 M
811 1 D
31 4 D
31 7 D
31 10 D
31 12 D
32 15 D
31 18 D
31 21 D
31 23 D
31 26 D
32 29 D
62 66 D
31 37 D
31 40 D
63 88 D
62 99 D
94 169 D
62 127 D
31 67 D
811 -1 D
62 -5 D
62 -11 D
63 -17 D
31 -10 D
94 -39 D
62 -33 D
62 -39 D
63 -44 D
62 -49 D
62 -55 D
63 -61 D
62 -66 D
1559 0 D
780 -322 D
779 0 D
S
PSL_cliprestore
U
21 W
0 A
/PSL_slant_y 0 def /PSL_slant_x 0 def
2 setlinecap
N 0 945 M 0 -945 D S
/PSL_A0_y 56 def
/PSL_A1_y 0 def
7 W
N 0 43 M -56 0 D S
N 0 258 M -56 0 D S
N 0 472 M -56 0 D S
N 0 687 M -56 0 D S
N 0 902 M -56 0 D S
/MM {neg exch M} def
/PSL_AH0 0
PSL_font_encode 0 get 0 eq {ISOLatin1+_Encoding /Helvetica /Helvetica PSL_reencode PSL_font_encode 0 1 put} if
139 F0
(0.0) sw mx
(0.5) sw mx
(1.0) sw mx
(1.5) sw mx
(2.0) sw mx
def
/PSL_A0_y PSL_A0_y 42 add def
43 PSL_A0_y MM
(0.0) mr Z
258 PSL_A0_y MM
(0.5) mr Z
472 PSL_A0_y MM
(1.0) mr Z
687 PSL_A0_y MM
(1.5) mr Z
902 PSL_A0_y MM
(2.0) mr Z
/PSL_A0_y PSL_A0_y PSL_AH0 add def
N 0 0 M -28 0 D S
N 0 86 M -28 0 D S
N 0 129 M -28 0 D S
N 0 172 M -28 0 D S
N 0 215 M -28 0 D S
N 0 301 M -28 0 D S
N 0 344 M -28 0 D S
N 0 387 M -28 0 D S
N 0 429 M -28 0 D S
N 0 515 M -28 0 D S
N 0 558 M -28 0 D S
N 0 601 M -28 0 D S
N 0 644 M -28 0 D S
N 0 730 M -28 0 D S
N 0 773 M -28 0 D S
N 0 816 M -28 0 D S
N 0 859 M -28 0 D S
N 0 945 M -28 0 D S
/PSL_LH 195 F0
(M) sh def
/PSL_L_y PSL_A0_y PSL_A1_y mx 84 add def
472 PSL_L_y MM
V 90 R (Size scale) bc Z U
0 setlinecap
%%EndObject
0 A
FQ
O0
0 0 TM
% PostScript produced by:
%@GMT: gmt text -F+f8p+jBC -Dj6p -N /Users/pwessel/UH/RESEARCH/CVSPROJECTS/GMTdev/gmt-dev/rbuild/doc/scripts/psevents_action/labels.txt -R-0.5/1.5/-0.1/2.1 -JX13.2c/2c
%@PROJ: xy -0.50000000 1.50000000 -0.10000000 2.10000000 -0.500 1.500 -0.100 2.100 +xy
%%BeginObject PSL_Layer_3
0 setlinecap
0 setlinejoin
3.32550952342 setmiterlimit
1169 1002 M PSL_font_encode 0 get 0 eq {ISOLatin1+_Encoding /Helvetica /Helvetica PSL_reencode PSL_font_encode 0 1 put} if
133 F0
(RISE) bc Z
1949 1002 M (PLATEAU) bc Z
2728 1002 M (DECAY) bc Z
5067 1002 M (FADE) bc Z
5846 1002 M (CODA) bc Z
%%EndObject
grestore
PSL_movie_label_completion /PSL_movie_label_completion {} def
PSL_movie_prog_indicator_completion /PSL_movie_prog_indicator_completion {} def
/PSL_xorig 0 def /PSL_yorig 0 def
gsave
0 A
FQ
O0
472 472 TM
% PostScript produced by:
%@GMT: gmt events /Users/pwessel/UH/RESEARCH/CVSPROJECTS/GMTdev/gmt-dev/rbuild/doc/scripts/psevents_action/red.txt -T1 -R-20/40/1/9 -JX20c/10c -B -Es+r0.25+p0.25+d0.25+f0.25 -Et+o0.25 -Sc2c -Gred -W1p -Ms2+c0.25 -Mi1+c-0.5 -Mt100+c50 -F+f18p+jBC -Dj3c -L -X1c -Y1c
%@PROJ: xy -20.00000000 40.00000000 1.00000000 9.00000000 -20.000 40.000 1.000 9.000 +xy
%%BeginObject PSL_Layer_1
0 setlinecap
0 setlinejoin
3.32550952342 setmiterlimit
/PSL_movie_label_completion {
V
67 5603 M PSL_font_encode 0 get 0 eq {ISOLatin1+_Encoding /Helvetica /Helvetica PSL_reencode PSL_font_encode 0 1 put} if
333 F0
(1) tl Z
PSL_font_encode 0 get 0 eq {ISOLatin1+_Encoding /Helvetica /Helvetica PSL_reencode PSL_font_encode 0 1 put} if
0 A
10327 5603 M 333 F0
(150) tr Z
U
}!
/PSL_movie_prog_indicator_completion {
V
PSL_font_encode 0 get 0 eq {ISOLatin1+_Encoding /Helvetica /Helvetica PSL_reencode PSL_font_encode 0 1 put} if
0 A
2079 961 T
0 A
FQ
O0
0 0 TM
% PostScript produced by:
%@GMT: gmt basemap -R-0.5/1.5/0/1 -JX5.19685i/0.0001i -Baf -BS -X0 -Y0 --MAP_FRAME_PEN=3p,black --FONT_ANNOT_PRIMARY=+9p,Helvetica,black --GMT_HISTORY=false
%@PROJ: xy -0.50000000 1.50000000 0.00000000 1.00000000 -0.500 1.500 0.000 1.000 +xy
%%BeginObject PSL_Layer_2
0 setlinecap
0 setlinejoin
3.32550952342 setmiterlimit
50 W
0 A
/PSL_slant_y 0 def /PSL_slant_x 0 def
2 setlinecap
N 0 0 M 6236 0 D S
/PSL_A0_y 60 def
/PSL_A1_y 0 def
8 W
N 0 0 M 0 -60 D S
N 1559 0 M 0 -60 D S
N 3118 0 M 0 -60 D S
N 4677 0 M 0 -60 D S
N 6236 0 M 0 -60 D S
/MM {neg M} def
/PSL_AH0 0
150 F0
(-0.5) sh mx
(0.0) sh mx
(0.5) sh mx
(1.0) sh mx
(1.5) sh mx
def
/PSL_A0_y PSL_A0_y 45 add PSL_AH0 add def
0 PSL_A0_y MM
(-0.5) bc Z
1559 PSL_A0_y MM
(0.0) bc Z
3118 PSL_A0_y MM
(0.5) bc Z
4677 PSL_A0_y MM
(1.0) bc Z
6236 PSL_A0_y MM
(1.5) bc Z
N 312 0 M 0 -30 D S
N 624 0 M 0 -30 D S
N 935 0 M 0 -30 D S
N 1247 0 M 0 -30 D S
N 1871 0 M 0 -30 D S
N 2183 0 M 0 -30 D S
N 2494 0 M 0 -30 D S
N 2806 0 M 0 -30 D S
N 3430 0 M 0 -30 D S
N 3742 0 M 0 -30 D S
N 4054 0 M 0 -30 D S
N 4365 0 M 0 -30 D S
N 4989 0 M 0 -30 D S
N 5301 0 M 0 -30 D S
N 5613 0 M 0 -30 D S
N 5924 0 M 0 -30 D S
/PSL_LH 0 def /PSL_L_y PSL_A0_y PSL_A1_y mx def
0 setlinecap
0 A
%%EndObject
{1 0 0 C} FS
O0
50 4677 30 Si
U
}!
0 A
0 A
FQ
O0
0 0 TM
% PostScript produced by:
%@GMT: gmt plot /tmp/GMT_psevents_symbols_9726.txt -R-20/40/1/9 -JX20c/10c -O -K -H -I -t -Sc2c --GMT_HISTORY=readonly --PROJ_LENGTH_UNIT=cm -Gred -W1p
%@PROJ: xy -20.00000000 40.00000000 1.00000000 9.00000000 -20.000 40.000 1.000 9.000 +xy
%%BeginObject PSL_Layer_3
0 setlinecap
0 setlinejoin
3.32550952342 setmiterlimit
clipsave
0 0 M
9449 0 D
0 4724 D
-9449 0 D
P
PSL_clip N
V
17 W
{1 0 0 C} FS
O1
472 6299 2953 Sc
U
PSL_cliprestore
%%EndObject
0 A
FQ
O0
0 0 TM
% PostScript produced by:
%@GMT: gmt text /tmp/GMT_psevents_labels_9726.txt -R-20/40/1/9 -JX20c/10c -O -K -t --GMT_HISTORY=readonly -Dj3c -F+f18p+jBC
%@PROJ: xy -20.00000000 40.00000000 1.00000000 9.00000000 -20.000 40.000 1.000 9.000 +xy
%%BeginObject PSL_Layer_4
0 setlinecap
0 setlinejoin
3.32550952342 setmiterlimit
clipsave
0 0 M
9449 0 D
0 4724 D
-9449 0 D
P
PSL_clip N
PSL_font_encode 0 get 0 eq {ISOLatin1+_Encoding /Helvetica /Helvetica PSL_reencode PSL_font_encode 0 1 put} if
6299 4370 M 300 F0
(Red Label) bc Z
PSL_cliprestore
%%EndObject
24 W
0 A
/PSL_slant_y 0 def /PSL_slant_x 0 def
2 setlinecap
N 0 4724 M 0 -4724 D S
/PSL_A0_y 64 def
/PSL_A1_y 0 def
8 W
N 0 591 M -64 0 D S
N 0 1772 M -64 0 D S
N 0 2953 M -64 0 D S
N 0 4134 M -64 0 D S
/MM {neg exch M} def
/PSL_AH0 0
159 F0
(2) sw mx
(4) sw mx
(6) sw mx
(8) sw mx
def
/PSL_A0_y PSL_A0_y 48 add def
591 PSL_A0_y MM
(2) mr Z
1772 PSL_A0_y MM
(4) mr Z
2953 PSL_A0_y MM
(6) mr Z
4134 PSL_A0_y MM
(8) mr Z
/PSL_A0_y PSL_A0_y PSL_AH0 add def
N 0 0 M -32 0 D S
N 0 1181 M -32 0 D S
N 0 2362 M -32 0 D S
N 0 3543 M -32 0 D S
N 0 4724 M -32 0 D S
/PSL_LH 0 def /PSL_L_y PSL_A0_y PSL_A1_y mx def
9449 0 T
24 W
N 0 4724 M 0 -4724 D S
-9449 0 T
N 0 0 M 9449 0 D S
/PSL_A0_y 64 def
/PSL_A1_y 0 def
8 W
N 0 0 M 0 -64 D S
N 1575 0 M 0 -64 D S
N 3150 0 M 0 -64 D S
N 4724 0 M 0 -64 D S
N 6299 0 M 0 -64 D S
N 7874 0 M 0 -64 D S
N 9449 0 M 0 -64 D S
/MM {neg M} def
/PSL_AH0 0
(-20) sh mx
(-10) sh mx
(0) sh mx
(10) sh mx
(20) sh mx
(30) sh mx
(40) sh mx
def
/PSL_A0_y PSL_A0_y 48 add PSL_AH0 add def
0 PSL_A0_y MM
(-20) bc Z
1575 PSL_A0_y MM
(-10) bc Z
3150 PSL_A0_y MM
(0) bc Z
4724 PSL_A0_y MM
(10) bc Z
6299 PSL_A0_y MM
(20) bc Z
7874 PSL_A0_y MM
(30) bc Z
9449 PSL_A0_y MM
(40) bc Z
N 315 0 M 0 -32 D S
N 630 0 M 0 -32 D S
N 945 0 M 0 -32 D S
N 1260 0 M 0 -32 D S
N 1890 0 M 0 -32 D S
N 2205 0 M 0 -32 D S
N 2520 0 M 0 -32 D S
N 2835 0 M 0 -32 D S
N 3465 0 M 0 -32 D S
N 3780 0 M 0 -32 D S
N 4094 0 M 0 -32 D S
N 4409 0 M 0 -32 D S
N 5039 0 M 0 -32 D S
N 5354 0 M 0 -32 D S
N 5669 0 M 0 -32 D S
N 5984 0 M 0 -32 D S
N 6614 0 M 0 -32 D S
N 6929 0 M 0 -32 D S
N 7244 0 M 0 -32 D S
N 7559 0 M 0 -32 D S
N 8189 0 M 0 -32 D S
N 8504 0 M 0 -32 D S
N 8819 0 M 0 -32 D S
N 9134 0 M 0 -32 D S
/PSL_LH 0 def /PSL_L_y PSL_A0_y PSL_A1_y mx def
0 4724 T
24 W
N 0 0 M 9449 0 D S
0 -4724 T
0 setlinecap
%%EndObject
0 A
FQ
O0
0 0 TM
% PostScript produced by:
%@GMT: gmt events /Users/pwessel/UH/RESEARCH/CVSPROJECTS/GMTdev/gmt-dev/rbuild/doc/scripts/psevents_action/blue.txt -T1 -Sc2c -Gblue -W1p -F+f18p+jBC -Dj3c -L -E -R-20/40/1/9 -JX20c/10c
%@PROJ: xy -20.00000000 40.00000000 1.00000000 9.00000000 -20.000 40.000 1.000 9.000 +xy
%%BeginObject PSL_Layer_5
0 setlinecap
0 setlinejoin
3.32550952342 setmiterlimit
0 A
FQ
O0
0 0 TM
% PostScript produced by:
%@GMT: gmt plot /tmp/GMT_psevents_symbols_9744.txt -R-20/40/1/9 -JX20c/10c -O -K -H -I -t -Sc2c --GMT_HISTORY=readonly --PROJ_LENGTH_UNIT=cm -Gblue -W1p
%@PROJ: xy -20.00000000 40.00000000 1.00000000 9.00000000 -20.000 40.000 1.000 9.000 +xy
%%BeginObject PSL_Layer_6
0 setlinecap
0 setlinejoin
3.32550952342 setmiterlimit
clipsave
0 0 M
9449 0 D
0 4724 D
-9449 0 D
P
PSL_clip N
V
17 W
{0 0 1 C} FS
O1
472 3150 2953 Sc
U
PSL_cliprestore
%%EndObject
0 A
FQ
O0
0 0 TM
% PostScript produced by:
%@GMT: gmt text /tmp/GMT_psevents_labels_9744.txt -R-20/40/1/9 -JX20c/10c -O -K -t --GMT_HISTORY=readonly -Dj3c -F+f18p+jBC
%@PROJ: xy -20.00000000 40.00000000 1.00000000 9.00000000 -20.000 40.000 1.000 9.000 +xy
%%BeginObject PSL_Layer_7
0 setlinecap
0 setlinejoin
3.32550952342 setmiterlimit
clipsave
0 0 M
9449 0 D
0 4724 D
-9449 0 D
P
PSL_clip N
3150 4370 M PSL_font_encode 0 get 0 eq {ISOLatin1+_Encoding /Helvetica /Helvetica PSL_reencode PSL_font_encode 0 1 put} if
300 F0
(Blue Label) bc Z
PSL_cliprestore
%%EndObject
%%EndObject
0 A
FQ
O0
1606 591 TM
% PostScript produced by:
%@GMT: gmt plot -Sc4p -Gred -R-0.5/1.5/-0.1/2.1 -JX13.2c/2c -N -X3.4c -Y1.25c
%@PROJ: xy -0.50000000 1.50000000 -0.10000000 2.10000000 -0.500 1.500 -0.100 2.100 +xy
%%BeginObject PSL_Layer_8
0 setlinecap
0 setlinejoin
3.32550952342 setmiterlimit
V
4 W
{1 0 0 C} FS
33 4677 472 Sc
U
%%EndObject
0 A
FQ
O0
0 0 TM
% PostScript produced by:
%@GMT: gmt plot -Sc2p -Gblue -N -R-0.5/1.5/-0.1/2.1 -JX13.2c/2c
%@PROJ: xy -0.50000000 1.50000000 -0.10000000 2.10000000 -0.500 1.500 -0.100 2.100 +xy
%%BeginObject PSL_Layer_9
0 setlinecap
0 setlinejoin
3.32550952342 setmiterlimit
V
4 W
{0 0 1 C} FS
17 4677 43 Sc
U
%%EndObject
grestore
PSL_movie_label_completion /PSL_movie_label_completion {} def
PSL_movie_prog_indicator_completion /PSL_movie_prog_indicator_completion {} def
%PSL_Begin_Trailer
%%PageTrailer
U
showpage
%%Trailer
end
%%EOF
