%!PS-Adobe-3.0
%%BoundingBox: 0 0 595 842
%%HiResBoundingBox: 0 0 595.0000 842.0000
%%Title: GMT v6.4.0_435c14a-dirty_2022.01.25 [64-bit] Document from text
%%Creator: GMT6
%%For: unknown
%%DocumentNeededResources: font Helvetica
%%CreationDate: Tue Jan 25 16:17:14 2022
%%LanguageLevel: 2
%%DocumentData: Clean7Bit
%%Orientation: Portrait
%%Pages: 1
%%EndComments
%%BeginProlog
250 dict begin
/! {bind def} bind def
/# {load def}!
/A /setgray #
/B /setdash #
/C /setrgbcolor #
/D /rlineto #
/E {dup stringwidth pop}!
/F /fill #
/G /rmoveto #
/H /sethsbcolor #
/I /setpattern #
/K /setcmykcolor #
/L /lineto #
/M /moveto #
/N /newpath #
/P /closepath #
/R /rotate #
/S /stroke #
/T /translate #
/U /grestore #
/V /gsave #
/W /setlinewidth #
/Y {findfont exch scalefont setfont}!
/Z /show #
/FP {true charpath flattenpath}!
/MU {matrix setmatrix}!
/MS {/SMat matrix currentmatrix def}!
/MR {SMat setmatrix}!
/edef {exch def}!
/FS {/fc edef /fs {V fc F U} def}!
/FQ {/fs {} def}!
/O0 {/os {N} def}!
/O1 {/os {P S} def}!
/FO {fs os}!
/Sa {M MS dup 0 exch G 0.726542528 mul -72 R dup 0 D 4 {72 R dup 0 D -144 R dup 0 D} repeat pop MR FO}!
/Sb {M dup 0 D exch 0 exch D neg 0 D FO}!
/SB {MS T /BoxR edef /BoxW edef /BoxH edef BoxR 0 M
  BoxW 0 BoxW BoxH BoxR arct BoxW BoxH 0 BoxH BoxR arct 0 BoxH 0 0 BoxR arct 0 0 BoxW 0 BoxR arct MR FO}!
/Sc {N 3 -1 roll 0 360 arc FO}!
/Sd {M 4 {dup} repeat 0 G neg dup dup D exch D D FO}!
/Se {N MS T R scale 0 0 1 0 360 arc MR FO}!
/Sg {M MS 22.5 R dup 0 exch G -22.5 R 0.765366865 mul dup 0 D 6 {-45 R dup 0 D} repeat pop MR FO}!
/Sh {M MS dup 0 G -120 R dup 0 D 4 {-60 R dup 0 D} repeat pop MR FO}!
/Si {M MS dup neg 0 exch G 60 R 1.732050808 mul dup 0 D 120 R 0 D MR FO}!
/Sj {M MS R dup -2 div 2 index -2 div G dup 0 D exch 0 exch D neg 0 D MR FO}!
/Sn {M MS dup 0 exch G -36 R 1.175570505 mul dup 0 D 3 {-72 R dup 0 D} repeat pop MR FO}!
/Sp {N 3 -1 roll 0 360 arc fs N}!
/SP {M {D} repeat FO}!
/Sr {M dup -2 div 2 index -2 div G dup 0 D exch 0 exch D neg 0 D FO}!
/SR {MS T /BoxR edef /BoxW edef /BoxH edef BoxR BoxW -2 div BoxH -2 div T BoxR 0 M
  BoxW 0 BoxW BoxH BoxR arct BoxW BoxH 0 BoxH BoxR arct 0 BoxH 0 0 BoxR arct 0 0 BoxW 0 BoxR arct MR FO}!
/Ss {M 1.414213562 mul dup dup dup -2 div dup G 0 D 0 exch D neg 0 D FO}!
/St {M MS dup 0 exch G -60 R 1.732050808 mul dup 0 D -120 R 0 D MR FO}!
/SV {0 exch M 0 D D D D D 0 D FO}!
/Sv {0 0 M D D 0 D D D D D 0 D D FO}!
/Sw {2 copy M 5 2 roll arc FO}!
/Sx {M 1.414213562 mul 5 {dup} repeat -2 div dup G D neg 0 G neg D S}!
/Sy {M dup 0 exch G dup -2 mul dup 0 exch D S}!
/S+ {M dup 0 G dup -2 mul dup 0 D exch dup G 0 exch D S}!
/S- {M dup 0 G dup -2 mul dup 0 D S}!
/sw {stringwidth pop}!
/sh {V MU 0 0 M FP pathbbox N 4 1 roll pop pop pop U}!
/sd {V MU 0 0 M FP pathbbox N pop pop exch pop U}!
/sH {V MU 0 0 M FP pathbbox N exch pop exch sub exch pop U}!
/sb {E exch sh}!
/bl {}!
/bc {E -2 div 0 G}!
/br {E neg 0 G}!
/ml {dup 0 exch sh -2 div G}!
/mc {dup E -2 div exch sh -2 div G}!
/mr {dup E neg exch sh -2 div G}!
/tl {dup 0 exch sh neg G}!
/tc {dup E -2 div exch sh neg G}!
/tr {dup E neg exch sh neg G}!
/mx {2 copy lt {exch} if pop}!
/PSL_xorig 0 def /PSL_yorig 0 def
/TM {2 copy T PSL_yorig add /PSL_yorig edef PSL_xorig add /PSL_xorig edef}!
/PSL_reencode {findfont dup length dict begin
  {1 index /FID ne {def}{pop pop} ifelse} forall
  exch /Encoding edef currentdict end definefont pop
}!
/PSL_eps_begin {
  /PSL_eps_state save def
  /PSL_dict_count countdictstack def
  /PSL_op_count count 1 sub def
  userdict begin
  /showpage {} def
  0 setgray 0 setlinecap 1 setlinewidth
  0 setlinejoin 10 setmiterlimit [] 0 setdash newpath
  /languagelevel where
  {pop languagelevel 1 ne {false setstrokeadjust false setoverprint} if} if
}!
/PSL_eps_end {
  count PSL_op_count sub {pop} repeat
  countdictstack PSL_dict_count sub {end} repeat
  PSL_eps_state restore
}!
/PSL_transp {
  /PSL_BM_arg edef /PSL_S_arg edef /PSL_F_arg edef
  /.setfillconstantalpha where
  { pop PSL_BM_arg .setblendmode PSL_S_arg .setstrokeconstantalpha PSL_F_arg .setfillconstantalpha }
  { /pdfmark where {pop [ /BM PSL_BM_arg /CA PSL_S_arg /ca PSL_F_arg /SetTransparency pdfmark} if }
  ifelse
}!
/ISOLatin1+_Encoding [
/.notdef	/.notdef	/.notdef	/.notdef	/.notdef	/.notdef	/.notdef	/.notdef
/.notdef	/.notdef	/.notdef	/.notdef	/.notdef	/.notdef	/.notdef	/.notdef
/.notdef	/.notdef	/.notdef	/.notdef	/.notdef	/.notdef	/.notdef	/.notdef
/.notdef	/bullet		/ellipsis	/trademark	/emdash		/endash		/fi		/zcaron
/space		/exclam		/quotedbl	/numbersign	/dollar		/percent	/ampersand	/quoteright
/parenleft	/parenright	/asterisk	/plus		/comma		/minus		/period		/slash
/zero		/one		/two		/three		/four		/five		/six		/seven
/eight		/nine		/colon		/semicolon	/less		/equal		/greater	/question
/at		/A		/B		/C		/D		/E		/F		/G
/H		/I		/J		/K		/L		/M		/N		/O
/P		/Q		/R		/S		/T		/U		/V		/W
/X		/Y		/Z		/bracketleft	/backslash	/bracketright	/asciicircum	/underscore
/quoteleft	/a		/b		/c 		/d		/e		/f		/g
/h		/i		/j		/k		/l		/m		/n		/o
/p		/q		/r		/s		/t		/u		/v		/w
/x		/y		/z		/braceleft	/bar		/braceright	/asciitilde	/scaron
/OE		/dagger		/daggerdbl	/Lslash		/fraction	/guilsinglleft	/Scaron		/guilsinglright
/oe		/Ydieresis	/Zcaron		/lslash		/perthousand	/quotedblbase	/quotedblleft	/quotedblright
/dotlessi	/grave		/acute		/circumflex	/tilde		/macron		/breve		/dotaccent
/dieresis	/quotesinglbase	/ring		/cedilla	/quotesingle	/hungarumlaut	/ogonek		/caron
/space		/exclamdown	/cent		/sterling	/currency	/yen		/brokenbar	/section
/dieresis	/copyright	/ordfeminine	/guillemotleft	/logicalnot	/hyphen		/registered	/macron
/degree		/plusminus	/twosuperior	/threesuperior	/acute		/mu		/paragraph	/periodcentered
/cedilla	/onesuperior	/ordmasculine	/guillemotright	/onequarter	/onehalf	/threequarters	/questiondown
/Agrave		/Aacute		/Acircumflex	/Atilde		/Adieresis	/Aring		/AE		/Ccedilla
/Egrave		/Eacute		/Ecircumflex	/Edieresis	/Igrave		/Iacute		/Icircumflex	/Idieresis
/Eth		/Ntilde		/Ograve		/Oacute		/Ocircumflex	/Otilde		/Odieresis	/multiply
/Oslash		/Ugrave		/Uacute		/Ucircumflex	/Udieresis	/Yacute		/Thorn		/germandbls
/agrave		/aacute		/acircumflex	/atilde		/adieresis	/aring		/ae		/ccedilla
/egrave		/eacute		/ecircumflex	/edieresis	/igrave		/iacute		/icircumflex	/idieresis
/eth		/ntilde		/ograve		/oacute		/ocircumflex	/otilde		/odieresis	/divide
/oslash		/ugrave		/uacute		/ucircumflex	/udieresis	/yacute		/thorn		/ydieresis
] def
/PSL_font_encode 0 0 0 0 0 0 0 0 0 0 0 0 0 0 0 0 0 0 0 0 0 0 0 0 0 0 0 0 0 0 0 0 0 0 0 0 0 0 0 39 array astore def
/F0 {/Helvetica Y}!
/F1 {/Helvetica-Bold Y}!
/F2 {/Helvetica-Oblique Y}!
/F3 {/Helvetica-BoldOblique Y}!
/F4 {/Times-Roman Y}!
/F5 {/Times-Bold Y}!
/F6 {/Times-Italic Y}!
/F7 {/Times-BoldItalic Y}!
/F8 {/Courier Y}!
/F9 {/Courier-Bold Y}!
/F10 {/Courier-Oblique Y}!
/F11 {/Courier-BoldOblique Y}!
/F12 {/Symbol Y}!
/F13 {/AvantGarde-Book Y}!
/F14 {/AvantGarde-BookOblique Y}!
/F15 {/AvantGarde-Demi Y}!
/F16 {/AvantGarde-DemiOblique Y}!
/F17 {/Bookman-Demi Y}!
/F18 {/Bookman-DemiItalic Y}!
/F19 {/Bookman-Light Y}!
/F20 {/Bookman-LightItalic Y}!
/F21 {/Helvetica-Narrow Y}!
/F22 {/Helvetica-Narrow-Bold Y}!
/F23 {/Helvetica-Narrow-Oblique Y}!
/F24 {/Helvetica-Narrow-BoldOblique Y}!
/F25 {/NewCenturySchlbk-Roman Y}!
/F26 {/NewCenturySchlbk-Italic Y}!
/F27 {/NewCenturySchlbk-Bold Y}!
/F28 {/NewCenturySchlbk-BoldItalic Y}!
/F29 {/Palatino-Roman Y}!
/F30 {/Palatino-Italic Y}!
/F31 {/Palatino-Bold Y}!
/F32 {/Palatino-BoldItalic Y}!
/F33 {/ZapfChancery-MediumItalic Y}!
/F34 {/ZapfDingbats Y}!
/F35 {/Ryumin-Light-EUC-H Y}!
/F36 {/Ryumin-Light-EUC-V Y}!
/F37 {/GothicBBB-Medium-EUC-H Y}!
/F38 {/GothicBBB-Medium-EUC-V Y}!
/PSL_pathtextdict 26 dict def
/PSL_pathtext
  {PSL_pathtextdict begin
    /ydepth exch def
    /textheight exch def
    /just exch def
    /offset exch def
    /str exch def
    /pathdist 0 def
    /setdist offset def
    /charcount 0 def
    /justy just 4 idiv textheight mul 2 div neg ydepth sub def
    V flattenpath
	{movetoproc} {linetoproc}
	{curvetoproc} {closepathproc}
	pathforall
    U N
    end
  } def
PSL_pathtextdict begin
/movetoproc
  { /newy exch def /newx exch def
    /firstx newx def /firsty newy def
    /ovr 0 def
    newx newy transform
    /cpy exch def /cpx exch def
  } def
/linetoproc
  { /oldx newx def /oldy newy def
    /newy exch def /newx exch def
    /dx newx oldx sub def
    /dy newy oldy sub def
    /dist dx dup mul dy dup mul add sqrt def
    dist 0 ne
    { /dsx dx dist div ovr mul def
      /dsy dy dist div ovr mul def
      oldx dsx add oldy dsy add transform
      /cpy exch def /cpx exch def
      /pathdist pathdist dist add def
      {setdist pathdist le
	  {charcount str length lt
	      {setchar} {exit} ifelse}
	  { /ovr setdist pathdist sub def
	    exit}
	  ifelse
      } loop
    } if
  } def
/curvetoproc
  { (ERROR: No curveto's after flattenpath!)
    print
  } def
/closepathproc
  {firstx firsty linetoproc
    firstx firsty movetoproc
  } def
/setchar
  { /char str charcount 1 getinterval def
    /charcount charcount 1 add def
    /charwidth char stringwidth pop def
    V cpx cpy itransform T
      dy dx atan R
      0 justy M
      PSL_font_F {
        char show}
      if
      PSL_font_FO {
        currentpoint N M V char true charpath fs U V char false charpath S U char E 0 G
      } if
      PSL_font_OF {
        currentpoint N M V char false charpath S U V char true charpath fs U char E 0 G
      } if
      0 justy neg G currentpoint transform
      /cpy exch def /cpx exch def
    U /setdist setdist charwidth add def
  } def
end
/PSL_set_label_heights
{
  /PSL_n_labels_minus_1 PSL_n_labels 1 sub def
  /PSL_heights PSL_n_labels array def
  0 1 PSL_n_labels_minus_1
  { /psl_k exch def
    /psl_label PSL_label_str psl_k get def
    PSL_label_font psl_k get cvx exec
    psl_label sH /PSL_height edef
    PSL_heights psl_k PSL_height put
  } for
} def
/PSL_curved_path_labels
{ /psl_bits exch def
  /PSL_placetext psl_bits 2 and 2 eq def
  /PSL_clippath psl_bits 4 and 4 eq def
  /PSL_strokeline false def
  /PSL_fillbox psl_bits 128 and 128 eq def
  /PSL_drawbox psl_bits 256 and 256 eq def
  /PSL_font_F  psl_bits 1536 and 0 eq def
  /PSL_font_FO psl_bits 512 and 512 eq def
  /PSL_font_OF psl_bits 1024 and 1024 eq def
  /PSL_n_paths1 PSL_n_paths 1 sub def
  /PSL_usebox PSL_fillbox PSL_drawbox or def
  PSL_clippath {clipsave N clippath} if
  /psl_k 0 def
  /psl_p 0 def
  0 1 PSL_n_paths1
  { /psl_kk exch def
    /PSL_n PSL_path_n  psl_kk get def
    /PSL_m PSL_label_n psl_kk get def
    /PSL_x PSL_path_x psl_k PSL_n getinterval def
    /PSL_y PSL_path_y psl_k PSL_n getinterval def
    /PSL_node_tmp PSL_label_node psl_p PSL_m getinterval def
    /PSL_angle_tmp PSL_label_angle psl_p PSL_m getinterval def
    /PSL_str_tmp PSL_label_str psl_p PSL_m getinterval def
    /PSL_fnt_tmp PSL_label_font psl_p PSL_m getinterval def
    PSL_curved_path_label
    /psl_k psl_k PSL_n add def
    /psl_p psl_p PSL_m add def
  } for
  PSL_clippath {PSL_eoclip} if N
} def
/PSL_curved_path_label
{
  /PSL_n1 PSL_n 1 sub def
  /PSL_m1 PSL_m 1 sub def
  PSL_CT_calcstringwidth
  PSL_CT_calclinedist
  PSL_CT_excludelabels
  PSL_CT_addcutpoints
  /PSL_nn1 PSL_nn 1 sub def
  /n 0 def
  /k 0 def
  /j 0 def
  /PSL_seg 0 def
  /PSL_xp PSL_nn array def
  /PSL_yp PSL_nn array def
  PSL_xp 0 PSL_xx 0 get put
  PSL_yp 0 PSL_yy 0 get put
  1 1 PSL_nn1
  { /i exch def
    /node_type PSL_kind i get def
    /j j 1 add def
    PSL_xp j PSL_xx i get put
    PSL_yp j PSL_yy i get put
    node_type 1 eq
    {n 0 eq
      {PSL_CT_drawline}
      {
        PSL_CT_reversepath
	      PSL_CT_textline}
      ifelse
      /j 0 def
      PSL_xp j PSL_xx i get put
      PSL_yp j PSL_yy i get put
    } if
  } for
  n 0 eq {PSL_CT_drawline} if
} def
/PSL_CT_textline
{ PSL_fnt k get cvx exec
  /PSL_height PSL_heights k get def
  PSL_placetext	{PSL_CT_placelabel} if
  PSL_clippath {PSL_CT_clippath} if
  /n 0 def /k k 1 add def
} def
/PSL_CT_calcstringwidth
{ /PSL_width_tmp PSL_m array def
  0 1 PSL_m1
  { /i exch def
    PSL_fnt_tmp i get cvx exec
    PSL_width_tmp i PSL_str_tmp i get stringwidth pop put
  } for
} def
/PSL_CT_calclinedist
{ /PSL_newx PSL_x 0 get def
  /PSL_newy PSL_y 0 get def
  /dist 0.0 def
  /PSL_dist PSL_n array def
  PSL_dist 0 0.0 put
  1 1 PSL_n1
  { /i exch def
    /PSL_oldx PSL_newx def
    /PSL_oldy PSL_newy def
    /PSL_newx PSL_x i get def
    /PSL_newy PSL_y i get def
    /dx PSL_newx PSL_oldx sub def
    /dy PSL_newy PSL_oldy sub def
    /dist dist dx dx mul dy dy mul add sqrt add def
    PSL_dist i dist put
  } for
} def
/PSL_CT_excludelabels
{ /k 0 def
  /PSL_width PSL_m array def
  /PSL_angle PSL_m array def
  /PSL_node PSL_m array def
  /PSL_str PSL_m array def
  /PSL_fnt PSL_m array def
  /lastdist PSL_dist PSL_n1 get def
  0 1 PSL_m1
  { /i exch def
    /dist PSL_dist PSL_node_tmp i get get def
    /halfwidth PSL_width_tmp i get 2 div PSL_gap_x add def
    /L_dist dist halfwidth sub def
    /R_dist dist halfwidth add def
    L_dist 0 gt R_dist lastdist lt and
    {
      PSL_width k PSL_width_tmp i get put
      PSL_node k PSL_node_tmp i get put
      PSL_angle k PSL_angle_tmp i get put
      PSL_str k PSL_str_tmp i get put
      PSL_fnt k PSL_fnt_tmp i get put
      /k k 1 add def
    } if
  } for
  /PSL_m k def
  /PSL_m1 PSL_m 1 sub def
} def
/PSL_CT_addcutpoints
{ /k 0 def
  /PSL_nc PSL_m 2 mul 1 add def
  /PSL_cuts PSL_nc array def
  /PSL_nc1 PSL_nc 1 sub def
  0 1 PSL_m1
  { /i exch def
    /dist PSL_dist PSL_node i get get def
    /halfwidth PSL_width i get 2 div PSL_gap_x add def
    PSL_cuts k dist halfwidth sub put
    /k k 1 add def
    PSL_cuts k dist halfwidth add put
    /k k 1 add def
  } for
  PSL_cuts k 100000.0 put
  /PSL_nn PSL_n PSL_m 2 mul add def
  /PSL_xx PSL_nn array def
  /PSL_yy PSL_nn array def
  /PSL_kind PSL_nn array def
  /j 0 def
  /k 0 def
  /dist 0.0 def
  0 1 PSL_n1
  { /i exch def
    /last_dist dist def
    /dist PSL_dist i get def
    k 1 PSL_nc1
    { /kk exch def
      /this_cut PSL_cuts kk get def
      dist this_cut gt
      { /ds dist last_dist sub def
	/f ds 0.0 eq {0.0} {dist this_cut sub ds div} ifelse def
	/i1 i 0 eq {0} {i 1 sub} ifelse def
	PSL_xx j PSL_x i get dup PSL_x i1 get sub f mul sub put
	PSL_yy j PSL_y i get dup PSL_y i1 get sub f mul sub put
	PSL_kind j 1 put
	/j j 1 add def
	/k k 1 add def
      } if
    } for
    dist PSL_cuts k get le
    {PSL_xx j PSL_x i get put PSL_yy j PSL_y i get put
      PSL_kind j 0 put
      /j j 1 add def
    } if
  } for
} def
/PSL_CT_reversepath
{PSL_xp j get PSL_xp 0 get lt
  {0 1 j 2 idiv
    { /left exch def
      /right j left sub def
      /tmp PSL_xp left get def
      PSL_xp left PSL_xp right get put
      PSL_xp right tmp put
      /tmp PSL_yp left get def
      PSL_yp left PSL_yp right get put
      PSL_yp right tmp put
    } for
  } if
} def
/PSL_CT_placelabel
{
  /PSL_just PSL_label_justify k get def
  /PSL_height PSL_heights k get def
  /psl_label PSL_str k get def
  /psl_depth psl_label sd def
  PSL_usebox
  {PSL_CT_clippath
    PSL_fillbox
    {V PSL_setboxrgb fill U} if
    PSL_drawbox
    {V PSL_setboxpen S U} if N
  } if
  PSL_CT_placeline psl_label PSL_gap_x PSL_just PSL_height psl_depth PSL_pathtext
} def
/PSL_CT_clippath
{
  /H PSL_height 2 div PSL_gap_y add def
  /xoff j 1 add array def
  /yoff j 1 add array def
  /angle 0 def
  0 1 j {
    /ii exch def
    /x PSL_xp ii get def
    /y PSL_yp ii get def
    ii 0 eq {
      /x1 PSL_xp 1 get def
      /y1 PSL_yp 1 get def
      /dx x1 x sub def
      /dy y1 y sub def
    }
    { /i1 ii 1 sub def
      /x1 PSL_xp i1 get def
      /y1 PSL_yp i1 get def
      /dx x x1 sub def
      /dy y y1 sub def
    } ifelse
    dx 0.0 eq dy 0.0 eq and not
    { /angle dy dx atan 90 add def} if
    /sina angle sin def
    /cosa angle cos def
    xoff ii H cosa mul put
    yoff ii H sina mul put
  } for
  PSL_xp 0 get xoff 0 get add PSL_yp 0 get yoff 0 get add M
  1 1 j {
    /ii exch def
    PSL_xp ii get xoff ii get add PSL_yp ii get yoff ii get add L
  } for
  j -1 0 {
    /ii exch def
    PSL_xp ii get xoff ii get sub PSL_yp ii get yoff ii get sub L
  } for P
} def
/PSL_CT_drawline
{
  /str 20 string def
  PSL_strokeline
  {PSL_CT_placeline S} if
  /PSL_seg PSL_seg 1 add def
  /n 1 def
} def
/PSL_CT_placeline
{PSL_xp 0 get PSL_yp 0 get M
  1 1 j { /ii exch def PSL_xp ii get PSL_yp ii get L} for
} def
/PSL_draw_path_lines
{
  /PSL_n_paths1 PSL_n_paths 1 sub def
  V
  /psl_start 0 def
  0 1 PSL_n_paths1
  { /psl_k exch def
    /PSL_n PSL_path_n psl_k get def
    /PSL_n1 PSL_n 1 sub def
    PSL_path_pen psl_k get cvx exec
    N
    PSL_path_x psl_start get PSL_path_y psl_start get M
    1 1 PSL_n1
    { /psl_i exch def
      /psl_kk psl_i psl_start add def
      PSL_path_x psl_kk get PSL_path_y psl_kk get L
    } for
    /psl_xclose PSL_path_x psl_kk get PSL_path_x psl_start get sub def
    /psl_yclose PSL_path_y psl_kk get PSL_path_y psl_start get sub def
    psl_xclose 0 eq psl_yclose 0 eq and { P } if
    S
    /psl_start psl_start PSL_n add def
  } for
  U
} def
/PSL_straight_path_labels
{
  /psl_bits exch def
  /PSL_placetext psl_bits 2 and 2 eq def
  /PSL_rounded psl_bits 32 and 32 eq def
  /PSL_fillbox psl_bits 128 and 128 eq def
  /PSL_drawbox psl_bits 256 and 256 eq def
  /PSL_font_F  psl_bits 1536 and 0 eq def
  /PSL_font_FO psl_bits 512 and 512 eq def
  /PSL_font_OF psl_bits 1024 and 1024 eq def
  /PSL_n_labels_minus_1 PSL_n_labels 1 sub def
  /PSL_usebox PSL_fillbox PSL_drawbox or def
  0 1 PSL_n_labels_minus_1
  { /psl_k exch def
    PSL_ST_prepare_text
    PSL_usebox
    {  PSL_rounded
        {PSL_ST_textbox_round}
        {PSL_ST_textbox_rect}
      ifelse
      PSL_fillbox {V PSL_setboxrgb fill U} if
      PSL_drawbox {V PSL_setboxpen S U} if
      N
    } if
    PSL_font_F {
      PSL_placetext {PSL_ST_place_label} if
    } if
    PSL_font_FO {
      PSL_placetext {PSL_ST_place_label_FO} if
    } if
    PSL_font_OF {
      PSL_placetext {PSL_ST_place_label_OF} if
    } if
  } for
} def
/PSL_straight_path_clip
{
  /psl_bits exch def
  /PSL_rounded psl_bits 32 and 32 eq def
  /PSL_n_labels_minus_1 PSL_n_labels 1 sub def
  N clipsave clippath
  0 1 PSL_n_labels_minus_1
  { /psl_k exch def
    PSL_ST_prepare_text
    PSL_rounded
      {PSL_ST_textbox_round}
      {PSL_ST_textbox_rect}
    ifelse
  } for
  PSL_eoclip N
} def
/PSL_ST_prepare_text
{
  /psl_xp PSL_txt_x psl_k get def
  /psl_yp PSL_txt_y psl_k get def
  /psl_label PSL_label_str psl_k get def
  PSL_label_font psl_k get cvx exec
  /PSL_height PSL_heights psl_k get def
  /psl_boxH PSL_height PSL_gap_y 2 mul add def
  /PSL_just PSL_label_justify psl_k get def
  /PSL_justx PSL_just 4 mod 1 sub 2 div neg def
  /PSL_justy PSL_just 4 idiv 2 div neg def
  /psl_SW psl_label stringwidth pop def
  /psl_boxW psl_SW PSL_gap_x 2 mul add def
  /psl_x0 psl_SW PSL_justx mul def
  /psl_y0 PSL_justy PSL_height mul def
  /psl_angle PSL_label_angle psl_k get def
} def
/PSL_ST_textbox_rect
{
  psl_xp psl_yp T psl_angle R psl_x0 psl_y0 T
  PSL_gap_x neg PSL_gap_y neg M
  0 psl_boxH D psl_boxW 0 D 0 psl_boxH neg D P
  psl_x0 neg psl_y0 neg T psl_angle neg R psl_xp neg psl_yp neg T
} def
/PSL_ST_textbox_round
{
  /psl_BoxR PSL_gap_x PSL_gap_y lt {PSL_gap_x} {PSL_gap_y} ifelse def
  /psl_xd PSL_gap_x psl_BoxR sub def
  /psl_yd PSL_gap_y psl_BoxR sub def
  /psl_xL PSL_gap_x neg def
  /psl_yB PSL_gap_y neg def
  /psl_yT psl_boxH psl_yB add def
  /psl_H2 PSL_height psl_yd 2 mul add def
  /psl_W2 psl_SW psl_xd 2 mul add def
  /psl_xR psl_xL psl_boxW add def
  /psl_x0 psl_SW PSL_justx mul def
  psl_xp psl_yp T psl_angle R psl_x0 psl_y0 T
  psl_xL psl_yd M
  psl_xL psl_yT psl_xR psl_yT psl_BoxR arct psl_W2 0 D
  psl_xR psl_yT psl_xR psl_yB psl_BoxR arct 0 psl_H2 neg D
  psl_xR psl_yB psl_xL psl_yB psl_BoxR arct psl_W2 neg 0 D
  psl_xL psl_yB psl_xL psl_yd psl_BoxR arct P
  psl_x0 neg psl_y0 neg T psl_angle neg R psl_xp neg psl_yp neg T
} def
/PSL_ST_place_label
{
    V psl_xp psl_yp T psl_angle R
    psl_SW PSL_justx mul psl_y0 M
    psl_label dup sd neg 0 exch G show
    U
} def
/PSL_ST_place_label_FO
{
    V psl_xp psl_yp T psl_angle R
    psl_SW PSL_justx mul psl_y0 M
    psl_label dup sd neg 0 exch G false charpath V fs U S N
    U
} def
/PSL_ST_place_label_OF
{
    V psl_xp psl_yp T psl_angle R
    psl_SW PSL_justx mul psl_y0 M
    psl_label dup sd neg 0 exch G false charpath V S U fs N
    U
} def
/PSL_nclip 0 def
/PSL_clip {clip /PSL_nclip PSL_nclip 1 add def} def
/PSL_eoclip {eoclip /PSL_nclip PSL_nclip 1 add def} def
/PSL_cliprestore {cliprestore /PSL_nclip PSL_nclip 1 sub def} def
%%EndProlog
%%BeginSetup
/PSLevel /languagelevel where {pop languagelevel} {1} ifelse def
%%EndSetup
%%Page: 1 1
%%BeginPageSetup
V 0.06 0.06 scale
%%EndPageSetup
/PSL_page_xsize 9917 def
/PSL_page_ysize 14033 def
/PSL_plot_completion {} def
/PSL_movie_label_completion {} def
/PSL_movie_prog_indicator_completion {} def
%PSL_End_Header
gsave
0 A
FQ
O0
1200 1200 TM
% PostScript produced by:
%@GMT: gmt text -R0/3.93701/0/8.21637 -Jx1i -N -F+jBC+f26.7464p,Helvetica-Bold,black @GMTAPI@-S-I-D-D-N-N-000000 -Xr1i -Yr1i --GMT_HISTORY=readonly
%@PROJ: xy 0.00000000 3.93701000 0.00000000 8.21637000 0.000 3.937 0.000 8.216 +xy
%%BeginObject PSL_Layer_1
0 setlinecap
0 setlinejoin
3.32550952342 setmiterlimit
PSL_font_encode 1 get 0 eq {ISOLatin1+_Encoding /Helvetica-Bold /Helvetica-Bold PSL_reencode PSL_font_encode 1 1 put} if
2362 10320 M 446 F1
(Ship and Satellite Gravity) bc Z
%%EndObject
PSL_plot_completion /PSL_plot_completion {} def
0 A
FQ
O0
0 5135 TM
% PostScript produced by:
%@GMT: gmt plot spectrum.xpower -JX-3.937il/3.937il -Bxa1f3p '-Bya1f3p+lPower (mGal@+2@+km)' -Gred -ST5p -R1/1000/0.1/10000 -Ey+p0.5p -lShip -BWens+g240/255/240 -Xa0i -Ya4.2794i
%@PROJ: xy 1.00000000 1000.00000000 0.10000000 10000.00000000 3.000 -0.000 -1.000 4.000 +xy
%%BeginObject PSL_Layer_1
0 setlinecap
0 setlinejoin
3.32550952342 setmiterlimit
/PSL_plot_completion {
V
0 5135 T
PSL_font_encode 1 get 0 eq {ISOLatin1+_Encoding /Helvetica-Bold /Helvetica-Bold PSL_reencode PSL_font_encode 1 1 put} if
0 A 4591 4591 M 300 F1
(Input Power) tr Z
U
}!
{0.941 1 0.941 C} FS
O0
-4724 0 0 4724 4724 0 3 0 0 SP
0 A
clipsave
0 0 M
4724 0 D
0 4724 D
-4724 0 D
P
PSL_clip N
V
4 W
8 W
N 932 4732 M 0 282 D S
N 874 4732 M 116 0 D S
N 874 5014 M 116 0 D S
{1 0 0 C} FS
O0
4 W
65 932 4897 St
8 W
N 1406 4851 M 0 282 D S
N 1348 4851 M 116 0 D S
N 1348 5133 M 116 0 D S
4 W
65 1406 5016 St
8 W
N 1683 4712 M 0 282 D S
N 1625 4712 M 117 0 D S
N 1625 4994 M 117 0 D S
4 W
65 1683 4877 St
8 W
N 1880 4625 M 0 282 D S
N 1822 4625 M 116 0 D S
N 1822 4907 M 116 0 D S
4 W
65 1880 4790 St
8 W
N 2033 4459 M 0 282 D S
N 1974 4459 M 117 0 D S
N 1974 4741 M 117 0 D S
4 W
65 2033 4624 St
8 W
N 2157 4149 M 0 282 D S
N 2099 4149 M 117 0 D S
N 2099 4431 M 117 0 D S
4 W
65 2157 4314 St
8 W
N 2263 3937 M 0 282 D S
N 2204 3937 M 117 0 D S
N 2204 4219 M 117 0 D S
4 W
65 2263 4102 St
8 W
N 2354 3727 M 0 282 D S
N 2296 3727 M 116 0 D S
N 2296 4009 M 116 0 D S
4 W
65 2354 3892 St
8 W
N 2435 3493 M 0 283 D S
N 2376 3493 M 117 0 D S
N 2376 3776 M 117 0 D S
4 W
65 2435 3658 St
8 W
N 2507 3181 M 0 282 D S
N 2448 3181 M 117 0 D S
N 2448 3463 M 117 0 D S
4 W
65 2507 3346 St
8 W
N 2572 2913 M 0 282 D S
N 2514 2913 M 116 0 D S
N 2514 3195 M 116 0 D S
4 W
65 2572 3078 St
8 W
N 2631 2737 M 0 283 D S
N 2573 2737 M 117 0 D S
N 2573 3020 M 117 0 D S
4 W
65 2631 2902 St
8 W
N 2686 2707 M 0 282 D S
N 2628 2707 M 116 0 D S
N 2628 2989 M 116 0 D S
4 W
65 2686 2871 St
8 W
N 2737 2722 M 0 282 D S
N 2678 2722 M 117 0 D S
N 2678 3004 M 117 0 D S
4 W
65 2737 2887 St
8 W
N 2784 2675 M 0 283 D S
N 2726 2675 M 116 0 D S
N 2726 2958 M 116 0 D S
4 W
65 2784 2840 St
8 W
N 2828 2494 M 0 282 D S
N 2770 2494 M 116 0 D S
N 2770 2776 M 116 0 D S
4 W
65 2828 2659 St
8 W
N 2870 2251 M 0 283 D S
N 2811 2251 M 117 0 D S
N 2811 2534 M 117 0 D S
4 W
65 2870 2416 St
8 W
N 2909 2032 M 0 282 D S
N 2850 2032 M 117 0 D S
N 2850 2314 M 117 0 D S
4 W
65 2909 2197 St
8 W
N 2946 1903 M 0 283 D S
N 2887 1903 M 117 0 D S
N 2887 2186 M 117 0 D S
4 W
65 2946 2068 St
8 W
N 2981 1983 M 0 282 D S
N 2922 1983 M 117 0 D S
N 2922 2265 M 117 0 D S
4 W
65 2981 2148 St
8 W
N 3014 2029 M 0 282 D S
N 2956 2029 M 116 0 D S
N 2956 2311 M 116 0 D S
4 W
65 3014 2194 St
8 W
N 3046 1897 M 0 282 D S
N 2988 1897 M 116 0 D S
N 2988 2179 M 116 0 D S
4 W
65 3046 2062 St
8 W
N 3076 1694 M 0 283 D S
N 3018 1694 M 117 0 D S
N 3018 1977 M 117 0 D S
4 W
65 3076 1859 St
8 W
N 3105 1513 M 0 282 D S
N 3047 1513 M 117 0 D S
N 3047 1795 M 117 0 D S
4 W
65 3105 1678 St
8 W
N 3133 1338 M 0 282 D S
N 3075 1338 M 117 0 D S
N 3075 1620 M 117 0 D S
4 W
65 3133 1503 St
8 W
N 3160 1279 M 0 283 D S
N 3102 1279 M 117 0 D S
N 3102 1562 M 117 0 D S
4 W
65 3160 1444 St
8 W
N 3186 1520 M 0 283 D S
N 3128 1520 M 116 0 D S
N 3128 1803 M 116 0 D S
4 W
65 3186 1685 St
8 W
N 3211 1594 M 0 283 D S
N 3153 1594 M 116 0 D S
N 3153 1877 M 116 0 D S
4 W
65 3211 1759 St
8 W
N 3235 1505 M 0 282 D S
N 3177 1505 M 116 0 D S
N 3177 1787 M 116 0 D S
4 W
65 3235 1670 St
8 W
N 3258 1330 M 0 282 D S
N 3200 1330 M 116 0 D S
N 3200 1612 M 116 0 D S
4 W
65 3258 1495 St
8 W
N 3281 1217 M 0 282 D S
N 3222 1217 M 117 0 D S
N 3222 1499 M 117 0 D S
4 W
65 3281 1382 St
8 W
N 3302 959 M 0 282 D S
N 3244 959 M 117 0 D S
N 3244 1241 M 117 0 D S
4 W
65 3302 1124 St
8 W
N 3323 1169 M 0 282 D S
N 3265 1169 M 117 0 D S
N 3265 1451 M 117 0 D S
4 W
65 3323 1334 St
8 W
N 3344 1433 M 0 282 D S
N 3285 1433 M 117 0 D S
N 3285 1715 M 117 0 D S
4 W
65 3344 1598 St
8 W
N 3364 1489 M 0 282 D S
N 3305 1489 M 117 0 D S
N 3305 1771 M 117 0 D S
4 W
65 3364 1654 St
8 W
N 3383 1510 M 0 282 D S
N 3324 1510 M 117 0 D S
N 3324 1792 M 117 0 D S
4 W
65 3383 1675 St
8 W
N 3402 1397 M 0 283 D S
N 3343 1397 M 117 0 D S
N 3343 1680 M 117 0 D S
4 W
65 3402 1562 St
8 W
N 3420 1178 M 0 282 D S
N 3361 1178 M 117 0 D S
N 3361 1460 M 117 0 D S
4 W
65 3420 1343 St
8 W
N 3438 989 M 0 282 D S
N 3379 989 M 117 0 D S
N 3379 1271 M 117 0 D S
4 W
65 3438 1154 St
8 W
N 3455 1077 M 0 282 D S
N 3396 1077 M 117 0 D S
N 3396 1359 M 117 0 D S
4 W
65 3455 1242 St
8 W
N 3472 1191 M 0 282 D S
N 3413 1191 M 117 0 D S
N 3413 1473 M 117 0 D S
4 W
65 3472 1355 St
8 W
N 3488 1294 M 0 282 D S
N 3430 1294 M 117 0 D S
N 3430 1576 M 117 0 D S
4 W
65 3488 1459 St
8 W
N 3504 1221 M 0 282 D S
N 3446 1221 M 117 0 D S
N 3446 1503 M 117 0 D S
4 W
65 3504 1386 St
8 W
N 3520 1146 M 0 282 D S
N 3462 1146 M 116 0 D S
N 3462 1428 M 116 0 D S
4 W
65 3520 1311 St
8 W
N 3535 1030 M 0 282 D S
N 3477 1030 M 117 0 D S
N 3477 1312 M 117 0 D S
4 W
65 3535 1195 St
8 W
N 3550 886 M 0 282 D S
N 3492 886 M 117 0 D S
N 3492 1168 M 117 0 D S
4 W
65 3550 1051 St
8 W
N 3565 962 M 0 282 D S
N 3507 962 M 116 0 D S
N 3507 1244 M 116 0 D S
4 W
65 3565 1127 St
8 W
N 3580 924 M 0 282 D S
N 3521 924 M 117 0 D S
N 3521 1206 M 117 0 D S
4 W
65 3580 1089 St
8 W
N 3594 740 M 0 282 D S
N 3535 740 M 117 0 D S
N 3535 1022 M 117 0 D S
4 W
65 3594 905 St
8 W
N 3607 948 M 0 282 D S
N 3549 948 M 117 0 D S
N 3549 1230 M 117 0 D S
4 W
65 3607 1113 St
8 W
N 3621 1051 M 0 282 D S
N 3563 1051 M 116 0 D S
N 3563 1333 M 116 0 D S
4 W
65 3621 1216 St
8 W
N 3634 913 M 0 283 D S
N 3576 913 M 117 0 D S
N 3576 1196 M 117 0 D S
4 W
65 3634 1078 St
8 W
N 3647 669 M 0 282 D S
N 3589 669 M 117 0 D S
N 3589 951 M 117 0 D S
4 W
65 3647 833 St
8 W
N 3660 650 M 0 282 D S
N 3602 650 M 116 0 D S
N 3602 932 M 116 0 D S
4 W
65 3660 815 St
8 W
N 3673 511 M 0 282 D S
N 3614 511 M 117 0 D S
N 3614 793 M 117 0 D S
4 W
65 3673 676 St
8 W
N 3685 568 M 0 282 D S
N 3627 568 M 116 0 D S
N 3627 850 M 116 0 D S
4 W
65 3685 733 St
8 W
N 3697 650 M 0 282 D S
N 3639 650 M 116 0 D S
N 3639 932 M 116 0 D S
4 W
65 3697 815 St
8 W
N 3709 518 M 0 282 D S
N 3651 518 M 116 0 D S
N 3651 800 M 116 0 D S
4 W
65 3709 683 St
8 W
N 3721 684 M 0 282 D S
N 3662 684 M 117 0 D S
N 3662 966 M 117 0 D S
4 W
65 3721 849 St
8 W
N 3732 751 M 0 282 D S
N 3674 751 M 116 0 D S
N 3674 1033 M 116 0 D S
4 W
65 3732 916 St
8 W
N 3743 603 M 0 282 D S
N 3685 603 M 117 0 D S
N 3685 885 M 117 0 D S
4 W
65 3743 768 St
8 W
N 3755 584 M 0 283 D S
N 3696 584 M 117 0 D S
N 3696 867 M 117 0 D S
4 W
65 3755 749 St
8 W
N 3766 590 M 0 282 D S
N 3707 590 M 117 0 D S
N 3707 872 M 117 0 D S
4 W
65 3766 754 St
8 W
N 3776 532 M 0 282 D S
N 3718 532 M 117 0 D S
N 3718 814 M 117 0 D S
4 W
65 3776 697 St
8 W
N 3787 570 M 0 283 D S
N 3729 570 M 116 0 D S
N 3729 853 M 116 0 D S
4 W
65 3787 735 St
8 W
N 3797 599 M 0 283 D S
N 3739 599 M 117 0 D S
N 3739 882 M 117 0 D S
4 W
65 3797 764 St
8 W
N 3808 650 M 0 282 D S
N 3749 650 M 117 0 D S
N 3749 932 M 117 0 D S
4 W
65 3808 815 St
8 W
N 3818 613 M 0 283 D S
N 3759 613 M 117 0 D S
N 3759 896 M 117 0 D S
4 W
65 3818 778 St
8 W
N 3828 335 M 0 282 D S
N 3769 335 M 117 0 D S
N 3769 617 M 117 0 D S
4 W
65 3828 500 St
8 W
N 3838 483 M 0 282 D S
N 3779 483 M 117 0 D S
N 3779 765 M 117 0 D S
4 W
65 3838 648 St
8 W
N 3847 581 M 0 282 D S
N 3789 581 M 117 0 D S
N 3789 863 M 117 0 D S
4 W
65 3847 746 St
8 W
N 3857 560 M 0 282 D S
N 3798 560 M 117 0 D S
N 3798 842 M 117 0 D S
4 W
65 3857 724 St
8 W
N 3866 505 M 0 282 D S
N 3808 505 M 117 0 D S
N 3808 787 M 117 0 D S
4 W
65 3866 670 St
8 W
N 3876 561 M 0 282 D S
N 3817 561 M 117 0 D S
N 3817 843 M 117 0 D S
4 W
65 3876 726 St
8 W
N 3885 458 M 0 283 D S
N 3826 458 M 117 0 D S
N 3826 741 M 117 0 D S
4 W
65 3885 623 St
8 W
N 3894 289 M 0 282 D S
N 3835 289 M 117 0 D S
N 3835 571 M 117 0 D S
4 W
65 3894 454 St
8 W
N 3903 446 M 0 282 D S
N 3844 446 M 117 0 D S
N 3844 728 M 117 0 D S
4 W
65 3903 611 St
8 W
N 3912 273 M 0 282 D S
N 3853 273 M 117 0 D S
N 3853 555 M 117 0 D S
4 W
65 3912 438 St
8 W
N 3920 400 M 0 283 D S
N 3862 400 M 117 0 D S
N 3862 683 M 117 0 D S
4 W
65 3920 565 St
8 W
N 3929 449 M 0 283 D S
N 3871 449 M 116 0 D S
N 3871 732 M 116 0 D S
4 W
65 3929 614 St
8 W
N 3937 565 M 0 282 D S
N 3879 565 M 117 0 D S
N 3879 847 M 117 0 D S
4 W
65 3937 730 St
8 W
N 3946 474 M 0 283 D S
N 3887 474 M 117 0 D S
N 3887 757 M 117 0 D S
4 W
65 3946 639 St
8 W
N 3954 409 M 0 282 D S
N 3896 409 M 116 0 D S
N 3896 691 M 116 0 D S
4 W
65 3954 574 St
8 W
N 3962 361 M 0 282 D S
N 3904 361 M 117 0 D S
N 3904 643 M 117 0 D S
4 W
65 3962 526 St
8 W
N 3970 336 M 0 282 D S
N 3912 336 M 117 0 D S
N 3912 618 M 117 0 D S
4 W
65 3970 501 St
8 W
N 3978 396 M 0 282 D S
N 3920 396 M 117 0 D S
N 3920 678 M 117 0 D S
4 W
65 3978 561 St
8 W
N 3986 413 M 0 282 D S
N 3928 413 M 117 0 D S
N 3928 695 M 117 0 D S
4 W
65 3986 578 St
8 W
N 3994 243 M 0 282 D S
N 3936 243 M 116 0 D S
N 3936 525 M 116 0 D S
4 W
65 3994 408 St
8 W
N 4002 235 M 0 283 D S
N 3943 235 M 117 0 D S
N 3943 518 M 117 0 D S
4 W
65 4002 400 St
8 W
N 4009 212 M 0 283 D S
N 3951 212 M 117 0 D S
N 3951 495 M 117 0 D S
4 W
65 4009 377 St
8 W
N 4017 63 M 0 282 D S
N 3959 63 M 116 0 D S
N 3959 345 M 116 0 D S
4 W
65 4017 228 St
8 W
N 4024 195 M 0 283 D S
N 3966 195 M 117 0 D S
N 3966 478 M 117 0 D S
4 W
65 4024 360 St
8 W
N 4032 115 M 0 282 D S
N 3974 115 M 116 0 D S
N 3974 397 M 116 0 D S
4 W
65 4032 280 St
8 W
N 4039 283 M 0 283 D S
N 3981 283 M 117 0 D S
N 3981 566 M 117 0 D S
4 W
65 4039 448 St
8 W
N 4046 431 M 0 282 D S
N 3988 431 M 117 0 D S
N 3988 713 M 117 0 D S
4 W
65 4046 596 St
8 W
N 4054 433 M 0 282 D S
N 3995 433 M 117 0 D S
N 3995 715 M 117 0 D S
4 W
65 4054 598 St
8 W
N 4061 204 M 0 283 D S
N 4002 204 M 117 0 D S
N 4002 487 M 117 0 D S
4 W
65 4061 369 St
8 W
N 4068 312 M 0 282 D S
N 4009 312 M 117 0 D S
N 4009 594 M 117 0 D S
4 W
65 4068 477 St
8 W
N 4075 395 M 0 282 D S
N 4016 395 M 117 0 D S
N 4016 677 M 117 0 D S
4 W
65 4075 560 St
8 W
N 4082 384 M 0 282 D S
N 4023 384 M 117 0 D S
N 4023 666 M 117 0 D S
4 W
65 4082 549 St
8 W
N 4088 417 M 0 282 D S
N 4030 417 M 117 0 D S
N 4030 699 M 117 0 D S
4 W
65 4088 582 St
8 W
N 4095 303 M 0 282 D S
N 4037 303 M 116 0 D S
N 4037 585 M 116 0 D S
4 W
65 4095 468 St
8 W
N 4102 247 M 0 282 D S
N 4043 247 M 117 0 D S
N 4043 529 M 117 0 D S
4 W
65 4102 412 St
8 W
N 4108 204 M 0 282 D S
N 4050 204 M 117 0 D S
N 4050 486 M 117 0 D S
4 W
65 4108 369 St
8 W
N 4115 276 M 0 282 D S
N 4057 276 M 116 0 D S
N 4057 558 M 116 0 D S
4 W
65 4115 441 St
8 W
N 4121 203 M 0 282 D S
N 4063 203 M 117 0 D S
N 4063 485 M 117 0 D S
4 W
65 4121 368 St
8 W
N 4128 272 M 0 283 D S
N 4069 272 M 117 0 D S
N 4069 555 M 117 0 D S
4 W
65 4128 437 St
8 W
N 4134 264 M 0 282 D S
N 4076 264 M 116 0 D S
N 4076 546 M 116 0 D S
4 W
65 4134 429 St
8 W
N 4140 206 M 0 282 D S
N 4082 206 M 117 0 D S
N 4082 488 M 117 0 D S
4 W
65 4140 371 St
8 W
N 4147 118 M 0 282 D S
N 4088 118 M 117 0 D S
N 4088 400 M 117 0 D S
4 W
65 4147 283 St
8 W
N 4153 130 M 0 282 D S
N 4095 130 M 116 0 D S
N 4095 412 M 116 0 D S
4 W
65 4153 295 St
8 W
N 4159 191 M 0 282 D S
N 4101 191 M 116 0 D S
N 4101 473 M 116 0 D S
4 W
65 4159 356 St
8 W
N 4165 317 M 0 283 D S
N 4107 317 M 116 0 D S
N 4107 600 M 116 0 D S
4 W
65 4165 482 St
8 W
N 4171 305 M 0 282 D S
N 4113 305 M 116 0 D S
N 4113 587 M 116 0 D S
4 W
65 4171 470 St
8 W
N 4177 351 M 0 282 D S
N 4119 351 M 116 0 D S
N 4119 633 M 116 0 D S
4 W
65 4177 516 St
8 W
N 4183 390 M 0 282 D S
N 4125 390 M 116 0 D S
N 4125 672 M 116 0 D S
4 W
65 4183 555 St
8 W
N 4189 345 M 0 282 D S
N 4131 345 M 116 0 D S
N 4131 627 M 116 0 D S
4 W
65 4189 510 St
8 W
N 4195 272 M 0 282 D S
N 4136 272 M 117 0 D S
N 4136 554 M 117 0 D S
4 W
65 4195 437 St
8 W
N 4200 62 M 0 283 D S
N 4142 62 M 117 0 D S
N 4142 345 M 117 0 D S
4 W
65 4200 227 St
8 W
N 4206 219 M 0 282 D S
N 4148 219 M 117 0 D S
N 4148 501 M 117 0 D S
4 W
65 4206 384 St
8 W
N 4212 250 M 0 283 D S
N 4154 250 M 116 0 D S
N 4154 533 M 116 0 D S
4 W
65 4212 415 St
8 W
N 4218 290 M 0 283 D S
N 4159 290 M 117 0 D S
N 4159 573 M 117 0 D S
4 W
65 4218 455 St
8 W
N 4223 381 M 0 283 D S
N 4165 381 M 116 0 D S
N 4165 664 M 116 0 D S
4 W
65 4223 546 St
8 W
N 4229 291 M 0 283 D S
N 4170 291 M 117 0 D S
N 4170 574 M 117 0 D S
4 W
65 4229 456 St
8 W
N 4234 268 M 0 282 D S
N 4176 268 M 116 0 D S
N 4176 550 M 116 0 D S
4 W
65 4234 433 St
8 W
N 4240 326 M 0 282 D S
N 4181 326 M 117 0 D S
N 4181 608 M 117 0 D S
4 W
65 4240 491 St
8 W
N 4245 463 M 0 282 D S
N 4187 463 M 116 0 D S
N 4187 745 M 116 0 D S
4 W
65 4245 628 St
8 W
N 4250 -164 M 0 283 D S
N 4192 -164 M 117 0 D S
N 4192 119 M 117 0 D S
4 W
65 4250 1 St
U
PSL_cliprestore
24 W
0 A
/PSL_slant_y 0 def /PSL_slant_x 0 def
2 setlinecap
N 0 4724 M 0 -4724 D S
/PSL_A0_y 64 def
/PSL_A1_y 0 def
8 W
N 0 0 M -64 0 D S
N 0 945 M -64 0 D S
N 0 1890 M -64 0 D S
N 0 2835 M -64 0 D S
N 0 3780 M -64 0 D S
N 0 4724 M -64 0 D S
PSL_font_encode 0 get 0 eq {ISOLatin1+_Encoding /Helvetica /Helvetica PSL_reencode PSL_font_encode 0 1 put} if
/MM {neg exch M} def
/PSL_AH0 0
159 F0
V MU 0 0 M (10) FP 0 56 G 111 F0 (-1) FP 0 -56 G pathbbox N pop exch pop add U mx
V MU 0 0 M (10) FP 0 56 G 111 F0 (0) FP 0 -56 G pathbbox N pop exch pop add U mx
V MU 0 0 M (10) FP 0 56 G 111 F0 (1) FP 0 -56 G pathbbox N pop exch pop add U mx
V MU 0 0 M (10) FP 0 56 G 111 F0 (2) FP 0 -56 G pathbbox N pop exch pop add U mx
V MU 0 0 M (10) FP 0 56 G 111 F0 (3) FP 0 -56 G pathbbox N pop exch pop add U mx
V MU 0 0 M (10) FP 0 56 G 111 F0 (4) FP 0 -56 G pathbbox N pop exch pop add U mx
def
/PSL_A0_y PSL_A0_y 48 add def
0 PSL_A0_y MM
V MU 0 0 M (10) FP 0 56 G 111 F0 (-1) FP 0 -56 G pathbbox N 4 1 roll exch pop add exch U -2 div exch neg exch G
(10) Z
0 56 G 111 F0 (-1) Z
0 -56 G 945 PSL_A0_y MM
159 F0
V MU 0 0 M (10) FP 0 56 G 111 F0 (0) FP 0 -56 G pathbbox N 4 1 roll exch pop add exch U -2 div exch neg exch G
(10) Z
0 56 G 111 F0 (0) Z
0 -56 G 1890 PSL_A0_y MM
159 F0
V MU 0 0 M (10) FP 0 56 G 111 F0 (1) FP 0 -56 G pathbbox N 4 1 roll exch pop add exch U -2 div exch neg exch G
(10) Z
0 56 G 111 F0 (1) Z
0 -56 G 2835 PSL_A0_y MM
159 F0
V MU 0 0 M (10) FP 0 56 G 111 F0 (2) FP 0 -56 G pathbbox N 4 1 roll exch pop add exch U -2 div exch neg exch G
(10) Z
0 56 G 111 F0 (2) Z
0 -56 G 3780 PSL_A0_y MM
159 F0
V MU 0 0 M (10) FP 0 56 G 111 F0 (3) FP 0 -56 G pathbbox N 4 1 roll exch pop add exch U -2 div exch neg exch G
(10) Z
0 56 G 111 F0 (3) Z
0 -56 G 4724 PSL_A0_y MM
159 F0
V MU 0 0 M (10) FP 0 56 G 111 F0 (4) FP 0 -56 G pathbbox N 4 1 roll exch pop add exch U -2 div exch neg exch G
(10) Z
0 56 G 111 F0 (4) Z
0 -56 G /PSL_A0_y PSL_A0_y PSL_AH0 add def
N 0 284 M -32 0 D S
N 0 451 M -32 0 D S
N 0 569 M -32 0 D S
N 0 660 M -32 0 D S
N 0 735 M -32 0 D S
N 0 799 M -32 0 D S
N 0 853 M -32 0 D S
N 0 902 M -32 0 D S
N 0 1229 M -32 0 D S
N 0 1396 M -32 0 D S
N 0 1514 M -32 0 D S
N 0 1605 M -32 0 D S
N 0 1680 M -32 0 D S
N 0 1743 M -32 0 D S
N 0 1798 M -32 0 D S
N 0 1847 M -32 0 D S
N 0 2174 M -32 0 D S
N 0 2341 M -32 0 D S
N 0 2459 M -32 0 D S
N 0 2550 M -32 0 D S
N 0 2625 M -32 0 D S
N 0 2688 M -32 0 D S
N 0 2743 M -32 0 D S
N 0 2791 M -32 0 D S
N 0 3119 M -32 0 D S
N 0 3285 M -32 0 D S
N 0 3404 M -32 0 D S
N 0 3495 M -32 0 D S
N 0 3570 M -32 0 D S
N 0 3633 M -32 0 D S
N 0 3688 M -32 0 D S
N 0 3736 M -32 0 D S
N 0 4064 M -32 0 D S
N 0 4230 M -32 0 D S
N 0 4348 M -32 0 D S
N 0 4440 M -32 0 D S
N 0 4515 M -32 0 D S
N 0 4578 M -32 0 D S
N 0 4633 M -32 0 D S
N 0 4681 M -32 0 D S
/PSL_LH 223 F0
(M) sh def
/PSL_L_y PSL_A0_y PSL_A1_y mx 96 add def
2362 PSL_L_y MM
V 90 R V MU 0 0 M (Power \(mGal) FP 0 78 G 156 F0 (2) FP 0 -78 G 223 F0 (km\)) FP pathbbox N pop exch pop add U -2 div 0 G
(Power \(mGal) Z
0 78 G 156 F0 (2) Z
0 -78 G 223 F0 (km\)) Z
U
4724 0 T
24 W
N 0 4724 M 0 -4724 D S
/PSL_A0_y 64 def
/PSL_A1_y 0 def
8 W
N 0 0 M 64 0 D S
N 0 945 M 64 0 D S
N 0 1890 M 64 0 D S
N 0 2835 M 64 0 D S
N 0 3780 M 64 0 D S
N 0 4724 M 64 0 D S
N 0 284 M 32 0 D S
N 0 451 M 32 0 D S
N 0 569 M 32 0 D S
N 0 660 M 32 0 D S
N 0 735 M 32 0 D S
N 0 799 M 32 0 D S
N 0 853 M 32 0 D S
N 0 902 M 32 0 D S
N 0 1229 M 32 0 D S
N 0 1396 M 32 0 D S
N 0 1514 M 32 0 D S
N 0 1605 M 32 0 D S
N 0 1680 M 32 0 D S
N 0 1743 M 32 0 D S
N 0 1798 M 32 0 D S
N 0 1847 M 32 0 D S
N 0 2174 M 32 0 D S
N 0 2341 M 32 0 D S
N 0 2459 M 32 0 D S
N 0 2550 M 32 0 D S
N 0 2625 M 32 0 D S
N 0 2688 M 32 0 D S
N 0 2743 M 32 0 D S
N 0 2791 M 32 0 D S
N 0 3119 M 32 0 D S
N 0 3285 M 32 0 D S
N 0 3404 M 32 0 D S
N 0 3495 M 32 0 D S
N 0 3570 M 32 0 D S
N 0 3633 M 32 0 D S
N 0 3688 M 32 0 D S
N 0 3736 M 32 0 D S
N 0 4064 M 32 0 D S
N 0 4230 M 32 0 D S
N 0 4348 M 32 0 D S
N 0 4440 M 32 0 D S
N 0 4515 M 32 0 D S
N 0 4578 M 32 0 D S
N 0 4633 M 32 0 D S
N 0 4681 M 32 0 D S
/PSL_LH 0 def /PSL_L_y PSL_A0_y PSL_A1_y mx def
-4724 0 T
24 W
N 0 0 M 4724 0 D S
/PSL_A0_y 64 def
/PSL_A1_y 0 def
8 W
N 4724 0 M 0 -64 D S
N 3150 0 M 0 -64 D S
N 1575 0 M 0 -64 D S
N 0 0 M 0 -64 D S
N 4250 0 M 0 -32 D S
N 3973 0 M 0 -32 D S
N 3776 0 M 0 -32 D S
N 3624 0 M 0 -32 D S
N 3499 0 M 0 -32 D S
N 3394 0 M 0 -32 D S
N 3302 0 M 0 -32 D S
N 3222 0 M 0 -32 D S
N 2676 0 M 0 -32 D S
N 2398 0 M 0 -32 D S
N 2201 0 M 0 -32 D S
N 2049 0 M 0 -32 D S
N 1924 0 M 0 -32 D S
N 1819 0 M 0 -32 D S
N 1727 0 M 0 -32 D S
N 1647 0 M 0 -32 D S
N 1101 0 M 0 -32 D S
N 823 0 M 0 -32 D S
N 627 0 M 0 -32 D S
N 474 0 M 0 -32 D S
N 349 0 M 0 -32 D S
N 244 0 M 0 -32 D S
N 153 0 M 0 -32 D S
N 72 0 M 0 -32 D S
/PSL_LH 0 def /PSL_L_y PSL_A0_y PSL_A1_y mx def
0 4724 T
24 W
N 0 0 M 4724 0 D S
/PSL_A0_y 64 def
/PSL_A1_y 0 def
8 W
N 4724 0 M 0 64 D S
N 3150 0 M 0 64 D S
N 1575 0 M 0 64 D S
N 0 0 M 0 64 D S
N 4250 0 M 0 32 D S
N 3973 0 M 0 32 D S
N 3776 0 M 0 32 D S
N 3624 0 M 0 32 D S
N 3499 0 M 0 32 D S
N 3394 0 M 0 32 D S
N 3302 0 M 0 32 D S
N 3222 0 M 0 32 D S
N 2676 0 M 0 32 D S
N 2398 0 M 0 32 D S
N 2201 0 M 0 32 D S
N 2049 0 M 0 32 D S
N 1924 0 M 0 32 D S
N 1819 0 M 0 32 D S
N 1727 0 M 0 32 D S
N 1647 0 M 0 32 D S
N 1101 0 M 0 32 D S
N 823 0 M 0 32 D S
N 627 0 M 0 32 D S
N 474 0 M 0 32 D S
N 349 0 M 0 32 D S
N 244 0 M 0 32 D S
N 153 0 M 0 32 D S
N 72 0 M 0 32 D S
/PSL_LH 0 def /PSL_L_y PSL_A0_y PSL_A1_y mx def
0 -4724 T
0 setlinecap
%%EndObject
0 -5135 TM
0 A
FQ
O0
0 5135 TM
% PostScript produced by:
%@GMT: gmt plot spectrum.ypower -Gblue -Sc5p -Ey+p0.5p -lSatellite -Xa0i -Ya4.2794i -R1/1000/0.1/10000 -JX-3.937il/3.937il
%@PROJ: xy 1.00000000 1000.00000000 0.10000000 10000.00000000 3.000 -0.000 -1.000 4.000 +xy
%%BeginObject PSL_Layer_2
0 setlinecap
0 setlinejoin
3.32550952342 setmiterlimit
clipsave
0 0 M
4724 0 D
0 4724 D
-4724 0 D
P
PSL_clip N
V
4 W
8 W
N 932 4446 M 0 282 D S
N 874 4446 M 116 0 D S
N 874 4728 M 116 0 D S
{0 0 1 C} FS
4 W
42 932 4611 Sc
8 W
N 1406 4627 M 0 283 D S
N 1348 4627 M 116 0 D S
N 1348 4910 M 116 0 D S
4 W
42 1406 4792 Sc
8 W
N 1683 4552 M 0 282 D S
N 1625 4552 M 117 0 D S
N 1625 4834 M 117 0 D S
4 W
42 1683 4717 Sc
8 W
N 1880 4466 M 0 283 D S
N 1822 4466 M 116 0 D S
N 1822 4749 M 116 0 D S
4 W
42 1880 4631 Sc
8 W
N 2033 4278 M 0 282 D S
N 1974 4278 M 117 0 D S
N 1974 4560 M 117 0 D S
4 W
42 2033 4443 Sc
8 W
N 2157 3947 M 0 282 D S
N 2099 3947 M 117 0 D S
N 2099 4229 M 117 0 D S
4 W
42 2157 4112 Sc
8 W
N 2263 3666 M 0 283 D S
N 2204 3666 M 117 0 D S
N 2204 3949 M 117 0 D S
4 W
42 2263 3831 Sc
8 W
N 2354 3405 M 0 283 D S
N 2296 3405 M 116 0 D S
N 2296 3688 M 116 0 D S
4 W
42 2354 3570 Sc
8 W
N 2435 3128 M 0 282 D S
N 2376 3128 M 117 0 D S
N 2376 3410 M 117 0 D S
4 W
42 2435 3293 Sc
8 W
N 2507 2772 M 0 282 D S
N 2448 2772 M 117 0 D S
N 2448 3054 M 117 0 D S
4 W
42 2507 2937 Sc
8 W
N 2572 2432 M 0 283 D S
N 2514 2432 M 116 0 D S
N 2514 2715 M 116 0 D S
4 W
42 2572 2597 Sc
8 W
N 2631 2143 M 0 282 D S
N 2573 2143 M 117 0 D S
N 2573 2425 M 117 0 D S
4 W
42 2631 2308 Sc
8 W
N 2686 1808 M 0 282 D S
N 2628 1808 M 116 0 D S
N 2628 2090 M 116 0 D S
4 W
42 2686 1973 Sc
8 W
N 2737 1397 M 0 283 D S
N 2678 1397 M 117 0 D S
N 2678 1680 M 117 0 D S
4 W
42 2737 1562 Sc
8 W
N 2784 1141 M 0 282 D S
N 2726 1141 M 116 0 D S
N 2726 1423 M 116 0 D S
4 W
42 2784 1306 Sc
8 W
N 2828 1095 M 0 282 D S
N 2770 1095 M 116 0 D S
N 2770 1377 M 116 0 D S
4 W
42 2828 1260 Sc
8 W
N 2870 908 M 0 282 D S
N 2811 908 M 117 0 D S
N 2811 1190 M 117 0 D S
4 W
42 2870 1073 Sc
8 W
N 2909 430 M 0 282 D S
N 2850 430 M 117 0 D S
N 2850 712 M 117 0 D S
4 W
42 2909 595 Sc
8 W
N 2946 61 M 0 282 D S
N 2887 61 M 117 0 D S
N 2887 343 M 117 0 D S
4 W
42 2946 226 Sc
8 W
N 2981 67 M 0 282 D S
N 2922 67 M 117 0 D S
N 2922 349 M 117 0 D S
4 W
42 2981 232 Sc
8 W
N 3014 16 M 0 282 D S
N 2956 16 M 116 0 D S
N 2956 298 M 116 0 D S
4 W
42 3014 181 Sc
8 W
N 3046 -262 M 0 282 D S
N 2988 -262 M 116 0 D S
N 2988 20 M 116 0 D S
4 W
42 3046 -97 Sc
8 W
N 3076 -469 M 0 282 D S
N 3018 -469 M 117 0 D S
N 3018 -187 M 117 0 D S
4 W
42 3076 -304 Sc
8 W
N 3105 -647 M 0 282 D S
N 3047 -647 M 117 0 D S
N 3047 -365 M 117 0 D S
4 W
42 3105 -482 Sc
8 W
N 3133 -878 M 0 282 D S
N 3075 -878 M 117 0 D S
N 3075 -596 M 117 0 D S
4 W
42 3133 -713 Sc
8 W
N 3160 -1094 M 0 282 D S
N 3102 -1094 M 117 0 D S
N 3102 -812 M 117 0 D S
4 W
42 3160 -929 Sc
8 W
N 3186 -1084 M 0 282 D S
N 3128 -1084 M 116 0 D S
N 3128 -802 M 116 0 D S
4 W
42 3186 -919 Sc
8 W
N 3211 -925 M 0 283 D S
N 3153 -925 M 116 0 D S
N 3153 -642 M 116 0 D S
4 W
42 3211 -760 Sc
8 W
N 3235 -760 M 0 282 D S
N 3177 -760 M 116 0 D S
N 3177 -478 M 116 0 D S
4 W
42 3235 -595 Sc
8 W
N 3258 -694 M 0 283 D S
N 3200 -694 M 116 0 D S
N 3200 -411 M 116 0 D S
4 W
42 3258 -529 Sc
8 W
N 3281 -697 M 0 282 D S
N 3222 -697 M 117 0 D S
N 3222 -415 M 117 0 D S
4 W
42 3281 -532 Sc
8 W
N 3302 -701 M 0 282 D S
N 3244 -701 M 117 0 D S
N 3244 -419 M 117 0 D S
4 W
42 3302 -536 Sc
8 W
N 3323 -762 M 0 282 D S
N 3265 -762 M 117 0 D S
N 3265 -480 M 117 0 D S
4 W
42 3323 -597 Sc
8 W
N 3344 -897 M 0 282 D S
N 3285 -897 M 117 0 D S
N 3285 -615 M 117 0 D S
4 W
42 3344 -732 Sc
8 W
N 3364 -952 M 0 282 D S
N 3305 -952 M 117 0 D S
N 3305 -670 M 117 0 D S
4 W
42 3364 -788 Sc
8 W
N 3383 -1050 M 0 282 D S
N 3324 -1050 M 117 0 D S
N 3324 -768 M 117 0 D S
4 W
42 3383 -885 Sc
8 W
N 3402 -1156 M 0 282 D S
N 3343 -1156 M 117 0 D S
N 3343 -874 M 117 0 D S
4 W
42 3402 -991 Sc
8 W
N 3420 -1208 M 0 282 D S
N 3361 -1208 M 117 0 D S
N 3361 -926 M 117 0 D S
4 W
42 3420 -1043 Sc
8 W
N 3438 -1201 M 0 282 D S
N 3379 -1201 M 117 0 D S
N 3379 -919 M 117 0 D S
4 W
42 3438 -1037 Sc
8 W
N 3455 -1328 M 0 282 D S
N 3396 -1328 M 117 0 D S
N 3396 -1046 M 117 0 D S
4 W
42 3455 -1163 Sc
8 W
N 3472 -1328 M 0 283 D S
N 3413 -1328 M 117 0 D S
N 3413 -1045 M 117 0 D S
4 W
42 3472 -1163 Sc
8 W
N 3488 -1259 M 0 282 D S
N 3430 -1259 M 117 0 D S
N 3430 -977 M 117 0 D S
4 W
42 3488 -1094 Sc
8 W
N 3504 -1413 M 0 282 D S
N 3446 -1413 M 117 0 D S
N 3446 -1131 M 117 0 D S
4 W
42 3504 -1248 Sc
8 W
N 3520 -1552 M 0 282 D S
N 3462 -1552 M 116 0 D S
N 3462 -1270 M 116 0 D S
4 W
42 3520 -1387 Sc
8 W
N 3535 -1650 M 0 282 D S
N 3477 -1650 M 117 0 D S
N 3477 -1368 M 117 0 D S
4 W
42 3535 -1485 Sc
8 W
N 3550 -1708 M 0 282 D S
N 3492 -1708 M 117 0 D S
N 3492 -1426 M 117 0 D S
4 W
42 3550 -1544 Sc
8 W
N 3565 -1585 M 0 282 D S
N 3507 -1585 M 116 0 D S
N 3507 -1303 M 116 0 D S
4 W
42 3565 -1420 Sc
8 W
N 3580 -1443 M 0 282 D S
N 3521 -1443 M 117 0 D S
N 3521 -1161 M 117 0 D S
4 W
42 3580 -1278 Sc
8 W
N 3594 -1369 M 0 282 D S
N 3535 -1369 M 117 0 D S
N 3535 -1087 M 117 0 D S
4 W
42 3594 -1204 Sc
8 W
N 3607 -1194 M 0 282 D S
N 3549 -1194 M 117 0 D S
N 3549 -912 M 117 0 D S
4 W
42 3607 -1029 Sc
8 W
N 3621 -1058 M 0 283 D S
N 3563 -1058 M 116 0 D S
N 3563 -775 M 116 0 D S
4 W
42 3621 -893 Sc
8 W
N 3634 -983 M 0 283 D S
N 3576 -983 M 117 0 D S
N 3576 -700 M 117 0 D S
4 W
42 3634 -818 Sc
8 W
N 3647 -936 M 0 282 D S
N 3589 -936 M 117 0 D S
N 3589 -654 M 117 0 D S
4 W
42 3647 -771 Sc
8 W
N 3660 -957 M 0 283 D S
N 3602 -957 M 116 0 D S
N 3602 -674 M 116 0 D S
4 W
42 3660 -792 Sc
8 W
N 3673 -1009 M 0 282 D S
N 3614 -1009 M 117 0 D S
N 3614 -727 M 117 0 D S
4 W
42 3673 -844 Sc
8 W
N 3685 -1035 M 0 282 D S
N 3627 -1035 M 116 0 D S
N 3627 -753 M 116 0 D S
4 W
42 3685 -870 Sc
8 W
N 3697 -1099 M 0 282 D S
N 3639 -1099 M 116 0 D S
N 3639 -817 M 116 0 D S
4 W
42 3697 -934 Sc
8 W
N 3709 -1197 M 0 282 D S
N 3651 -1197 M 116 0 D S
N 3651 -915 M 116 0 D S
4 W
42 3709 -1032 Sc
8 W
N 3721 -1294 M 0 283 D S
N 3662 -1294 M 117 0 D S
N 3662 -1011 M 117 0 D S
4 W
42 3721 -1129 Sc
8 W
N 3732 -1477 M 0 282 D S
N 3674 -1477 M 116 0 D S
N 3674 -1195 M 116 0 D S
4 W
42 3732 -1312 Sc
8 W
N 3743 -1692 M 0 283 D S
N 3685 -1692 M 117 0 D S
N 3685 -1409 M 117 0 D S
4 W
42 3743 -1527 Sc
8 W
N 3755 -1919 M 0 282 D S
N 3696 -1919 M 117 0 D S
N 3696 -1637 M 117 0 D S
4 W
42 3755 -1755 Sc
8 W
N 3766 -1971 M 0 282 D S
N 3707 -1971 M 117 0 D S
N 3707 -1689 M 117 0 D S
4 W
42 3766 -1806 Sc
8 W
N 3776 -1984 M 0 282 D S
N 3718 -1984 M 117 0 D S
N 3718 -1702 M 117 0 D S
4 W
42 3776 -1819 Sc
8 W
N 3787 -1946 M 0 283 D S
N 3729 -1946 M 116 0 D S
N 3729 -1663 M 116 0 D S
4 W
42 3787 -1781 Sc
8 W
N 3797 -1911 M 0 282 D S
N 3739 -1911 M 117 0 D S
N 3739 -1629 M 117 0 D S
4 W
42 3797 -1746 Sc
8 W
N 3808 -1811 M 0 282 D S
N 3749 -1811 M 117 0 D S
N 3749 -1529 M 117 0 D S
4 W
42 3808 -1646 Sc
8 W
N 3818 -1722 M 0 283 D S
N 3759 -1722 M 117 0 D S
N 3759 -1439 M 117 0 D S
4 W
42 3818 -1557 Sc
8 W
N 3828 -1714 M 0 282 D S
N 3769 -1714 M 117 0 D S
N 3769 -1432 M 117 0 D S
4 W
42 3828 -1549 Sc
8 W
N 3838 -1857 M 0 282 D S
N 3779 -1857 M 117 0 D S
N 3779 -1575 M 117 0 D S
4 W
42 3838 -1692 Sc
8 W
N 3847 -2129 M 0 282 D S
N 3789 -2129 M 117 0 D S
N 3789 -1847 M 117 0 D S
4 W
42 3847 -1964 Sc
8 W
N 3857 -2264 M 0 282 D S
N 3798 -2264 M 117 0 D S
N 3798 -1982 M 117 0 D S
4 W
42 3857 -2099 Sc
8 W
N 3866 -2507 M 0 282 D S
N 3808 -2507 M 117 0 D S
N 3808 -2225 M 117 0 D S
4 W
42 3866 -2342 Sc
8 W
N 3876 -2751 M 0 282 D S
N 3817 -2751 M 117 0 D S
N 3817 -2469 M 117 0 D S
4 W
42 3876 -2586 Sc
8 W
N 3885 -2690 M 0 282 D S
N 3826 -2690 M 117 0 D S
N 3826 -2408 M 117 0 D S
4 W
42 3885 -2525 Sc
8 W
N 3894 -2818 M 0 282 D S
N 3835 -2818 M 117 0 D S
N 3835 -2536 M 117 0 D S
4 W
42 3894 -2653 Sc
8 W
N 3903 -2903 M 0 282 D S
N 3844 -2903 M 117 0 D S
N 3844 -2621 M 117 0 D S
4 W
42 3903 -2738 Sc
8 W
N 3912 -2811 M 0 283 D S
N 3853 -2811 M 117 0 D S
N 3853 -2528 M 117 0 D S
4 W
42 3912 -2646 Sc
8 W
N 3920 -2825 M 0 282 D S
N 3862 -2825 M 117 0 D S
N 3862 -2543 M 117 0 D S
4 W
42 3920 -2660 Sc
8 W
N 3929 -2977 M 0 283 D S
N 3871 -2977 M 116 0 D S
N 3871 -2694 M 116 0 D S
4 W
42 3929 -2812 Sc
8 W
N 3937 -2796 M 0 282 D S
N 3879 -2796 M 117 0 D S
N 3879 -2514 M 117 0 D S
4 W
42 3937 -2631 Sc
8 W
N 3946 -2572 M 0 282 D S
N 3887 -2572 M 117 0 D S
N 3887 -2290 M 117 0 D S
4 W
42 3946 -2407 Sc
8 W
N 3954 -2489 M 0 282 D S
N 3896 -2489 M 116 0 D S
N 3896 -2207 M 116 0 D S
4 W
42 3954 -2324 Sc
8 W
N 3962 -2319 M 0 282 D S
N 3904 -2319 M 117 0 D S
N 3904 -2037 M 117 0 D S
4 W
42 3962 -2154 Sc
8 W
N 3970 -2298 M 0 282 D S
N 3912 -2298 M 117 0 D S
N 3912 -2016 M 117 0 D S
4 W
42 3970 -2133 Sc
8 W
N 3978 -2386 M 0 283 D S
N 3920 -2386 M 117 0 D S
N 3920 -2103 M 117 0 D S
4 W
42 3978 -2221 Sc
8 W
N 3986 -2548 M 0 283 D S
N 3928 -2548 M 117 0 D S
N 3928 -2265 M 117 0 D S
4 W
42 3986 -2383 Sc
8 W
N 3994 -2736 M 0 282 D S
N 3936 -2736 M 116 0 D S
N 3936 -2454 M 116 0 D S
4 W
42 3994 -2571 Sc
8 W
N 4002 -2881 M 0 283 D S
N 3943 -2881 M 117 0 D S
N 3943 -2598 M 117 0 D S
4 W
42 4002 -2716 Sc
8 W
N 4009 -3058 M 0 282 D S
N 3951 -3058 M 117 0 D S
N 3951 -2776 M 117 0 D S
4 W
42 4009 -2893 Sc
8 W
N 4017 -3138 M 0 282 D S
N 3959 -3138 M 116 0 D S
N 3959 -2856 M 116 0 D S
4 W
42 4017 -2973 Sc
8 W
N 4024 -3113 M 0 283 D S
N 3966 -3113 M 117 0 D S
N 3966 -2830 M 117 0 D S
4 W
42 4024 -2948 Sc
8 W
N 4032 -2978 M 0 282 D S
N 3974 -2978 M 116 0 D S
N 3974 -2696 M 116 0 D S
4 W
42 4032 -2813 Sc
8 W
N 4039 -2959 M 0 283 D S
N 3981 -2959 M 117 0 D S
N 3981 -2676 M 117 0 D S
4 W
42 4039 -2794 Sc
8 W
N 4046 -2921 M 0 282 D S
N 3988 -2921 M 117 0 D S
N 3988 -2639 M 117 0 D S
4 W
42 4046 -2756 Sc
8 W
N 4054 -2883 M 0 282 D S
N 3995 -2883 M 117 0 D S
N 3995 -2601 M 117 0 D S
4 W
42 4054 -2718 Sc
8 W
N 4061 -2835 M 0 282 D S
N 4002 -2835 M 117 0 D S
N 4002 -2553 M 117 0 D S
4 W
42 4061 -2670 Sc
8 W
N 4068 -2888 M 0 283 D S
N 4009 -2888 M 117 0 D S
N 4009 -2605 M 117 0 D S
4 W
42 4068 -2723 Sc
8 W
N 4075 -2936 M 0 282 D S
N 4016 -2936 M 117 0 D S
N 4016 -2654 M 117 0 D S
4 W
42 4075 -2771 Sc
8 W
N 4082 -2945 M 0 282 D S
N 4023 -2945 M 117 0 D S
N 4023 -2663 M 117 0 D S
4 W
42 4082 -2780 Sc
8 W
N 4088 -3035 M 0 282 D S
N 4030 -3035 M 117 0 D S
N 4030 -2753 M 117 0 D S
4 W
42 4088 -2870 Sc
8 W
N 4095 -3211 M 0 282 D S
N 4037 -3211 M 116 0 D S
N 4037 -2929 M 116 0 D S
4 W
42 4095 -3046 Sc
8 W
N 4102 -3456 M 0 283 D S
N 4043 -3456 M 117 0 D S
N 4043 -3173 M 117 0 D S
4 W
42 4102 -3291 Sc
8 W
N 4108 -3662 M 0 283 D S
N 4050 -3662 M 117 0 D S
N 4050 -3379 M 117 0 D S
4 W
42 4108 -3497 Sc
8 W
N 4115 -3755 M 0 282 D S
N 4057 -3755 M 116 0 D S
N 4057 -3473 M 116 0 D S
4 W
42 4115 -3590 Sc
8 W
N 4121 -3735 M 0 283 D S
N 4063 -3735 M 117 0 D S
N 4063 -3452 M 117 0 D S
4 W
42 4121 -3570 Sc
8 W
N 4128 -3834 M 0 282 D S
N 4069 -3834 M 117 0 D S
N 4069 -3552 M 117 0 D S
4 W
42 4128 -3669 Sc
8 W
N 4134 -4195 M 0 282 D S
N 4076 -4195 M 116 0 D S
N 4076 -3913 M 116 0 D S
4 W
42 4134 -4030 Sc
8 W
N 4140 -4006 M 0 282 D S
N 4082 -4006 M 117 0 D S
N 4082 -3724 M 117 0 D S
4 W
42 4140 -3841 Sc
8 W
N 4147 -3873 M 0 282 D S
N 4088 -3873 M 117 0 D S
N 4088 -3591 M 117 0 D S
4 W
42 4147 -3708 Sc
8 W
N 4153 -3913 M 0 283 D S
N 4095 -3913 M 116 0 D S
N 4095 -3630 M 116 0 D S
4 W
42 4153 -3748 Sc
8 W
N 4159 -3971 M 0 282 D S
N 4101 -3971 M 116 0 D S
N 4101 -3689 M 116 0 D S
4 W
42 4159 -3806 Sc
8 W
N 4165 -3957 M 0 282 D S
N 4107 -3957 M 116 0 D S
N 4107 -3675 M 116 0 D S
4 W
42 4165 -3792 Sc
8 W
N 4171 -3956 M 0 282 D S
N 4113 -3956 M 116 0 D S
N 4113 -3674 M 116 0 D S
4 W
42 4171 -3791 Sc
8 W
N 4177 -3984 M 0 282 D S
N 4119 -3984 M 116 0 D S
N 4119 -3702 M 116 0 D S
4 W
42 4177 -3819 Sc
8 W
N 4183 -3985 M 0 282 D S
N 4125 -3985 M 116 0 D S
N 4125 -3703 M 116 0 D S
4 W
42 4183 -3821 Sc
8 W
N 4189 -3996 M 0 282 D S
N 4131 -3996 M 116 0 D S
N 4131 -3714 M 116 0 D S
4 W
42 4189 -3832 Sc
8 W
N 4195 -3795 M 0 282 D S
N 4136 -3795 M 117 0 D S
N 4136 -3513 M 117 0 D S
4 W
42 4195 -3630 Sc
8 W
N 4200 -3719 M 0 282 D S
N 4142 -3719 M 117 0 D S
N 4142 -3437 M 117 0 D S
4 W
42 4200 -3554 Sc
8 W
N 4206 -3648 M 0 282 D S
N 4148 -3648 M 117 0 D S
N 4148 -3366 M 117 0 D S
4 W
42 4206 -3484 Sc
8 W
N 4212 -3505 M 0 282 D S
N 4154 -3505 M 116 0 D S
N 4154 -3223 M 116 0 D S
4 W
42 4212 -3340 Sc
8 W
N 4218 -3387 M 0 282 D S
N 4159 -3387 M 117 0 D S
N 4159 -3105 M 117 0 D S
4 W
42 4218 -3222 Sc
8 W
N 4223 -3304 M 0 282 D S
N 4165 -3304 M 116 0 D S
N 4165 -3022 M 116 0 D S
4 W
42 4223 -3139 Sc
8 W
N 4229 -3212 M 0 283 D S
N 4170 -3212 M 117 0 D S
N 4170 -2929 M 117 0 D S
4 W
42 4229 -3047 Sc
8 W
N 4234 -3127 M 0 282 D S
N 4176 -3127 M 116 0 D S
N 4176 -2845 M 116 0 D S
4 W
42 4234 -2962 Sc
8 W
N 4240 -3055 M 0 282 D S
N 4181 -3055 M 117 0 D S
N 4181 -2773 M 117 0 D S
4 W
42 4240 -2890 Sc
8 W
N 4245 -3015 M 0 282 D S
N 4187 -3015 M 116 0 D S
N 4187 -2733 M 116 0 D S
4 W
42 4245 -2850 Sc
8 W
N 4250 -3579 M 0 282 D S
N 4192 -3579 M 117 0 D S
N 4192 -3297 M 117 0 D S
4 W
42 4250 -3414 Sc
U
PSL_cliprestore
%%EndObject
0 -5135 TM
0 A
FQ
O0
0 5135 TM
% PostScript produced by:
%@GMT: gmt legend -DjBL+o0.5c -F+gwhite+pthicker --FONT_ANNOT_PRIMARY=14p,Helvetica-Bold -Xa0i -Ya4.2794i -R1/1000/0.1/10000 -JX-3.937il/3.937il
%@PROJ: xy 1.00000000 1000.00000000 0.10000000 10000.00000000 3.000 -0.000 -1.000 4.000 +xy
%%BeginObject PSL_Layer_3
0 setlinecap
0 setlinejoin
3.32550952342 setmiterlimit
/PSL_legend_label_width 0 def
/PSL_legend_string_width 0 def
PSL_font_encode 1 get 0 eq {ISOLatin1+_Encoding /Helvetica-Bold /Helvetica-Bold PSL_reencode PSL_font_encode 1 1 put} if
233 F1
(Ship) V MU 0 0 M E /PSL_tmp_w edef FP pathbbox N /PSL_tmp_h edef /PSL_tmp_x1 edef /PSL_tmp_d edef /PSL_tmp_x0 edef U
PSL_tmp_w PSL_legend_label_width gt { /PSL_legend_label_width PSL_tmp_w def } if
(Satellite) V MU 0 0 M E /PSL_tmp_w edef FP pathbbox N /PSL_tmp_h edef /PSL_tmp_x1 edef /PSL_tmp_d edef /PSL_tmp_x0 edef U
PSL_tmp_w PSL_legend_label_width gt { /PSL_legend_label_width PSL_tmp_w def } if
/PSL_tmp_w 261 def
/PSL_legend_clear_x 133 def
/PSL_tmp_w PSL_tmp_w PSL_legend_label_width add def
/PSL_legend_box_width PSL_tmp_w PSL_legend_string_width gt { PSL_tmp_w } { PSL_legend_string_width} ifelse PSL_legend_clear_x add def
/PSL_legend_box_height 647 def
236 236 T
PSL_legend_box_width PSL_legend_box_height sub 0 2 div mul neg 0 translate
V
25 W
{1 A} FS
O1
0 0 M PSL_legend_box_width 0 D 0 PSL_legend_box_height D PSL_legend_box_width neg 0 D P FO N
U
0 A
FQ
O0
0 0 TM
% PostScript produced by:
%@GMT: gmt plot -R0/3.937/0/3.937 -Jx1i -O -K -N -S @GMTAPI@-S-I-D-D-T-N-000001 --PROJ_LENGTH_UNIT=inch --GMT_HISTORY=readonly
%@PROJ: xy 0.00000000 3.93700000 0.00000000 3.93700000 0.000 3.937 0.000 3.937 +xy
%%BeginObject PSL_Layer_4
0 setlinecap
0 setlinejoin
3.32550952342 setmiterlimit
V
4 W
{1 0 0 C} FS
65 131 452 St
{0 0 1 C} FS
42 131 195 Sc
U
%%EndObject
0 0 TM
0 A
FQ
O0
0 0 TM
% PostScript produced by:
%@GMT: gmt text -R0/3.937/0/3.937 -Jx1i -O -K -N -F+f+j @GMTAPI@-S-I-D-D-N-N-000002 --GMT_HISTORY=readonly
%@PROJ: xy 0.00000000 3.93700000 0.00000000 3.93700000 0.000 3.937 0.000 3.937 +xy
%%BeginObject PSL_Layer_5
0 setlinecap
0 setlinejoin
3.32550952342 setmiterlimit
328 369 M (Ship) bl Z
328 112 M (Satellite) bl Z
%%EndObject
0 0 TM
PSL_legend_box_width PSL_legend_box_height sub 0 2 div mul 0 translate
-236 -236 T
%%EndObject
0 -5135 TM
PSL_plot_completion /PSL_plot_completion {} def
0 A
FQ
O0
0 0 TM
% PostScript produced by:
%@GMT: gmt plot spectrum.coh -JX-3.937il/3.937i '-Bxa1f3p+lWavelength (km)' -Bya0.25f0.05+lCoherency@+2@+ -R1/1000/0/1 -Sc5p -Gpurple -Ey+p0.5p -BWenS+g240/255/240 -Xa0i -Ya0i
%@PROJ: xy 1.00000000 1000.00000000 0.00000000 1.00000000 3.000 -0.000 0.000 1.000 +xy
%%BeginObject PSL_Layer_1
0 setlinecap
0 setlinejoin
3.32550952342 setmiterlimit
/PSL_plot_completion {
V
PSL_font_encode 1 get 0 eq {ISOLatin1+_Encoding /Helvetica-Bold /Helvetica-Bold PSL_reencode PSL_font_encode 1 1 put} if
0 A 4591 4591 M 300 F1
V MU 0 0 M (Coherency) FP 0 105 G 210 F1 (2) FP 0 -105 G pathbbox N 4 1 roll exch pop add exch U neg exch neg exch G
(Coherency) Z
0 105 G 210 F1 (2) Z
0 -105 G U
}!
{0.941 1 0.941 C} FS
O0
-4724 0 0 4724 4724 0 3 0 0 SP
0 A
clipsave
0 0 M
4724 0 D
0 4724 D
-4724 0 D
P
PSL_clip N
V
4 W
8 W
N 932 4481 M 0 153 D S
N 874 4481 M 116 0 D S
N 874 4634 M 116 0 D S
{0.627 0.125 0.941 C} FS
O0
4 W
42 932 4558 Sc
8 W
N 1406 4657 M 0 43 D S
N 1348 4657 M 116 0 D S
N 1348 4700 M 116 0 D S
4 W
42 1406 4678 Sc
8 W
N 1683 4614 M 0 70 D S
N 1625 4614 M 117 0 D S
N 1625 4684 M 117 0 D S
4 W
42 1683 4649 Sc
8 W
N 1880 4522 M 0 128 D S
N 1822 4522 M 116 0 D S
N 1822 4650 M 116 0 D S
4 W
42 1880 4586 Sc
8 W
N 2033 4557 M 0 106 D S
N 1974 4557 M 117 0 D S
N 1974 4663 M 117 0 D S
4 W
42 2033 4610 Sc
8 W
N 2157 4533 M 0 121 D S
N 2099 4533 M 117 0 D S
N 2099 4654 M 117 0 D S
4 W
42 2157 4593 Sc
8 W
N 2263 4413 M 0 195 D S
N 2204 4413 M 117 0 D S
N 2204 4608 M 117 0 D S
4 W
42 2263 4511 Sc
8 W
N 2354 4435 M 0 182 D S
N 2296 4435 M 116 0 D S
N 2296 4617 M 116 0 D S
4 W
42 2354 4526 Sc
8 W
N 2435 4165 M 0 347 D S
N 2376 4165 M 117 0 D S
N 2376 4512 M 117 0 D S
4 W
42 2435 4338 Sc
8 W
N 2507 3863 M 0 524 D S
N 2448 3863 M 117 0 D S
N 2448 4387 M 117 0 D S
4 W
42 2507 4125 Sc
8 W
N 2572 3571 M 0 689 D S
N 2514 3571 M 116 0 D S
N 2514 4260 M 116 0 D S
4 W
42 2572 3916 Sc
8 W
N 2631 2876 M 0 1051 D S
N 2573 2876 M 117 0 D S
N 2573 3927 M 117 0 D S
4 W
42 2631 3401 Sc
8 W
N 2686 2502 M 0 1224 D S
N 2628 2502 M 116 0 D S
N 2628 3726 M 116 0 D S
4 W
42 2686 3114 Sc
8 W
N 2737 2054 M 0 1407 D S
N 2678 2054 M 117 0 D S
N 2678 3461 M 117 0 D S
4 W
42 2737 2757 Sc
8 W
N 2784 1300 M 0 1634 D S
N 2726 1300 M 116 0 D S
N 2726 2934 M 116 0 D S
4 W
42 2784 2117 Sc
8 W
N 2828 913 M 0 1693 D S
N 2770 913 M 116 0 D S
N 2770 2606 M 116 0 D S
4 W
42 2828 1760 Sc
8 W
N 2870 358 M 0 1660 D S
N 2811 358 M 117 0 D S
N 2811 2018 M 117 0 D S
4 W
42 2870 1188 Sc
8 W
N 2909 -150 M 0 1273 D S
N 2850 -150 M 117 0 D S
N 2850 1123 M 117 0 D S
4 W
42 2909 486 Sc
8 W
N 2946 -13 M 0 1462 D S
N 2887 -13 M 117 0 D S
N 2887 1449 M 117 0 D S
4 W
42 2946 718 Sc
8 W
N 2981 238 M 0 1621 D S
N 2922 238 M 117 0 D S
N 2922 1859 M 117 0 D S
4 W
42 2981 1048 Sc
8 W
N 3014 -119 M 0 1330 D S
N 2956 -119 M 116 0 D S
N 2956 1211 M 116 0 D S
4 W
42 3014 546 Sc
8 W
N 3046 -17 M 0 1458 D S
N 2988 -17 M 116 0 D S
N 2988 1441 M 116 0 D S
4 W
42 3046 712 Sc
8 W
N 3076 166 M 0 1589 D S
N 3018 166 M 117 0 D S
N 3018 1755 M 117 0 D S
4 W
42 3076 960 Sc
8 W
N 3105 5 M 0 1479 D S
N 3047 5 M 117 0 D S
N 3047 1484 M 117 0 D S
4 W
42 3105 745 Sc
8 W
N 3133 -227 M 0 717 D S
N 3075 -227 M 117 0 D S
N 3075 490 M 117 0 D S
4 W
42 3133 132 Sc
8 W
N 3160 -232 M 0 954 D S
N 3102 -232 M 117 0 D S
N 3102 722 M 117 0 D S
4 W
42 3160 245 Sc
8 W
N 3186 980 M 0 1687 D S
N 3128 980 M 116 0 D S
N 3128 2667 M 116 0 D S
4 W
42 3186 1824 Sc
8 W
N 3211 1275 M 0 1639 D S
N 3153 1275 M 116 0 D S
N 3153 2914 M 116 0 D S
4 W
42 3211 2095 Sc
8 W
N 3235 841 M 0 1698 D S
N 3177 841 M 116 0 D S
N 3177 2539 M 116 0 D S
4 W
42 3235 1690 Sc
8 W
N 3258 1199 M 0 1654 D S
N 3200 1199 M 116 0 D S
N 3200 2853 M 116 0 D S
4 W
42 3258 2026 Sc
8 W
N 3281 291 M 0 1641 D S
N 3222 291 M 117 0 D S
N 3222 1932 M 117 0 D S
4 W
42 3281 1112 Sc
8 W
N 3302 -94 M 0 209 D S
N 3244 -94 M 117 0 D S
N 3244 115 M 117 0 D S
4 W
42 3302 11 Sc
8 W
N 3323 1405 M 0 1610 D S
N 3265 1405 M 117 0 D S
N 3265 3015 M 117 0 D S
4 W
42 3323 2210 Sc
8 W
N 3344 1513 M 0 1582 D S
N 3285 1513 M 117 0 D S
N 3285 3095 M 117 0 D S
4 W
42 3344 2304 Sc
8 W
N 3364 1210 M 0 1652 D S
N 3305 1210 M 117 0 D S
N 3305 2862 M 117 0 D S
4 W
42 3364 2036 Sc
8 W
N 3383 663 M 0 1701 D S
N 3324 663 M 117 0 D S
N 3324 2364 M 117 0 D S
4 W
42 3383 1514 Sc
8 W
N 3402 702 M 0 1702 D S
N 3343 702 M 117 0 D S
N 3343 2404 M 117 0 D S
4 W
42 3402 1553 Sc
8 W
N 3420 421 M 0 1675 D S
N 3361 421 M 117 0 D S
N 3361 2096 M 117 0 D S
4 W
42 3420 1259 Sc
8 W
N 3438 -63 M 0 1407 D S
N 3379 -63 M 117 0 D S
N 3379 1344 M 117 0 D S
4 W
42 3438 640 Sc
8 W
N 3455 707 M 0 1702 D S
N 3396 707 M 117 0 D S
N 3396 2409 M 117 0 D S
4 W
42 3455 1558 Sc
8 W
N 3472 551 M 0 1694 D S
N 3413 551 M 117 0 D S
N 3413 2245 M 117 0 D S
4 W
42 3472 1398 Sc
8 W
N 3488 583 M 0 1696 D S
N 3430 583 M 117 0 D S
N 3430 2279 M 117 0 D S
4 W
42 3488 1431 Sc
8 W
N 3504 1790 M 0 1500 D S
N 3446 1790 M 117 0 D S
N 3446 3290 M 117 0 D S
4 W
42 3504 2540 Sc
8 W
N 3520 251 M 0 1626 D S
N 3462 251 M 116 0 D S
N 3462 1877 M 116 0 D S
4 W
42 3520 1064 Sc
8 W
N 3535 788 M 0 1701 D S
N 3477 788 M 117 0 D S
N 3477 2489 M 117 0 D S
4 W
42 3535 1639 Sc
8 W
N 3550 20 M 0 1492 D S
N 3492 20 M 117 0 D S
N 3492 1512 M 117 0 D S
4 W
42 3550 766 Sc
8 W
N 3565 444 M 0 1679 D S
N 3507 444 M 116 0 D S
N 3507 2123 M 116 0 D S
4 W
42 3565 1283 Sc
8 W
N 3580 -58 M 0 1414 D S
N 3521 -58 M 117 0 D S
N 3521 1356 M 117 0 D S
4 W
42 3580 649 Sc
8 W
N 3594 309 M 0 1646 D S
N 3535 309 M 117 0 D S
N 3535 1955 M 117 0 D S
4 W
42 3594 1132 Sc
8 W
N 3607 1649 M 0 1543 D S
N 3549 1649 M 117 0 D S
N 3549 3192 M 117 0 D S
4 W
42 3607 2421 Sc
8 W
N 3621 1145 M 0 1664 D S
N 3563 1145 M 116 0 D S
N 3563 2809 M 116 0 D S
4 W
42 3621 1977 Sc
8 W
N 3634 122 M 0 1564 D S
N 3576 122 M 117 0 D S
N 3576 1686 M 117 0 D S
4 W
42 3634 904 Sc
8 W
N 3647 1017 M 0 1683 D S
N 3589 1017 M 117 0 D S
N 3589 2700 M 117 0 D S
4 W
42 3647 1858 Sc
8 W
N 3660 1182 M 0 1657 D S
N 3602 1182 M 116 0 D S
N 3602 2839 M 116 0 D S
4 W
42 3660 2010 Sc
8 W
N 3673 465 M 0 1683 D S
N 3614 465 M 117 0 D S
N 3614 2148 M 117 0 D S
4 W
42 3673 1307 Sc
8 W
N 3685 64 M 0 1526 D S
N 3627 64 M 116 0 D S
N 3627 1590 M 116 0 D S
4 W
42 3685 827 Sc
8 W
N 3697 108 M 0 1556 D S
N 3639 108 M 116 0 D S
N 3639 1664 M 116 0 D S
4 W
42 3697 886 Sc
8 W
N 3709 -33 M 0 1442 D S
N 3651 -33 M 116 0 D S
N 3651 1409 M 116 0 D S
4 W
42 3709 688 Sc
8 W
N 3721 151 M 0 1581 D S
N 3662 151 M 117 0 D S
N 3662 1732 M 117 0 D S
4 W
42 3721 942 Sc
8 W
N 3732 184 M 0 1598 D S
N 3674 184 M 116 0 D S
N 3674 1782 M 116 0 D S
4 W
42 3732 983 Sc
8 W
N 3743 35 M 0 1505 D S
N 3685 35 M 117 0 D S
N 3685 1540 M 117 0 D S
4 W
42 3743 788 Sc
8 W
N 3755 -232 M 0 766 D S
N 3696 -232 M 117 0 D S
N 3696 534 M 117 0 D S
4 W
42 3755 151 Sc
8 W
N 3766 -228 M 0 1002 D S
N 3707 -228 M 117 0 D S
N 3707 774 M 117 0 D S
4 W
42 3766 273 Sc
8 W
N 3776 -136 M 0 1301 D S
N 3718 -136 M 117 0 D S
N 3718 1165 M 117 0 D S
4 W
42 3776 514 Sc
8 W
N 3787 -143 M 0 1287 D S
N 3729 -143 M 116 0 D S
N 3729 1144 M 116 0 D S
4 W
42 3787 500 Sc
8 W
N 3797 134 M 0 1572 D S
N 3739 134 M 117 0 D S
N 3739 1706 M 117 0 D S
4 W
42 3797 920 Sc
8 W
N 3808 -91 M 0 1373 D S
N 3749 -91 M 117 0 D S
N 3749 1282 M 117 0 D S
4 W
42 3808 596 Sc
8 W
N 3818 -189 M 0 1177 D S
N 3759 -189 M 117 0 D S
N 3759 988 M 117 0 D S
4 W
42 3818 400 Sc
8 W
N 3828 -56 M 0 1415 D S
N 3769 -56 M 117 0 D S
N 3769 1359 M 117 0 D S
4 W
42 3828 652 Sc
8 W
N 3838 -166 M 0 1237 D S
N 3779 -166 M 117 0 D S
N 3779 1071 M 117 0 D S
4 W
42 3838 452 Sc
8 W
N 3847 118 M 0 1562 D S
N 3789 118 M 117 0 D S
N 3789 1680 M 117 0 D S
4 W
42 3847 899 Sc
8 W
N 3857 15 M 0 1489 D S
N 3798 15 M 117 0 D S
N 3798 1504 M 117 0 D S
4 W
42 3857 759 Sc
8 W
N 3866 -195 M 0 1157 D S
N 3808 -195 M 117 0 D S
N 3808 962 M 117 0 D S
4 W
42 3866 383 Sc
8 W
N 3876 -156 M 0 1260 D S
N 3817 -156 M 117 0 D S
N 3817 1104 M 117 0 D S
4 W
42 3876 474 Sc
8 W
N 3885 -222 M 0 677 D S
N 3826 -222 M 117 0 D S
N 3826 455 M 117 0 D S
4 W
42 3885 117 Sc
8 W
N 3894 99 M 0 1551 D S
N 3835 99 M 117 0 D S
N 3835 1650 M 117 0 D S
4 W
42 3894 875 Sc
8 W
N 3903 -235 M 0 824 D S
N 3844 -235 M 117 0 D S
N 3844 589 M 117 0 D S
4 W
42 3903 177 Sc
8 W
N 3912 -112 M 0 1342 D S
N 3853 -112 M 117 0 D S
N 3853 1230 M 117 0 D S
4 W
42 3912 559 Sc
8 W
N 3920 -96 M 0 1365 D S
N 3862 -96 M 117 0 D S
N 3862 1269 M 117 0 D S
4 W
42 3920 587 Sc
8 W
N 3929 -105 M 0 1352 D S
N 3871 -105 M 116 0 D S
N 3871 1247 M 116 0 D S
4 W
42 3929 571 Sc
8 W
N 3937 -228 M 0 1003 D S
N 3879 -228 M 117 0 D S
N 3879 775 M 117 0 D S
4 W
42 3937 273 Sc
8 W
N 3946 -106 M 0 1351 D S
N 3887 -106 M 117 0 D S
N 3887 1245 M 117 0 D S
4 W
42 3946 570 Sc
8 W
N 3954 194 M 0 1601 D S
N 3896 194 M 116 0 D S
N 3896 1795 M 116 0 D S
4 W
42 3954 994 Sc
8 W
N 3962 -46 M 0 1429 D S
N 3904 -46 M 117 0 D S
N 3904 1383 M 117 0 D S
4 W
42 3962 669 Sc
8 W
N 3970 -234 M 0 927 D S
N 3912 -234 M 117 0 D S
N 3912 693 M 117 0 D S
4 W
42 3970 229 Sc
8 W
N 3978 -132 M 0 1309 D S
N 3920 -132 M 117 0 D S
N 3920 1177 M 117 0 D S
4 W
42 3978 522 Sc
8 W
N 3986 -70 M 0 1399 D S
N 3928 -70 M 117 0 D S
N 3928 1329 M 117 0 D S
4 W
42 3986 630 Sc
8 W
N 3994 -179 M 0 464 D S
N 3936 -179 M 116 0 D S
N 3936 285 M 116 0 D S
4 W
42 3994 53 Sc
8 W
N 4002 -190 M 0 509 D S
N 3943 -190 M 117 0 D S
N 3943 319 M 117 0 D S
4 W
42 4002 64 Sc
8 W
N 4009 -214 M 0 1083 D S
N 3951 -214 M 117 0 D S
N 3951 869 M 117 0 D S
4 W
42 4009 328 Sc
8 W
N 4017 -193 M 0 1164 D S
N 3959 -193 M 116 0 D S
N 3959 971 M 116 0 D S
4 W
42 4017 389 Sc
8 W
N 4024 -188 M 0 502 D S
N 3966 -188 M 117 0 D S
N 3966 314 M 117 0 D S
4 W
42 4024 63 Sc
8 W
N 4032 -211 M 0 606 D S
N 3974 -211 M 116 0 D S
N 3974 395 M 116 0 D S
4 W
42 4032 92 Sc
8 W
N 4039 -236 M 0 849 D S
N 3981 -236 M 117 0 D S
N 3981 613 M 117 0 D S
4 W
42 4039 189 Sc
8 W
N 4046 -222 M 0 1042 D S
N 3988 -222 M 117 0 D S
N 3988 820 M 117 0 D S
4 W
42 4046 299 Sc
8 W
N 4054 -205 M 0 1126 D S
N 3995 -205 M 117 0 D S
N 3995 921 M 117 0 D S
4 W
42 4054 358 Sc
8 W
N 4061 -208 M 0 1110 D S
N 4002 -208 M 117 0 D S
N 4002 902 M 117 0 D S
4 W
42 4061 347 Sc
8 W
N 4068 -118 M 0 1331 D S
N 4009 -118 M 117 0 D S
N 4009 1213 M 117 0 D S
4 W
42 4068 547 Sc
8 W
N 4075 232 M 0 1618 D S
N 4016 232 M 117 0 D S
N 4016 1850 M 117 0 D S
4 W
42 4075 1041 Sc
8 W
N 4082 1249 M 0 1645 D S
N 4023 1249 M 117 0 D S
N 4023 2894 M 117 0 D S
4 W
42 4082 2071 Sc
8 W
N 4088 906 M 0 1694 D S
N 4030 906 M 117 0 D S
N 4030 2600 M 117 0 D S
4 W
42 4088 1753 Sc
8 W
N 4095 96 M 0 1549 D S
N 4037 96 M 116 0 D S
N 4037 1645 M 116 0 D S
4 W
42 4095 871 Sc
8 W
N 4102 181 M 0 1596 D S
N 4043 181 M 117 0 D S
N 4043 1777 M 117 0 D S
4 W
42 4102 979 Sc
8 W
N 4108 -192 M 0 518 D S
N 4050 -192 M 117 0 D S
N 4050 326 M 117 0 D S
4 W
42 4108 67 Sc
8 W
N 4115 -196 M 0 1158 D S
N 4057 -196 M 116 0 D S
N 4057 962 M 116 0 D S
4 W
42 4115 383 Sc
8 W
N 4121 -165 M 0 414 D S
N 4063 -165 M 117 0 D S
N 4063 249 M 117 0 D S
4 W
42 4121 42 Sc
8 W
N 4128 -106 M 0 241 D S
N 4069 -106 M 117 0 D S
N 4069 135 M 117 0 D S
4 W
42 4128 14 Sc
8 W
N 4134 -234 M 0 804 D S
N 4076 -234 M 116 0 D S
N 4076 570 M 116 0 D S
4 W
42 4134 168 Sc
8 W
N 4140 -3 M 0 1473 D S
N 4082 -3 M 117 0 D S
N 4082 1470 M 117 0 D S
4 W
42 4140 734 Sc
8 W
N 4147 -114 M 0 1337 D S
N 4088 -114 M 117 0 D S
N 4088 1223 M 117 0 D S
4 W
42 4147 554 Sc
8 W
N 4153 -215 M 0 1082 D S
N 4095 -215 M 116 0 D S
N 4095 867 M 116 0 D S
4 W
42 4153 326 Sc
8 W
N 4159 -171 M 0 436 D S
N 4101 -171 M 116 0 D S
N 4101 265 M 116 0 D S
4 W
42 4159 47 Sc
8 W
N 4165 -235 M 0 916 D S
N 4107 -235 M 116 0 D S
N 4107 681 M 116 0 D S
4 W
42 4165 223 Sc
8 W
N 4171 -170 M 0 1228 D S
N 4113 -170 M 116 0 D S
N 4113 1058 M 116 0 D S
4 W
42 4171 444 Sc
8 W
N 4177 -192 M 0 515 D S
N 4119 -192 M 116 0 D S
N 4119 323 M 116 0 D S
4 W
42 4177 66 Sc
8 W
N 4183 -156 M 0 1261 D S
N 4125 -156 M 116 0 D S
N 4125 1105 M 116 0 D S
4 W
42 4183 475 Sc
8 W
N 4189 -209 M 0 597 D S
N 4131 -209 M 116 0 D S
N 4131 388 M 116 0 D S
4 W
42 4189 90 Sc
8 W
N 4195 -149 M 0 363 D S
N 4136 -149 M 117 0 D S
N 4136 214 M 117 0 D S
4 W
42 4195 32 Sc
8 W
N 4200 -166 M 0 417 D S
N 4142 -166 M 117 0 D S
N 4142 251 M 117 0 D S
4 W
42 4200 43 Sc
8 W
N 4206 -84 M 0 1382 D S
N 4148 -84 M 117 0 D S
N 4148 1298 M 117 0 D S
4 W
42 4206 607 Sc
8 W
N 4212 169 M 0 1590 D S
N 4154 169 M 116 0 D S
N 4154 1759 M 116 0 D S
4 W
42 4212 964 Sc
8 W
N 4218 763 M 0 1702 D S
N 4159 763 M 117 0 D S
N 4159 2465 M 117 0 D S
4 W
42 4218 1614 Sc
8 W
N 4223 373 M 0 1664 D S
N 4165 373 M 116 0 D S
N 4165 2037 M 116 0 D S
4 W
42 4223 1205 Sc
8 W
N 4229 -136 M 0 1301 D S
N 4170 -136 M 117 0 D S
N 4170 1165 M 117 0 D S
4 W
42 4229 515 Sc
8 W
N 4234 22 M 0 1494 D S
N 4176 22 M 116 0 D S
N 4176 1516 M 116 0 D S
4 W
42 4234 769 Sc
8 W
N 4240 -127 M 0 1315 D S
N 4181 -127 M 117 0 D S
N 4181 1188 M 117 0 D S
4 W
42 4240 531 Sc
8 W
N 4245 179 M 0 1595 D S
N 4187 179 M 116 0 D S
N 4187 1774 M 116 0 D S
4 W
42 4245 976 Sc
8 W
N 4250 332 M 0 1653 D S
N 4192 332 M 117 0 D S
N 4192 1985 M 117 0 D S
4 W
42 4250 1158 Sc
U
PSL_cliprestore
24 W
0 A
/PSL_slant_y 0 def /PSL_slant_x 0 def
2 setlinecap
N 0 4724 M 0 -4724 D S
/PSL_A0_y 64 def
/PSL_A1_y 0 def
8 W
N 0 0 M -64 0 D S
N 0 1181 M -64 0 D S
N 0 2362 M -64 0 D S
N 0 3543 M -64 0 D S
N 0 4724 M -64 0 D S
PSL_font_encode 0 get 0 eq {ISOLatin1+_Encoding /Helvetica /Helvetica PSL_reencode PSL_font_encode 0 1 put} if
/MM {neg exch M} def
/PSL_AH0 0
159 F0
(0.00) sw mx
(0.25) sw mx
(0.50) sw mx
(0.75) sw mx
(1.00) sw mx
def
/PSL_A0_y PSL_A0_y 48 add def
0 PSL_A0_y MM
(0.00) mr Z
1181 PSL_A0_y MM
(0.25) mr Z
2362 PSL_A0_y MM
(0.50) mr Z
3543 PSL_A0_y MM
(0.75) mr Z
4724 PSL_A0_y MM
(1.00) mr Z
/PSL_A0_y PSL_A0_y PSL_AH0 add def
N 0 236 M -32 0 D S
N 0 472 M -32 0 D S
N 0 709 M -32 0 D S
N 0 945 M -32 0 D S
N 0 1417 M -32 0 D S
N 0 1654 M -32 0 D S
N 0 1890 M -32 0 D S
N 0 2126 M -32 0 D S
N 0 2598 M -32 0 D S
N 0 2835 M -32 0 D S
N 0 3071 M -32 0 D S
N 0 3307 M -32 0 D S
N 0 3780 M -32 0 D S
N 0 4016 M -32 0 D S
N 0 4252 M -32 0 D S
N 0 4488 M -32 0 D S
/PSL_LH 223 F0
(M) sh def
/PSL_L_y PSL_A0_y PSL_A1_y mx 96 add def
2362 PSL_L_y MM
V 90 R V MU 0 0 M (Coherency) FP 0 78 G 156 F0 (2) FP 0 -78 G pathbbox N pop exch pop add U -2 div 0 G
(Coherency) Z
0 78 G 156 F0 (2) Z
0 -78 G U
4724 0 T
24 W
N 0 4724 M 0 -4724 D S
/PSL_A0_y 64 def
/PSL_A1_y 0 def
8 W
N 0 0 M 64 0 D S
N 0 1181 M 64 0 D S
N 0 2362 M 64 0 D S
N 0 3543 M 64 0 D S
N 0 4724 M 64 0 D S
N 0 236 M 32 0 D S
N 0 472 M 32 0 D S
N 0 709 M 32 0 D S
N 0 945 M 32 0 D S
N 0 1417 M 32 0 D S
N 0 1654 M 32 0 D S
N 0 1890 M 32 0 D S
N 0 2126 M 32 0 D S
N 0 2598 M 32 0 D S
N 0 2835 M 32 0 D S
N 0 3071 M 32 0 D S
N 0 3307 M 32 0 D S
N 0 3780 M 32 0 D S
N 0 4016 M 32 0 D S
N 0 4252 M 32 0 D S
N 0 4488 M 32 0 D S
/PSL_LH 0 def /PSL_L_y PSL_A0_y PSL_A1_y mx def
-4724 0 T
24 W
N 0 0 M 4724 0 D S
/PSL_A0_y 64 def
/PSL_A1_y 0 def
8 W
N 4724 0 M 0 -64 D S
N 3150 0 M 0 -64 D S
N 1575 0 M 0 -64 D S
N 0 0 M 0 -64 D S
/MM {neg M} def
/PSL_AH0 0
159 F0
V MU 0 0 M (10) FP 0 56 G 111 F0 (0) FP 0 -56 G pathbbox N 4 1 roll pop pop pop U mx
V MU 0 0 M (10) FP 0 56 G 111 F0 (1) FP 0 -56 G pathbbox N 4 1 roll pop pop pop U mx
V MU 0 0 M (10) FP 0 56 G 111 F0 (2) FP 0 -56 G pathbbox N 4 1 roll pop pop pop U mx
V MU 0 0 M (10) FP 0 56 G 111 F0 (3) FP 0 -56 G pathbbox N 4 1 roll pop pop pop U mx
def
/PSL_A0_y PSL_A0_y 48 add PSL_AH0 add def
4724 PSL_A0_y MM
V MU 0 0 M (10) FP 0 56 G 111 F0 (0) FP 0 -56 G pathbbox N pop exch pop add U -2 div 0 G
(10) Z
0 56 G 111 F0 (0) Z
0 -56 G 3150 PSL_A0_y MM
159 F0
V MU 0 0 M (10) FP 0 56 G 111 F0 (1) FP 0 -56 G pathbbox N pop exch pop add U -2 div 0 G
(10) Z
0 56 G 111 F0 (1) Z
0 -56 G 1575 PSL_A0_y MM
159 F0
V MU 0 0 M (10) FP 0 56 G 111 F0 (2) FP 0 -56 G pathbbox N pop exch pop add U -2 div 0 G
(10) Z
0 56 G 111 F0 (2) Z
0 -56 G 0 PSL_A0_y MM
159 F0
V MU 0 0 M (10) FP 0 56 G 111 F0 (3) FP 0 -56 G pathbbox N pop exch pop add U -2 div 0 G
(10) Z
0 56 G 111 F0 (3) Z
0 -56 G N 4250 0 M 0 -32 D S
N 3973 0 M 0 -32 D S
N 3776 0 M 0 -32 D S
N 3624 0 M 0 -32 D S
N 3499 0 M 0 -32 D S
N 3394 0 M 0 -32 D S
N 3302 0 M 0 -32 D S
N 3222 0 M 0 -32 D S
N 2676 0 M 0 -32 D S
N 2398 0 M 0 -32 D S
N 2201 0 M 0 -32 D S
N 2049 0 M 0 -32 D S
N 1924 0 M 0 -32 D S
N 1819 0 M 0 -32 D S
N 1727 0 M 0 -32 D S
N 1647 0 M 0 -32 D S
N 1101 0 M 0 -32 D S
N 823 0 M 0 -32 D S
N 627 0 M 0 -32 D S
N 474 0 M 0 -32 D S
N 349 0 M 0 -32 D S
N 244 0 M 0 -32 D S
N 153 0 M 0 -32 D S
N 72 0 M 0 -32 D S
/PSL_LH 223 F0
(M) sh def
/PSL_L_y PSL_A0_y PSL_A1_y mx 96 add PSL_LH add def
2362 PSL_L_y MM
(Wavelength \(km\)) bc Z
0 4724 T
24 W
N 0 0 M 4724 0 D S
/PSL_A0_y 64 def
/PSL_A1_y 0 def
8 W
N 4724 0 M 0 64 D S
N 3150 0 M 0 64 D S
N 1575 0 M 0 64 D S
N 0 0 M 0 64 D S
N 4250 0 M 0 32 D S
N 3973 0 M 0 32 D S
N 3776 0 M 0 32 D S
N 3624 0 M 0 32 D S
N 3499 0 M 0 32 D S
N 3394 0 M 0 32 D S
N 3302 0 M 0 32 D S
N 3222 0 M 0 32 D S
N 2676 0 M 0 32 D S
N 2398 0 M 0 32 D S
N 2201 0 M 0 32 D S
N 2049 0 M 0 32 D S
N 1924 0 M 0 32 D S
N 1819 0 M 0 32 D S
N 1727 0 M 0 32 D S
N 1647 0 M 0 32 D S
N 1101 0 M 0 32 D S
N 823 0 M 0 32 D S
N 627 0 M 0 32 D S
N 474 0 M 0 32 D S
N 349 0 M 0 32 D S
N 244 0 M 0 32 D S
N 153 0 M 0 32 D S
N 72 0 M 0 32 D S
/PSL_LH 0 def /PSL_L_y PSL_A0_y PSL_A1_y mx def
0 -4724 T
0 setlinecap
%%EndObject
0 0 TM
PSL_plot_completion /PSL_plot_completion {} def
grestore
PSL_movie_label_completion /PSL_movie_label_completion {} def
PSL_movie_prog_indicator_completion /PSL_movie_prog_indicator_completion {} def
%PSL_Begin_Trailer
%%PageTrailer
U
showpage
%%Trailer
end
%%EOF
