%!PS-Adobe-3.0
%%BoundingBox: 0 0 595 842
%%HiResBoundingBox: 0 0 595.0000 842.0000
%%Title: GMT v6.4.0_2052f2a_2022.05.13 Document from plot
%%Creator: GMT6
%%For: unknown
%%DocumentNeededResources: font Helvetica
%%CreationDate: Fri May 13 16:07:23 2022
%%LanguageLevel: 2
%%DocumentData: Clean7Bit
%%Orientation: Portrait
%%Pages: 1
%%EndComments
%%BeginProlog
250 dict begin
/! {bind def} bind def
/# {load def}!
/A /setgray #
/B /setdash #
/C /setrgbcolor #
/D /rlineto #
/E {dup stringwidth pop}!
/F /fill #
/G /rmoveto #
/H /sethsbcolor #
/I /setpattern #
/K /setcmykcolor #
/L /lineto #
/M /moveto #
/N /newpath #
/P /closepath #
/R /rotate #
/S /stroke #
/T /translate #
/U /grestore #
/V /gsave #
/W /setlinewidth #
/Y {findfont exch scalefont setfont}!
/Z /show #
/FP {true charpath flattenpath}!
/MU {matrix setmatrix}!
/MS {/SMat matrix currentmatrix def}!
/MR {SMat setmatrix}!
/edef {exch def}!
/FS {/fc edef /fs {V fc F U} def}!
/FQ {/fs {} def}!
/O0 {/os {N} def}!
/O1 {/os {P S} def}!
/FO {fs os}!
/Sa {M MS dup 0 exch G 0.726542528 mul -72 R dup 0 D 4 {72 R dup 0 D -144 R dup 0 D} repeat pop MR FO}!
/Sb {M dup 0 D exch 0 exch D neg 0 D FO}!
/SB {MS T /BoxR edef /BoxW edef /BoxH edef BoxR 0 M
  BoxW 0 BoxW BoxH BoxR arct BoxW BoxH 0 BoxH BoxR arct 0 BoxH 0 0 BoxR arct 0 0 BoxW 0 BoxR arct MR FO}!
/Sc {N 3 -1 roll 0 360 arc FO}!
/Sd {M 4 {dup} repeat 0 G neg dup dup D exch D D FO}!
/Se {N MS T R scale 0 0 1 0 360 arc MR FO}!
/Sg {M MS 22.5 R dup 0 exch G -22.5 R 0.765366865 mul dup 0 D 6 {-45 R dup 0 D} repeat pop MR FO}!
/Sh {M MS dup 0 G -120 R dup 0 D 4 {-60 R dup 0 D} repeat pop MR FO}!
/Si {M MS dup neg 0 exch G 60 R 1.732050808 mul dup 0 D 120 R 0 D MR FO}!
/Sj {M MS R dup -2 div 2 index -2 div G dup 0 D exch 0 exch D neg 0 D MR FO}!
/Sn {M MS dup 0 exch G -36 R 1.175570505 mul dup 0 D 3 {-72 R dup 0 D} repeat pop MR FO}!
/Sp {N 3 -1 roll 0 360 arc fs N}!
/SP {M {D} repeat FO}!
/Sr {M dup -2 div 2 index -2 div G dup 0 D exch 0 exch D neg 0 D FO}!
/SR {MS T /BoxR edef /BoxW edef /BoxH edef BoxR BoxW -2 div BoxH -2 div T BoxR 0 M
  BoxW 0 BoxW BoxH BoxR arct BoxW BoxH 0 BoxH BoxR arct 0 BoxH 0 0 BoxR arct 0 0 BoxW 0 BoxR arct MR FO}!
/Ss {M 1.414213562 mul dup dup dup -2 div dup G 0 D 0 exch D neg 0 D FO}!
/St {M MS dup 0 exch G -60 R 1.732050808 mul dup 0 D -120 R 0 D MR FO}!
/SV {0 exch M 0 D D D D D 0 D FO}!
/Sv {0 0 M D D 0 D D D D D 0 D D FO}!
/Sw {2 copy M 5 2 roll arc FO}!
/Sx {M 1.414213562 mul 5 {dup} repeat -2 div dup G D neg 0 G neg D S}!
/Sy {M dup 0 exch G dup -2 mul dup 0 exch D S}!
/S+ {M dup 0 G dup -2 mul dup 0 D exch dup G 0 exch D S}!
/S- {M dup 0 G dup -2 mul dup 0 D S}!
/sw {stringwidth pop}!
/sh {V MU 0 0 M FP pathbbox N 4 1 roll pop pop pop U}!
/sd {V MU 0 0 M FP pathbbox N pop pop exch pop U}!
/sH {V MU 0 0 M FP pathbbox N exch pop exch sub exch pop U}!
/sb {E exch sh}!
/bl {}!
/bc {E -2 div 0 G}!
/br {E neg 0 G}!
/ml {dup 0 exch sh -2 div G}!
/mc {dup E -2 div exch sh -2 div G}!
/mr {dup E neg exch sh -2 div G}!
/tl {dup 0 exch sh neg G}!
/tc {dup E -2 div exch sh neg G}!
/tr {dup E neg exch sh neg G}!
/mx {2 copy lt {exch} if pop}!
/PSL_xorig 0 def /PSL_yorig 0 def
/TM {2 copy T PSL_yorig add /PSL_yorig edef PSL_xorig add /PSL_xorig edef}!
/PSL_reencode {findfont dup length dict begin
  {1 index /FID ne {def}{pop pop} ifelse} forall
  exch /Encoding edef currentdict end definefont pop
}!
/PSL_eps_begin {
  /PSL_eps_state save def
  /PSL_dict_count countdictstack def
  /PSL_op_count count 1 sub def
  userdict begin
  /showpage {} def
  0 setgray 0 setlinecap 1 setlinewidth
  0 setlinejoin 10 setmiterlimit [] 0 setdash newpath
  /languagelevel where
  {pop languagelevel 1 ne {false setstrokeadjust false setoverprint} if} if
}!
/PSL_eps_end {
  count PSL_op_count sub {pop} repeat
  countdictstack PSL_dict_count sub {end} repeat
  PSL_eps_state restore
}!
/PSL_transp {
  /PSL_BM_arg edef /PSL_S_arg edef /PSL_F_arg edef
  /.setfillconstantalpha where
  { pop PSL_BM_arg .setblendmode PSL_S_arg .setstrokeconstantalpha PSL_F_arg .setfillconstantalpha }
  { /pdfmark where {pop [ /BM PSL_BM_arg /CA PSL_S_arg /ca PSL_F_arg /SetTransparency pdfmark} if }
  ifelse
}!
/ISOLatin1+_Encoding [
/.notdef	/.notdef	/.notdef	/.notdef	/.notdef	/.notdef	/.notdef	/.notdef
/.notdef	/.notdef	/.notdef	/.notdef	/.notdef	/.notdef	/.notdef	/.notdef
/.notdef	/.notdef	/.notdef	/.notdef	/.notdef	/.notdef	/.notdef	/.notdef
/.notdef	/bullet		/ellipsis	/trademark	/emdash		/endash		/fi		/zcaron
/space		/exclam		/quotedbl	/numbersign	/dollar		/percent	/ampersand	/quoteright
/parenleft	/parenright	/asterisk	/plus		/comma		/minus		/period		/slash
/zero		/one		/two		/three		/four		/five		/six		/seven
/eight		/nine		/colon		/semicolon	/less		/equal		/greater	/question
/at		/A		/B		/C		/D		/E		/F		/G
/H		/I		/J		/K		/L		/M		/N		/O
/P		/Q		/R		/S		/T		/U		/V		/W
/X		/Y		/Z		/bracketleft	/backslash	/bracketright	/asciicircum	/underscore
/quoteleft	/a		/b		/c 		/d		/e		/f		/g
/h		/i		/j		/k		/l		/m		/n		/o
/p		/q		/r		/s		/t		/u		/v		/w
/x		/y		/z		/braceleft	/bar		/braceright	/asciitilde	/scaron
/OE		/dagger		/daggerdbl	/Lslash		/fraction	/guilsinglleft	/Scaron		/guilsinglright
/oe		/Ydieresis	/Zcaron		/lslash		/perthousand	/quotedblbase	/quotedblleft	/quotedblright
/dotlessi	/grave		/acute		/circumflex	/tilde		/macron		/breve		/dotaccent
/dieresis	/quotesinglbase	/ring		/cedilla	/quotesingle	/hungarumlaut	/ogonek		/caron
/space		/exclamdown	/cent		/sterling	/currency	/yen		/brokenbar	/section
/dieresis	/copyright	/ordfeminine	/guillemotleft	/logicalnot	/hyphen		/registered	/macron
/degree		/plusminus	/twosuperior	/threesuperior	/acute		/mu		/paragraph	/periodcentered
/cedilla	/onesuperior	/ordmasculine	/guillemotright	/onequarter	/onehalf	/threequarters	/questiondown
/Agrave		/Aacute		/Acircumflex	/Atilde		/Adieresis	/Aring		/AE		/Ccedilla
/Egrave		/Eacute		/Ecircumflex	/Edieresis	/Igrave		/Iacute		/Icircumflex	/Idieresis
/Eth		/Ntilde		/Ograve		/Oacute		/Ocircumflex	/Otilde		/Odieresis	/multiply
/Oslash		/Ugrave		/Uacute		/Ucircumflex	/Udieresis	/Yacute		/Thorn		/germandbls
/agrave		/aacute		/acircumflex	/atilde		/adieresis	/aring		/ae		/ccedilla
/egrave		/eacute		/ecircumflex	/edieresis	/igrave		/iacute		/icircumflex	/idieresis
/eth		/ntilde		/ograve		/oacute		/ocircumflex	/otilde		/odieresis	/divide
/oslash		/ugrave		/uacute		/ucircumflex	/udieresis	/yacute		/thorn		/ydieresis
] def
/PSL_font_encode 0 0 0 0 0 0 0 0 0 0 0 0 0 0 0 0 0 0 0 0 0 0 0 0 0 0 0 0 0 0 0 0 0 0 0 0 0 0 0 39 array astore def
/F0 {/Helvetica Y}!
/F1 {/Helvetica-Bold Y}!
/F2 {/Helvetica-Oblique Y}!
/F3 {/Helvetica-BoldOblique Y}!
/F4 {/Times-Roman Y}!
/F5 {/Times-Bold Y}!
/F6 {/Times-Italic Y}!
/F7 {/Times-BoldItalic Y}!
/F8 {/Courier Y}!
/F9 {/Courier-Bold Y}!
/F10 {/Courier-Oblique Y}!
/F11 {/Courier-BoldOblique Y}!
/F12 {/Symbol Y}!
/F13 {/AvantGarde-Book Y}!
/F14 {/AvantGarde-BookOblique Y}!
/F15 {/AvantGarde-Demi Y}!
/F16 {/AvantGarde-DemiOblique Y}!
/F17 {/Bookman-Demi Y}!
/F18 {/Bookman-DemiItalic Y}!
/F19 {/Bookman-Light Y}!
/F20 {/Bookman-LightItalic Y}!
/F21 {/Helvetica-Narrow Y}!
/F22 {/Helvetica-Narrow-Bold Y}!
/F23 {/Helvetica-Narrow-Oblique Y}!
/F24 {/Helvetica-Narrow-BoldOblique Y}!
/F25 {/NewCenturySchlbk-Roman Y}!
/F26 {/NewCenturySchlbk-Italic Y}!
/F27 {/NewCenturySchlbk-Bold Y}!
/F28 {/NewCenturySchlbk-BoldItalic Y}!
/F29 {/Palatino-Roman Y}!
/F30 {/Palatino-Italic Y}!
/F31 {/Palatino-Bold Y}!
/F32 {/Palatino-BoldItalic Y}!
/F33 {/ZapfChancery-MediumItalic Y}!
/F34 {/ZapfDingbats Y}!
/F35 {/Ryumin-Light-EUC-H Y}!
/F36 {/Ryumin-Light-EUC-V Y}!
/F37 {/GothicBBB-Medium-EUC-H Y}!
/F38 {/GothicBBB-Medium-EUC-V Y}!
/PSL_pathtextdict 26 dict def
/PSL_pathtext
  {PSL_pathtextdict begin
    /ydepth exch def
    /textheight exch def
    /just exch def
    /offset exch def
    /str exch def
    /pathdist 0 def
    /setdist offset def
    /charcount 0 def
    /justy just 4 idiv textheight mul 2 div neg ydepth sub def
    V flattenpath
	{movetoproc} {linetoproc}
	{curvetoproc} {closepathproc}
	pathforall
    U N
    end
  } def
PSL_pathtextdict begin
/movetoproc
  { /newy exch def /newx exch def
    /firstx newx def /firsty newy def
    /ovr 0 def
    newx newy transform
    /cpy exch def /cpx exch def
  } def
/linetoproc
  { /oldx newx def /oldy newy def
    /newy exch def /newx exch def
    /dx newx oldx sub def
    /dy newy oldy sub def
    /dist dx dup mul dy dup mul add sqrt def
    dist 0 ne
    { /dsx dx dist div ovr mul def
      /dsy dy dist div ovr mul def
      oldx dsx add oldy dsy add transform
      /cpy exch def /cpx exch def
      /pathdist pathdist dist add def
      {setdist pathdist le
	  {charcount str length lt
	      {setchar} {exit} ifelse}
	  { /ovr setdist pathdist sub def
	    exit}
	  ifelse
      } loop
    } if
  } def
/curvetoproc
  { (ERROR: No curveto's after flattenpath!)
    print
  } def
/closepathproc
  {firstx firsty linetoproc
    firstx firsty movetoproc
  } def
/setchar
  { /char str charcount 1 getinterval def
    /charcount charcount 1 add def
    /charwidth char stringwidth pop def
    V cpx cpy itransform T
      dy dx atan R
      0 justy M
      PSL_font_F {
        char show}
      if
      PSL_font_FO {
        currentpoint N M V char true charpath fs U V char false charpath S U char E 0 G
      } if
      PSL_font_OF {
        currentpoint N M V char false charpath S U V char true charpath fs U char E 0 G
      } if
      0 justy neg G currentpoint transform
      /cpy exch def /cpx exch def
    U /setdist setdist charwidth add def
  } def
end
/PSL_set_label_heights
{
  /PSL_n_labels_minus_1 PSL_n_labels 1 sub def
  /PSL_heights PSL_n_labels array def
  0 1 PSL_n_labels_minus_1
  { /psl_k exch def
    /psl_label PSL_label_str psl_k get def
    PSL_label_font psl_k get cvx exec
    psl_label sH /PSL_height edef
    PSL_heights psl_k PSL_height put
  } for
} def
/PSL_curved_path_labels
{ /psl_bits exch def
  /PSL_placetext psl_bits 2 and 2 eq def
  /PSL_clippath psl_bits 4 and 4 eq def
  /PSL_strokeline false def
  /PSL_fillbox psl_bits 128 and 128 eq def
  /PSL_drawbox psl_bits 256 and 256 eq def
  /PSL_font_F  psl_bits 1536 and 0 eq def
  /PSL_font_FO psl_bits 512 and 512 eq def
  /PSL_font_OF psl_bits 1024 and 1024 eq def
  /PSL_n_paths1 PSL_n_paths 1 sub def
  /PSL_usebox PSL_fillbox PSL_drawbox or def
  PSL_clippath {clipsave N clippath} if
  /psl_k 0 def
  /psl_p 0 def
  0 1 PSL_n_paths1
  { /psl_kk exch def
    /PSL_n PSL_path_n  psl_kk get def
    /PSL_m PSL_label_n psl_kk get def
    /PSL_x PSL_path_x psl_k PSL_n getinterval def
    /PSL_y PSL_path_y psl_k PSL_n getinterval def
    /PSL_node_tmp PSL_label_node psl_p PSL_m getinterval def
    /PSL_angle_tmp PSL_label_angle psl_p PSL_m getinterval def
    /PSL_str_tmp PSL_label_str psl_p PSL_m getinterval def
    /PSL_fnt_tmp PSL_label_font psl_p PSL_m getinterval def
    PSL_curved_path_label
    /psl_k psl_k PSL_n add def
    /psl_p psl_p PSL_m add def
  } for
  PSL_clippath {PSL_eoclip} if N
} def
/PSL_curved_path_label
{
  /PSL_n1 PSL_n 1 sub def
  /PSL_m1 PSL_m 1 sub def
  PSL_CT_calcstringwidth
  PSL_CT_calclinedist
  PSL_CT_excludelabels
  PSL_CT_addcutpoints
  /PSL_nn1 PSL_nn 1 sub def
  /n 0 def
  /k 0 def
  /j 0 def
  /PSL_seg 0 def
  /PSL_xp PSL_nn array def
  /PSL_yp PSL_nn array def
  PSL_xp 0 PSL_xx 0 get put
  PSL_yp 0 PSL_yy 0 get put
  1 1 PSL_nn1
  { /i exch def
    /node_type PSL_kind i get def
    /j j 1 add def
    PSL_xp j PSL_xx i get put
    PSL_yp j PSL_yy i get put
    node_type 1 eq
    {n 0 eq
      {PSL_CT_drawline}
      {
        PSL_CT_reversepath
	      PSL_CT_textline}
      ifelse
      /j 0 def
      PSL_xp j PSL_xx i get put
      PSL_yp j PSL_yy i get put
    } if
  } for
  n 0 eq {PSL_CT_drawline} if
} def
/PSL_CT_textline
{ PSL_fnt k get cvx exec
  /PSL_height PSL_heights k get def
  PSL_placetext	{PSL_CT_placelabel} if
  PSL_clippath {PSL_CT_clippath} if
  /n 0 def /k k 1 add def
} def
/PSL_CT_calcstringwidth
{ /PSL_width_tmp PSL_m array def
  0 1 PSL_m1
  { /i exch def
    PSL_fnt_tmp i get cvx exec
    PSL_width_tmp i PSL_str_tmp i get stringwidth pop put
  } for
} def
/PSL_CT_calclinedist
{ /PSL_newx PSL_x 0 get def
  /PSL_newy PSL_y 0 get def
  /dist 0.0 def
  /PSL_dist PSL_n array def
  PSL_dist 0 0.0 put
  1 1 PSL_n1
  { /i exch def
    /PSL_oldx PSL_newx def
    /PSL_oldy PSL_newy def
    /PSL_newx PSL_x i get def
    /PSL_newy PSL_y i get def
    /dx PSL_newx PSL_oldx sub def
    /dy PSL_newy PSL_oldy sub def
    /dist dist dx dx mul dy dy mul add sqrt add def
    PSL_dist i dist put
  } for
} def
/PSL_CT_excludelabels
{ /k 0 def
  /PSL_width PSL_m array def
  /PSL_angle PSL_m array def
  /PSL_node PSL_m array def
  /PSL_str PSL_m array def
  /PSL_fnt PSL_m array def
  /lastdist PSL_dist PSL_n1 get def
  0 1 PSL_m1
  { /i exch def
    /dist PSL_dist PSL_node_tmp i get get def
    /halfwidth PSL_width_tmp i get 2 div PSL_gap_x add def
    /L_dist dist halfwidth sub def
    /R_dist dist halfwidth add def
    L_dist 0 gt R_dist lastdist lt and
    {
      PSL_width k PSL_width_tmp i get put
      PSL_node k PSL_node_tmp i get put
      PSL_angle k PSL_angle_tmp i get put
      PSL_str k PSL_str_tmp i get put
      PSL_fnt k PSL_fnt_tmp i get put
      /k k 1 add def
    } if
  } for
  /PSL_m k def
  /PSL_m1 PSL_m 1 sub def
} def
/PSL_CT_addcutpoints
{ /k 0 def
  /PSL_nc PSL_m 2 mul 1 add def
  /PSL_cuts PSL_nc array def
  /PSL_nc1 PSL_nc 1 sub def
  0 1 PSL_m1
  { /i exch def
    /dist PSL_dist PSL_node i get get def
    /halfwidth PSL_width i get 2 div PSL_gap_x add def
    PSL_cuts k dist halfwidth sub put
    /k k 1 add def
    PSL_cuts k dist halfwidth add put
    /k k 1 add def
  } for
  PSL_cuts k 100000.0 put
  /PSL_nn PSL_n PSL_m 2 mul add def
  /PSL_xx PSL_nn array def
  /PSL_yy PSL_nn array def
  /PSL_kind PSL_nn array def
  /j 0 def
  /k 0 def
  /dist 0.0 def
  0 1 PSL_n1
  { /i exch def
    /last_dist dist def
    /dist PSL_dist i get def
    k 1 PSL_nc1
    { /kk exch def
      /this_cut PSL_cuts kk get def
      dist this_cut gt
      { /ds dist last_dist sub def
	/f ds 0.0 eq {0.0} {dist this_cut sub ds div} ifelse def
	/i1 i 0 eq {0} {i 1 sub} ifelse def
	PSL_xx j PSL_x i get dup PSL_x i1 get sub f mul sub put
	PSL_yy j PSL_y i get dup PSL_y i1 get sub f mul sub put
	PSL_kind j 1 put
	/j j 1 add def
	/k k 1 add def
      } if
    } for
    dist PSL_cuts k get le
    {PSL_xx j PSL_x i get put PSL_yy j PSL_y i get put
      PSL_kind j 0 put
      /j j 1 add def
    } if
  } for
} def
/PSL_CT_reversepath
{PSL_xp j get PSL_xp 0 get lt
  {0 1 j 2 idiv
    { /left exch def
      /right j left sub def
      /tmp PSL_xp left get def
      PSL_xp left PSL_xp right get put
      PSL_xp right tmp put
      /tmp PSL_yp left get def
      PSL_yp left PSL_yp right get put
      PSL_yp right tmp put
    } for
  } if
} def
/PSL_CT_placelabel
{
  /PSL_just PSL_label_justify k get def
  /PSL_height PSL_heights k get def
  /psl_label PSL_str k get def
  /psl_depth psl_label sd def
  PSL_usebox
  {PSL_CT_clippath
    PSL_fillbox
    {V PSL_setboxrgb fill U} if
    PSL_drawbox
    {V PSL_setboxpen S U} if N
  } if
  PSL_CT_placeline psl_label PSL_gap_x PSL_just PSL_height psl_depth PSL_pathtext
} def
/PSL_CT_clippath
{
  /H PSL_height 2 div PSL_gap_y add def
  /xoff j 1 add array def
  /yoff j 1 add array def
  /angle 0 def
  0 1 j {
    /ii exch def
    /x PSL_xp ii get def
    /y PSL_yp ii get def
    ii 0 eq {
      /x1 PSL_xp 1 get def
      /y1 PSL_yp 1 get def
      /dx x1 x sub def
      /dy y1 y sub def
    }
    { /i1 ii 1 sub def
      /x1 PSL_xp i1 get def
      /y1 PSL_yp i1 get def
      /dx x x1 sub def
      /dy y y1 sub def
    } ifelse
    dx 0.0 eq dy 0.0 eq and not
    { /angle dy dx atan 90 add def} if
    /sina angle sin def
    /cosa angle cos def
    xoff ii H cosa mul put
    yoff ii H sina mul put
  } for
  PSL_xp 0 get xoff 0 get add PSL_yp 0 get yoff 0 get add M
  1 1 j {
    /ii exch def
    PSL_xp ii get xoff ii get add PSL_yp ii get yoff ii get add L
  } for
  j -1 0 {
    /ii exch def
    PSL_xp ii get xoff ii get sub PSL_yp ii get yoff ii get sub L
  } for P
} def
/PSL_CT_drawline
{
  /str 20 string def
  PSL_strokeline
  {PSL_CT_placeline S} if
  /PSL_seg PSL_seg 1 add def
  /n 1 def
} def
/PSL_CT_placeline
{PSL_xp 0 get PSL_yp 0 get M
  1 1 j { /ii exch def PSL_xp ii get PSL_yp ii get L} for
} def
/PSL_draw_path_lines
{
  /PSL_n_paths1 PSL_n_paths 1 sub def
  V
  /psl_start 0 def
  0 1 PSL_n_paths1
  { /psl_k exch def
    /PSL_n PSL_path_n psl_k get def
    /PSL_n1 PSL_n 1 sub def
    PSL_path_pen psl_k get cvx exec
    N
    PSL_path_x psl_start get PSL_path_y psl_start get M
    1 1 PSL_n1
    { /psl_i exch def
      /psl_kk psl_i psl_start add def
      PSL_path_x psl_kk get PSL_path_y psl_kk get L
    } for
    /psl_xclose PSL_path_x psl_kk get PSL_path_x psl_start get sub def
    /psl_yclose PSL_path_y psl_kk get PSL_path_y psl_start get sub def
    psl_xclose 0 eq psl_yclose 0 eq and { P } if
    S
    /psl_start psl_start PSL_n add def
  } for
  U
} def
/PSL_straight_path_labels
{
  /psl_bits exch def
  /PSL_placetext psl_bits 2 and 2 eq def
  /PSL_rounded psl_bits 32 and 32 eq def
  /PSL_fillbox psl_bits 128 and 128 eq def
  /PSL_drawbox psl_bits 256 and 256 eq def
  /PSL_font_F  psl_bits 1536 and 0 eq def
  /PSL_font_FO psl_bits 512 and 512 eq def
  /PSL_font_OF psl_bits 1024 and 1024 eq def
  /PSL_n_labels_minus_1 PSL_n_labels 1 sub def
  /PSL_usebox PSL_fillbox PSL_drawbox or def
  0 1 PSL_n_labels_minus_1
  { /psl_k exch def
    PSL_ST_prepare_text
    PSL_usebox
    {  PSL_rounded
        {PSL_ST_textbox_round}
        {PSL_ST_textbox_rect}
      ifelse
      PSL_fillbox {V PSL_setboxrgb fill U} if
      PSL_drawbox {V PSL_setboxpen S U} if
      N
    } if
    PSL_font_F {
      PSL_placetext {PSL_ST_place_label} if
    } if
    PSL_font_FO {
      PSL_placetext {PSL_ST_place_label_FO} if
    } if
    PSL_font_OF {
      PSL_placetext {PSL_ST_place_label_OF} if
    } if
  } for
} def
/PSL_straight_path_clip
{
  /psl_bits exch def
  /PSL_rounded psl_bits 32 and 32 eq def
  /PSL_n_labels_minus_1 PSL_n_labels 1 sub def
  N clipsave clippath
  0 1 PSL_n_labels_minus_1
  { /psl_k exch def
    PSL_ST_prepare_text
    PSL_rounded
      {PSL_ST_textbox_round}
      {PSL_ST_textbox_rect}
    ifelse
  } for
  PSL_eoclip N
} def
/PSL_ST_prepare_text
{
  /psl_xp PSL_txt_x psl_k get def
  /psl_yp PSL_txt_y psl_k get def
  /psl_label PSL_label_str psl_k get def
  PSL_label_font psl_k get cvx exec
  /PSL_height PSL_heights psl_k get def
  /psl_boxH PSL_height PSL_gap_y 2 mul add def
  /PSL_just PSL_label_justify psl_k get def
  /PSL_justx PSL_just 4 mod 1 sub 2 div neg def
  /PSL_justy PSL_just 4 idiv 2 div neg def
  /psl_SW psl_label stringwidth pop def
  /psl_boxW psl_SW PSL_gap_x 2 mul add def
  /psl_x0 psl_SW PSL_justx mul def
  /psl_y0 PSL_justy PSL_height mul def
  /psl_angle PSL_label_angle psl_k get def
} def
/PSL_ST_textbox_rect
{
  psl_xp psl_yp T psl_angle R psl_x0 psl_y0 T
  PSL_gap_x neg PSL_gap_y neg M
  0 psl_boxH D psl_boxW 0 D 0 psl_boxH neg D P
  psl_x0 neg psl_y0 neg T psl_angle neg R psl_xp neg psl_yp neg T
} def
/PSL_ST_textbox_round
{
  /psl_BoxR PSL_gap_x PSL_gap_y lt {PSL_gap_x} {PSL_gap_y} ifelse def
  /psl_xd PSL_gap_x psl_BoxR sub def
  /psl_yd PSL_gap_y psl_BoxR sub def
  /psl_xL PSL_gap_x neg def
  /psl_yB PSL_gap_y neg def
  /psl_yT psl_boxH psl_yB add def
  /psl_H2 PSL_height psl_yd 2 mul add def
  /psl_W2 psl_SW psl_xd 2 mul add def
  /psl_xR psl_xL psl_boxW add def
  /psl_x0 psl_SW PSL_justx mul def
  psl_xp psl_yp T psl_angle R psl_x0 psl_y0 T
  psl_xL psl_yd M
  psl_xL psl_yT psl_xR psl_yT psl_BoxR arct psl_W2 0 D
  psl_xR psl_yT psl_xR psl_yB psl_BoxR arct 0 psl_H2 neg D
  psl_xR psl_yB psl_xL psl_yB psl_BoxR arct psl_W2 neg 0 D
  psl_xL psl_yB psl_xL psl_yd psl_BoxR arct P
  psl_x0 neg psl_y0 neg T psl_angle neg R psl_xp neg psl_yp neg T
} def
/PSL_ST_place_label
{
    V psl_xp psl_yp T psl_angle R
    psl_SW PSL_justx mul psl_y0 M
    psl_label dup sd neg 0 exch G show
    U
} def
/PSL_ST_place_label_FO
{
    V psl_xp psl_yp T psl_angle R
    psl_SW PSL_justx mul psl_y0 M
    psl_label dup sd neg 0 exch G false charpath V fs U S N
    U
} def
/PSL_ST_place_label_OF
{
    V psl_xp psl_yp T psl_angle R
    psl_SW PSL_justx mul psl_y0 M
    psl_label dup sd neg 0 exch G false charpath V S U fs N
    U
} def
/PSL_nclip 0 def
/PSL_clip {clip /PSL_nclip PSL_nclip 1 add def} def
/PSL_eoclip {eoclip /PSL_nclip PSL_nclip 1 add def} def
/PSL_cliprestore {cliprestore /PSL_nclip PSL_nclip 1 sub def} def
%%EndProlog
%%BeginSetup
/PSLevel /languagelevel where {pop languagelevel} {1} ifelse def
%%EndSetup
%%Page: 1 1
%%BeginPageSetup
V 0.06 0.06 scale
%%EndPageSetup
/PSL_page_xsize 9917 def
/PSL_page_ysize 14033 def
/PSL_plot_completion {} def
/PSL_movie_label_completion {} def
/PSL_movie_prog_indicator_completion {} def
%PSL_End_Header
gsave
0 A
FQ
O0
1200 1200 TM
% PostScript produced by:
%@GMT: gmt plot -JX15c/3.5c data.d -Wthick -Bx1 -By50 -BWSne -R-0.2/10/776/964
%@PROJ: xy -0.20000000 10.00000000 776.00000000 964.00000000 -0.200 10.000 776.000 964.000 +xy
%%BeginObject PSL_Layer_1
0 setlinecap
0 setlinejoin
3.32550952342 setmiterlimit
0 A
V
17 W
clipsave
0 0 M
7087 0 D
0 1654 D
-7087 0 D
P
PSL_clip N
139 1631 M
69 -43 D
139 -81 D
139 -74 D
139 -67 D
209 -92 D
139 -61 D
139 -67 D
69 -39 D
70 -43 D
69 -46 D
208 -144 D
70 -44 D
69 -40 D
70 -37 D
69 -33 D
70 -29 D
139 -49 D
139 -41 D
208 -56 D
209 -59 D
208 -64 D
278 -93 D
139 -47 D
139 -39 D
69 -16 D
139 -26 D
139 -20 D
139 -17 D
139 -21 D
70 -14 D
139 -34 D
139 -35 D
69 -15 D
70 -11 D
69 -8 D
69 -2 D
70 3 D
69 8 D
70 13 D
69 17 D
139 43 D
70 23 D
278 101 D
69 24 D
70 22 D
69 19 D
139 32 D
209 38 D
208 45 D
208 53 D
209 58 D
139 42 D
139 45 D
208 72 D
S
PSL_cliprestore
U
22 W
0 A
/PSL_slant_y 0 def /PSL_slant_x 0 def
2 setlinecap
N 0 1654 M 0 -1654 D S
/PSL_A0_y 58 def
/PSL_A1_y 0 def
7 W
N 0 211 M -58 0 D S
N 0 651 M -58 0 D S
N 0 1091 M -58 0 D S
N 0 1530 M -58 0 D S
/MM {neg exch M} def
/PSL_AH0 0
PSL_font_encode 0 get 0 eq {ISOLatin1+_Encoding /Helvetica /Helvetica PSL_reencode PSL_font_encode 0 1 put} if
144 F0
(800) sw mx
(850) sw mx
(900) sw mx
(950) sw mx
def
/PSL_A0_y PSL_A0_y 43 add def
211 PSL_A0_y MM
(800) mr Z
651 PSL_A0_y MM
(850) mr Z
1091 PSL_A0_y MM
(900) mr Z
1530 PSL_A0_y MM
(950) mr Z
/PSL_A0_y PSL_A0_y PSL_AH0 add def
/PSL_LH 0 def /PSL_L_y PSL_A0_y PSL_A1_y mx def
7087 0 T
22 W
N 0 1654 M 0 -1654 D S
/PSL_A0_y 58 def
/PSL_A1_y 0 def
7 W
N 0 211 M 58 0 D S
N 0 651 M 58 0 D S
N 0 1091 M 58 0 D S
N 0 1530 M 58 0 D S
/PSL_LH 0 def /PSL_L_y PSL_A0_y PSL_A1_y mx def
-7087 0 T
22 W
N 0 0 M 7087 0 D S
/PSL_A0_y 58 def
/PSL_A1_y 0 def
7 W
N 139 0 M 0 -58 D S
N 834 0 M 0 -58 D S
N 1528 0 M 0 -58 D S
N 2223 0 M 0 -58 D S
N 2918 0 M 0 -58 D S
N 3613 0 M 0 -58 D S
N 4308 0 M 0 -58 D S
N 5002 0 M 0 -58 D S
N 5697 0 M 0 -58 D S
N 6392 0 M 0 -58 D S
N 7087 0 M 0 -58 D S
/MM {neg M} def
/PSL_AH0 0
(0) sh mx
(1) sh mx
(2) sh mx
(3) sh mx
(4) sh mx
(5) sh mx
(6) sh mx
(7) sh mx
(8) sh mx
(9) sh mx
(10) sh mx
def
/PSL_A0_y PSL_A0_y 43 add PSL_AH0 add def
139 PSL_A0_y MM
(0) bc Z
834 PSL_A0_y MM
(1) bc Z
1528 PSL_A0_y MM
(2) bc Z
2223 PSL_A0_y MM
(3) bc Z
2918 PSL_A0_y MM
(4) bc Z
3613 PSL_A0_y MM
(5) bc Z
4308 PSL_A0_y MM
(6) bc Z
5002 PSL_A0_y MM
(7) bc Z
5697 PSL_A0_y MM
(8) bc Z
6392 PSL_A0_y MM
(9) bc Z
7087 PSL_A0_y MM
(10) bc Z
/PSL_LH 0 def /PSL_L_y PSL_A0_y PSL_A1_y mx def
0 1654 T
22 W
N 0 0 M 7087 0 D S
/PSL_A0_y 58 def
/PSL_A1_y 0 def
7 W
N 139 0 M 0 58 D S
N 834 0 M 0 58 D S
N 1528 0 M 0 58 D S
N 2223 0 M 0 58 D S
N 2918 0 M 0 58 D S
N 3613 0 M 0 58 D S
N 4308 0 M 0 58 D S
N 5002 0 M 0 58 D S
N 5697 0 M 0 58 D S
N 6392 0 M 0 58 D S
N 7087 0 M 0 58 D S
/PSL_LH 0 def /PSL_L_y PSL_A0_y PSL_A1_y mx def
0 -1654 T
0 setlinecap
%%EndObject
0 A
FQ
O0
0 0 TM
% PostScript produced by:
%@GMT: gmt plot trend.d -Wthinner,- -R-0.2/10/776/964 -JX15c/3.5c
%@PROJ: xy -0.20000000 10.00000000 776.00000000 964.00000000 -0.200 10.000 776.000 964.000 +xy
%%BeginObject PSL_Layer_2
0 setlinecap
0 setlinejoin
3.32550952342 setmiterlimit
V
8 W
[67 33] 0 B
clipsave
0 0 M
7087 0 D
0 1654 D
-7087 0 D
P
PSL_clip N
139 1443 M
208 -64 D
209 -71 D
278 -105 D
347 -137 D
834 -331 D
347 -134 D
209 -77 D
208 -74 D
278 -93 D
139 -43 D
208 -60 D
139 -37 D
139 -34 D
209 -45 D
208 -37 D
139 -20 D
139 -17 D
139 -12 D
69 -5 D
209 -7 D
139 2 D
139 6 D
139 11 D
139 17 D
139 22 D
139 28 D
139 34 D
139 40 D
138 47 D
70 27 D
139 62 D
139 70 D
139 75 D
208 119 D
209 125 D
69 43 D
S
PSL_cliprestore
U
[] 0 B
%%EndObject
0 A
FQ
O0
0 2126 TM
% PostScript produced by:
%@GMT: gmt plot -R0/5.90551/0/5.90551 -Jx1i -T -Xr0i -Yr1.77165i --GMT_HISTORY=readonly
%@PROJ: xy 0.00000000 5.90551000 0.00000000 5.90551000 0.000 5.906 0.000 5.906 +xy
%%BeginObject PSL_Layer_3
0 setlinecap
0 setlinejoin
3.32550952342 setmiterlimit
%%EndObject
PSL_plot_completion /PSL_plot_completion {} def
0 A
FQ
O0
0 3738 TM
% PostScript produced by:
%@GMT: gmt plot /Users/pwessel/.gmt/cache/Table_5_11.txt -Sc0.12c -Gblack -BWenS -Bxaf -Byaf -Xa0i -Ya3.1154i -R0/7/0/7 -JX15c/15c
%@PROJ: xy 0.00000000 7.00000000 0.00000000 7.00000000 0.000 7.000 0.000 7.000 +xy
%%BeginObject PSL_Layer_4
0 setlinecap
0 setlinejoin
3.32550952342 setmiterlimit
0 A
clipsave
0 0 M
3348 0 D
0 3348 D
-3348 0 D
P
PSL_clip N
V
4 W
{0 A} FS
O0
28 143 2918 Sc
28 670 2965 Sc
28 1148 2918 Sc
28 1722 2965 Sc
28 2726 2965 Sc
28 765 2487 Sc
28 1387 2439 Sc
28 1626 2535 Sc
28 1626 2726 Sc
28 2296 2678 Sc
28 2535 2392 Sc
28 2965 2487 Sc
28 96 2057 Sc
28 430 2009 Sc
28 1100 2296 Sc
28 1196 2152 Sc
28 1435 2152 Sc
28 1674 2152 Sc
28 1961 2200 Sc
28 2344 2009 Sc
28 3013 2057 Sc
28 430 1531 Sc
28 813 1818 Sc
28 1148 1818 Sc
28 1770 1674 Sc
28 2152 1531 Sc
28 2487 1531 Sc
28 3013 1626 Sc
28 143 1148 Sc
28 957 1291 Sc
28 1818 1100 Sc
28 3013 1052 Sc
28 287 813 Sc
28 717 861 Sc
28 1004 861 Sc
28 1004 526 Sc
28 1483 526 Sc
28 2152 861 Sc
28 2631 813 Sc
28 2726 478 Sc
28 2965 478 Sc
28 191 239 Sc
28 670 287 Sc
28 670 48 Sc
28 1004 335 Sc
28 1100 143 Sc
28 1483 0 Sc
28 1961 383 Sc
28 2583 191 Sc
28 2870 48 Sc
28 2726 1435 Sc
28 1722 2870 Sc
U
PSL_cliprestore
24 W
0 A
/PSL_slant_y 0 def /PSL_slant_x 0 def
2 setlinecap
N 0 3348 M 0 -3348 D S
/PSL_A0_y 64 def
/PSL_A1_y 0 def
8 W
N 0 0 M -64 0 D S
N 0 957 M -64 0 D S
N 0 1913 M -64 0 D S
N 0 2870 M -64 0 D S
/MM {neg exch M} def
/PSL_AH0 0
PSL_font_encode 0 get 0 eq {ISOLatin1+_Encoding /Helvetica /Helvetica PSL_reencode PSL_font_encode 0 1 put} if
161 F0
(0) sw mx
(2) sw mx
(4) sw mx
(6) sw mx
def
/PSL_A0_y PSL_A0_y 48 add def
0 PSL_A0_y MM
(0) mr Z
957 PSL_A0_y MM
(2) mr Z
1913 PSL_A0_y MM
(4) mr Z
2870 PSL_A0_y MM
(6) mr Z
/PSL_A0_y PSL_A0_y PSL_AH0 add def
N 0 478 M -32 0 D S
N 0 1435 M -32 0 D S
N 0 2392 M -32 0 D S
N 0 3348 M -32 0 D S
/PSL_LH 0 def /PSL_L_y PSL_A0_y PSL_A1_y mx def
3348 0 T
24 W
N 0 3348 M 0 -3348 D S
/PSL_A0_y 64 def
/PSL_A1_y 0 def
8 W
N 0 0 M 64 0 D S
N 0 957 M 64 0 D S
N 0 1913 M 64 0 D S
N 0 2870 M 64 0 D S
N 0 478 M 32 0 D S
N 0 1435 M 32 0 D S
N 0 2392 M 32 0 D S
N 0 3348 M 32 0 D S
/PSL_LH 0 def /PSL_L_y PSL_A0_y PSL_A1_y mx def
-3348 0 T
24 W
N 0 0 M 3348 0 D S
/PSL_A0_y 64 def
/PSL_A1_y 0 def
8 W
N 0 0 M 0 -64 D S
N 957 0 M 0 -64 D S
N 1913 0 M 0 -64 D S
N 2870 0 M 0 -64 D S
/MM {neg M} def
/PSL_AH0 0
(0) sh mx
(2) sh mx
(4) sh mx
(6) sh mx
def
/PSL_A0_y PSL_A0_y 48 add PSL_AH0 add def
0 PSL_A0_y MM
(0) bc Z
957 PSL_A0_y MM
(2) bc Z
1913 PSL_A0_y MM
(4) bc Z
2870 PSL_A0_y MM
(6) bc Z
N 478 0 M 0 -32 D S
N 1435 0 M 0 -32 D S
N 2392 0 M 0 -32 D S
N 3348 0 M 0 -32 D S
/PSL_LH 0 def /PSL_L_y PSL_A0_y PSL_A1_y mx def
0 3348 T
24 W
N 0 0 M 3348 0 D S
/PSL_A0_y 64 def
/PSL_A1_y 0 def
8 W
N 0 0 M 0 64 D S
N 957 0 M 0 64 D S
N 1913 0 M 0 64 D S
N 2870 0 M 0 64 D S
N 478 0 M 0 32 D S
N 1435 0 M 0 32 D S
N 2392 0 M 0 32 D S
N 3348 0 M 0 32 D S
/PSL_LH 0 def /PSL_L_y PSL_A0_y PSL_A1_y mx def
0 -3348 T
0 setlinecap
%%EndObject
0 -3738 TM
0 A
FQ
O0
0 3738 TM
% PostScript produced by:
%@GMT: gmt text /Users/pwessel/.gmt/cache/Table_5_11.txt -D3p/0 -F+f6p+jLM -N -Xa0i -Ya3.1154i -R0/7/0/7 -JX15c/15c
%@PROJ: xy 0.00000000 7.00000000 0.00000000 7.00000000 0.000 7.000 0.000 7.000 +xy
%%BeginObject PSL_Layer_5
0 setlinecap
0 setlinejoin
3.32550952342 setmiterlimit
193 2918 M PSL_font_encode 0 get 0 eq {ISOLatin1+_Encoding /Helvetica /Helvetica PSL_reencode PSL_font_encode 0 1 put} if
100 F0
(870) ml Z
720 2965 M (793) ml Z
1198 2918 M (755) ml Z
1772 2965 M (690) ml Z
2776 2965 M (800) ml Z
815 2487 M (800) ml Z
1437 2439 M (730) ml Z
1676 2535 M (728) ml Z
1676 2726 M (710) ml Z
2346 2678 M (780) ml Z
2585 2392 M (804) ml Z
3015 2487 M (855) ml Z
146 2057 M (830) ml Z
480 2009 M (813) ml Z
1150 2296 M (762) ml Z
1246 2152 M (765) ml Z
1485 2152 M (740) ml Z
1724 2152 M (765) ml Z
2011 2200 M (760) ml Z
2394 2009 M (790) ml Z
3063 2057 M (820) ml Z
480 1531 M (855) ml Z
863 1818 M (812) ml Z
1198 1818 M (773) ml Z
1820 1674 M (812) ml Z
2202 1531 M (827) ml Z
2537 1531 M (805) ml Z
3063 1626 M (840) ml Z
193 1148 M (890) ml Z
1007 1291 M (820) ml Z
1868 1100 M (873) ml Z
3063 1052 M (875) ml Z
337 813 M (873) ml Z
767 861 M (865) ml Z
1054 861 M (841) ml Z
1054 526 M (862) ml Z
1533 526 M (908) ml Z
2202 861 M (855) ml Z
2681 813 M (850) ml Z
2776 478 M (882) ml Z
3015 478 M (910) ml Z
241 239 M (940) ml Z
720 287 M (915) ml Z
720 48 M (890) ml Z
1054 335 M (880) ml Z
1150 143 M (870) ml Z
1533 0 M (880) ml Z
2011 383 M (960) ml Z
2633 191 M (890) ml Z
2920 48 M (860) ml Z
2776 1435 M (830) ml Z
1772 2870 M (705) ml Z
%%EndObject
0 -3738 TM
PSL_plot_completion /PSL_plot_completion {} def
0 A
FQ
O0
3738 3738 TM
% PostScript produced by:
%@GMT: gmt plot mean.xyz -Ss0.12c -Gblack -BWenS -Bxaf -Byaf -Xa3.1154i -Ya3.1154i -R0/7/0/7 -JX15c/15c
%@PROJ: xy 0.00000000 7.00000000 0.00000000 7.00000000 0.000 7.000 0.000 7.000 +xy
%%BeginObject PSL_Layer_4
0 setlinecap
0 setlinejoin
3.32550952342 setmiterlimit
0 A
clipsave
0 0 M
3348 0 D
0 3348 D
-3348 0 D
P
PSL_clip N
V
4 W
{0 A} FS
O0
28 143 2918 Ss
28 670 2965 Ss
28 1148 2918 Ss
28 1626 2726 Ss
28 1722 2918 Ss
28 2296 2678 Ss
28 2726 2965 Ss
28 933 2392 Ss
28 1507 2487 Ss
28 1961 2200 Ss
28 2535 2392 Ss
28 2965 2487 Ss
28 96 2057 Ss
28 430 2009 Ss
28 1052 1929 Ss
28 1435 2152 Ss
28 1722 1913 Ss
28 2344 2009 Ss
28 3013 2057 Ss
28 430 1531 Ss
28 957 1291 Ss
28 2152 1531 Ss
28 2487 1531 Ss
28 2870 1531 Ss
28 143 1148 Ss
28 287 813 Ss
28 861 861 Ss
28 1985 981 Ss
28 2822 933 Ss
28 670 287 Ss
28 1004 430 Ss
28 1483 526 Ss
28 1961 383 Ss
28 2846 478 Ss
28 191 239 Ss
28 670 48 Ss
28 1100 143 Ss
28 1483 0 Ss
28 2583 191 Ss
28 2870 48 Ss
U
PSL_cliprestore
24 W
0 A
/PSL_slant_y 0 def /PSL_slant_x 0 def
2 setlinecap
N 0 3348 M 0 -3348 D S
/PSL_A0_y 64 def
/PSL_A1_y 0 def
8 W
N 0 0 M -64 0 D S
N 0 957 M -64 0 D S
N 0 1913 M -64 0 D S
N 0 2870 M -64 0 D S
/MM {neg exch M} def
/PSL_AH0 0
PSL_font_encode 0 get 0 eq {ISOLatin1+_Encoding /Helvetica /Helvetica PSL_reencode PSL_font_encode 0 1 put} if
161 F0
(0) sw mx
(2) sw mx
(4) sw mx
(6) sw mx
def
/PSL_A0_y PSL_A0_y 48 add def
0 PSL_A0_y MM
(0) mr Z
957 PSL_A0_y MM
(2) mr Z
1913 PSL_A0_y MM
(4) mr Z
2870 PSL_A0_y MM
(6) mr Z
/PSL_A0_y PSL_A0_y PSL_AH0 add def
N 0 478 M -32 0 D S
N 0 1435 M -32 0 D S
N 0 2392 M -32 0 D S
N 0 3348 M -32 0 D S
/PSL_LH 0 def /PSL_L_y PSL_A0_y PSL_A1_y mx def
3348 0 T
24 W
N 0 3348 M 0 -3348 D S
/PSL_A0_y 64 def
/PSL_A1_y 0 def
8 W
N 0 0 M 64 0 D S
N 0 957 M 64 0 D S
N 0 1913 M 64 0 D S
N 0 2870 M 64 0 D S
N 0 478 M 32 0 D S
N 0 1435 M 32 0 D S
N 0 2392 M 32 0 D S
N 0 3348 M 32 0 D S
/PSL_LH 0 def /PSL_L_y PSL_A0_y PSL_A1_y mx def
-3348 0 T
24 W
N 0 0 M 3348 0 D S
/PSL_A0_y 64 def
/PSL_A1_y 0 def
8 W
N 0 0 M 0 -64 D S
N 957 0 M 0 -64 D S
N 1913 0 M 0 -64 D S
N 2870 0 M 0 -64 D S
/MM {neg M} def
/PSL_AH0 0
(0) sh mx
(2) sh mx
(4) sh mx
(6) sh mx
def
/PSL_A0_y PSL_A0_y 48 add PSL_AH0 add def
0 PSL_A0_y MM
(0) bc Z
957 PSL_A0_y MM
(2) bc Z
1913 PSL_A0_y MM
(4) bc Z
2870 PSL_A0_y MM
(6) bc Z
N 478 0 M 0 -32 D S
N 1435 0 M 0 -32 D S
N 2392 0 M 0 -32 D S
N 3348 0 M 0 -32 D S
/PSL_LH 0 def /PSL_L_y PSL_A0_y PSL_A1_y mx def
0 3348 T
24 W
N 0 0 M 3348 0 D S
/PSL_A0_y 64 def
/PSL_A1_y 0 def
8 W
N 0 0 M 0 64 D S
N 957 0 M 0 64 D S
N 1913 0 M 0 64 D S
N 2870 0 M 0 64 D S
N 478 0 M 0 32 D S
N 1435 0 M 0 32 D S
N 2392 0 M 0 32 D S
N 3348 0 M 0 32 D S
/PSL_LH 0 def /PSL_L_y PSL_A0_y PSL_A1_y mx def
0 -3348 T
0 setlinecap
%%EndObject
-3738 -3738 TM
0 A
FQ
O0
3738 3738 TM
% PostScript produced by:
%@GMT: gmt text -D11p/0 -F+f6p+jLM+z%.1f -Gwhite -W -C1p -N mean.xyz -Xa3.1154i -Ya3.1154i -R0/7/0/7 -JX15c/15c
%@PROJ: xy 0.00000000 7.00000000 0.00000000 7.00000000 0.000 7.000 0.000 7.000 +xy
%%BeginObject PSL_Layer_5
0 setlinecap
0 setlinejoin
3.32550952342 setmiterlimit
4 W
{1 A} FS
O1
PSL_font_encode 0 get 0 eq {ISOLatin1+_Encoding /Helvetica /Helvetica PSL_reencode PSL_font_encode 0 1 put} if
100 F0
V
(870.0) V MU 0 0 M E /PSL_dim_w edef FP pathbbox N /PSL_dim_h edef /PSL_dim_x1 edef /PSL_dim_d edef /PSL_dim_x0 edef U
/PSL_dx 17 def
/PSL_dy 17 def
327 2918 T 0 PSL_dim_h -2 div T
PSL_dim_h PSL_dim_d sub PSL_dy 2 mul add PSL_dim_x1 PSL_dim_x0 sub PSL_dx 2 mul add PSL_dim_x0 PSL_dx sub PSL_dim_d PSL_dy sub Sb
U
327 2918 M (870.0) ml Z
V
(793.0) V MU 0 0 M E /PSL_dim_w edef FP pathbbox N /PSL_dim_h edef /PSL_dim_x1 edef /PSL_dim_d edef /PSL_dim_x0 edef U
/PSL_dx 17 def
/PSL_dy 17 def
853 2965 T 0 PSL_dim_h -2 div T
PSL_dim_h PSL_dim_d sub PSL_dy 2 mul add PSL_dim_x1 PSL_dim_x0 sub PSL_dx 2 mul add PSL_dim_x0 PSL_dx sub PSL_dim_d PSL_dy sub Sb
U
853 2965 M (793.0) ml Z
V
(755.0) V MU 0 0 M E /PSL_dim_w edef FP pathbbox N /PSL_dim_h edef /PSL_dim_x1 edef /PSL_dim_d edef /PSL_dim_x0 edef U
/PSL_dx 17 def
/PSL_dy 17 def
1331 2918 T 0 PSL_dim_h -2 div T
PSL_dim_h PSL_dim_d sub PSL_dy 2 mul add PSL_dim_x1 PSL_dim_x0 sub PSL_dx 2 mul add PSL_dim_x0 PSL_dx sub PSL_dim_d PSL_dy sub Sb
U
1331 2918 M (755.0) ml Z
V
(710.0) V MU 0 0 M E /PSL_dim_w edef FP pathbbox N /PSL_dim_h edef /PSL_dim_x1 edef /PSL_dim_d edef /PSL_dim_x0 edef U
/PSL_dx 17 def
/PSL_dy 17 def
1810 2726 T 0 PSL_dim_h -2 div T
PSL_dim_h PSL_dim_d sub PSL_dy 2 mul add PSL_dim_x1 PSL_dim_x0 sub PSL_dx 2 mul add PSL_dim_x0 PSL_dx sub PSL_dim_d PSL_dy sub Sb
U
1810 2726 M (710.0) ml Z
V
(697.5) V MU 0 0 M E /PSL_dim_w edef FP pathbbox N /PSL_dim_h edef /PSL_dim_x1 edef /PSL_dim_d edef /PSL_dim_x0 edef U
/PSL_dx 17 def
/PSL_dy 17 def
1905 2918 T 0 PSL_dim_h -2 div T
PSL_dim_h PSL_dim_d sub PSL_dy 2 mul add PSL_dim_x1 PSL_dim_x0 sub PSL_dx 2 mul add PSL_dim_x0 PSL_dx sub PSL_dim_d PSL_dy sub Sb
U
1905 2918 M (697.5) ml Z
V
(780.0) V MU 0 0 M E /PSL_dim_w edef FP pathbbox N /PSL_dim_h edef /PSL_dim_x1 edef /PSL_dim_d edef /PSL_dim_x0 edef U
/PSL_dx 17 def
/PSL_dy 17 def
2479 2678 T 0 PSL_dim_h -2 div T
PSL_dim_h PSL_dim_d sub PSL_dy 2 mul add PSL_dim_x1 PSL_dim_x0 sub PSL_dx 2 mul add PSL_dim_x0 PSL_dx sub PSL_dim_d PSL_dy sub Sb
U
2479 2678 M (780.0) ml Z
V
(800.0) V MU 0 0 M E /PSL_dim_w edef FP pathbbox N /PSL_dim_h edef /PSL_dim_x1 edef /PSL_dim_d edef /PSL_dim_x0 edef U
/PSL_dx 17 def
/PSL_dy 17 def
2910 2965 T 0 PSL_dim_h -2 div T
PSL_dim_h PSL_dim_d sub PSL_dy 2 mul add PSL_dim_x1 PSL_dim_x0 sub PSL_dx 2 mul add PSL_dim_x0 PSL_dx sub PSL_dim_d PSL_dy sub Sb
U
2910 2965 M (800.0) ml Z
V
(781.0) V MU 0 0 M E /PSL_dim_w edef FP pathbbox N /PSL_dim_h edef /PSL_dim_x1 edef /PSL_dim_d edef /PSL_dim_x0 edef U
/PSL_dx 17 def
/PSL_dy 17 def
1116 2392 T 0 PSL_dim_h -2 div T
PSL_dim_h PSL_dim_d sub PSL_dy 2 mul add PSL_dim_x1 PSL_dim_x0 sub PSL_dx 2 mul add PSL_dim_x0 PSL_dx sub PSL_dim_d PSL_dy sub Sb
U
1116 2392 M (781.0) ml Z
V
(729.0) V MU 0 0 M E /PSL_dim_w edef FP pathbbox N /PSL_dim_h edef /PSL_dim_x1 edef /PSL_dim_d edef /PSL_dim_x0 edef U
/PSL_dx 17 def
/PSL_dy 17 def
1690 2487 T 0 PSL_dim_h -2 div T
PSL_dim_h PSL_dim_d sub PSL_dy 2 mul add PSL_dim_x1 PSL_dim_x0 sub PSL_dx 2 mul add PSL_dim_x0 PSL_dx sub PSL_dim_d PSL_dy sub Sb
U
1690 2487 M (729.0) ml Z
V
(760.0) V MU 0 0 M E /PSL_dim_w edef FP pathbbox N /PSL_dim_h edef /PSL_dim_x1 edef /PSL_dim_d edef /PSL_dim_x0 edef U
/PSL_dx 17 def
/PSL_dy 17 def
2144 2200 T 0 PSL_dim_h -2 div T
PSL_dim_h PSL_dim_d sub PSL_dy 2 mul add PSL_dim_x1 PSL_dim_x0 sub PSL_dx 2 mul add PSL_dim_x0 PSL_dx sub PSL_dim_d PSL_dy sub Sb
U
2144 2200 M (760.0) ml Z
V
(804.0) V MU 0 0 M E /PSL_dim_w edef FP pathbbox N /PSL_dim_h edef /PSL_dim_x1 edef /PSL_dim_d edef /PSL_dim_x0 edef U
/PSL_dx 17 def
/PSL_dy 17 def
2718 2392 T 0 PSL_dim_h -2 div T
PSL_dim_h PSL_dim_d sub PSL_dy 2 mul add PSL_dim_x1 PSL_dim_x0 sub PSL_dx 2 mul add PSL_dim_x0 PSL_dx sub PSL_dim_d PSL_dy sub Sb
U
2718 2392 M (804.0) ml Z
V
(855.0) V MU 0 0 M E /PSL_dim_w edef FP pathbbox N /PSL_dim_h edef /PSL_dim_x1 edef /PSL_dim_d edef /PSL_dim_x0 edef U
/PSL_dx 17 def
/PSL_dy 17 def
3149 2487 T 0 PSL_dim_h -2 div T
PSL_dim_h PSL_dim_d sub PSL_dy 2 mul add PSL_dim_x1 PSL_dim_x0 sub PSL_dx 2 mul add PSL_dim_x0 PSL_dx sub PSL_dim_d PSL_dy sub Sb
U
3149 2487 M (855.0) ml Z
V
(830.0) V MU 0 0 M E /PSL_dim_w edef FP pathbbox N /PSL_dim_h edef /PSL_dim_x1 edef /PSL_dim_d edef /PSL_dim_x0 edef U
/PSL_dx 17 def
/PSL_dy 17 def
279 2057 T 0 PSL_dim_h -2 div T
PSL_dim_h PSL_dim_d sub PSL_dy 2 mul add PSL_dim_x1 PSL_dim_x0 sub PSL_dx 2 mul add PSL_dim_x0 PSL_dx sub PSL_dim_d PSL_dy sub Sb
U
279 2057 M (830.0) ml Z
V
(813.0) V MU 0 0 M E /PSL_dim_w edef FP pathbbox N /PSL_dim_h edef /PSL_dim_x1 edef /PSL_dim_d edef /PSL_dim_x0 edef U
/PSL_dx 17 def
/PSL_dy 17 def
614 2009 T 0 PSL_dim_h -2 div T
PSL_dim_h PSL_dim_d sub PSL_dy 2 mul add PSL_dim_x1 PSL_dim_x0 sub PSL_dx 2 mul add PSL_dim_x0 PSL_dx sub PSL_dim_d PSL_dy sub Sb
U
614 2009 M (813.0) ml Z
V
(783.3) V MU 0 0 M E /PSL_dim_w edef FP pathbbox N /PSL_dim_h edef /PSL_dim_x1 edef /PSL_dim_d edef /PSL_dim_x0 edef U
/PSL_dx 17 def
/PSL_dy 17 def
1236 1929 T 0 PSL_dim_h -2 div T
PSL_dim_h PSL_dim_d sub PSL_dy 2 mul add PSL_dim_x1 PSL_dim_x0 sub PSL_dx 2 mul add PSL_dim_x0 PSL_dx sub PSL_dim_d PSL_dy sub Sb
U
1236 1929 M (783.3) ml Z
V
(740.0) V MU 0 0 M E /PSL_dim_w edef FP pathbbox N /PSL_dim_h edef /PSL_dim_x1 edef /PSL_dim_d edef /PSL_dim_x0 edef U
/PSL_dx 17 def
/PSL_dy 17 def
1618 2152 T 0 PSL_dim_h -2 div T
PSL_dim_h PSL_dim_d sub PSL_dy 2 mul add PSL_dim_x1 PSL_dim_x0 sub PSL_dx 2 mul add PSL_dim_x0 PSL_dx sub PSL_dim_d PSL_dy sub Sb
U
1618 2152 M (740.0) ml Z
V
(788.5) V MU 0 0 M E /PSL_dim_w edef FP pathbbox N /PSL_dim_h edef /PSL_dim_x1 edef /PSL_dim_d edef /PSL_dim_x0 edef U
/PSL_dx 17 def
/PSL_dy 17 def
1905 1913 T 0 PSL_dim_h -2 div T
PSL_dim_h PSL_dim_d sub PSL_dy 2 mul add PSL_dim_x1 PSL_dim_x0 sub PSL_dx 2 mul add PSL_dim_x0 PSL_dx sub PSL_dim_d PSL_dy sub Sb
U
1905 1913 M (788.5) ml Z
V
(790.0) V MU 0 0 M E /PSL_dim_w edef FP pathbbox N /PSL_dim_h edef /PSL_dim_x1 edef /PSL_dim_d edef /PSL_dim_x0 edef U
/PSL_dx 17 def
/PSL_dy 17 def
2527 2009 T 0 PSL_dim_h -2 div T
PSL_dim_h PSL_dim_d sub PSL_dy 2 mul add PSL_dim_x1 PSL_dim_x0 sub PSL_dx 2 mul add PSL_dim_x0 PSL_dx sub PSL_dim_d PSL_dy sub Sb
U
2527 2009 M (790.0) ml Z
V
(820.0) V MU 0 0 M E /PSL_dim_w edef FP pathbbox N /PSL_dim_h edef /PSL_dim_x1 edef /PSL_dim_d edef /PSL_dim_x0 edef U
/PSL_dx 17 def
/PSL_dy 17 def
3197 2057 T 0 PSL_dim_h -2 div T
PSL_dim_h PSL_dim_d sub PSL_dy 2 mul add PSL_dim_x1 PSL_dim_x0 sub PSL_dx 2 mul add PSL_dim_x0 PSL_dx sub PSL_dim_d PSL_dy sub Sb
U
3197 2057 M (820.0) ml Z
V
(855.0) V MU 0 0 M E /PSL_dim_w edef FP pathbbox N /PSL_dim_h edef /PSL_dim_x1 edef /PSL_dim_d edef /PSL_dim_x0 edef U
/PSL_dx 17 def
/PSL_dy 17 def
614 1531 T 0 PSL_dim_h -2 div T
PSL_dim_h PSL_dim_d sub PSL_dy 2 mul add PSL_dim_x1 PSL_dim_x0 sub PSL_dx 2 mul add PSL_dim_x0 PSL_dx sub PSL_dim_d PSL_dy sub Sb
U
614 1531 M (855.0) ml Z
V
(820.0) V MU 0 0 M E /PSL_dim_w edef FP pathbbox N /PSL_dim_h edef /PSL_dim_x1 edef /PSL_dim_d edef /PSL_dim_x0 edef U
/PSL_dx 17 def
/PSL_dy 17 def
1140 1291 T 0 PSL_dim_h -2 div T
PSL_dim_h PSL_dim_d sub PSL_dy 2 mul add PSL_dim_x1 PSL_dim_x0 sub PSL_dx 2 mul add PSL_dim_x0 PSL_dx sub PSL_dim_d PSL_dy sub Sb
U
1140 1291 M (820.0) ml Z
V
(827.0) V MU 0 0 M E /PSL_dim_w edef FP pathbbox N /PSL_dim_h edef /PSL_dim_x1 edef /PSL_dim_d edef /PSL_dim_x0 edef U
/PSL_dx 17 def
/PSL_dy 17 def
2336 1531 T 0 PSL_dim_h -2 div T
PSL_dim_h PSL_dim_d sub PSL_dy 2 mul add PSL_dim_x1 PSL_dim_x0 sub PSL_dx 2 mul add PSL_dim_x0 PSL_dx sub PSL_dim_d PSL_dy sub Sb
U
2336 1531 M (827.0) ml Z
V
(805.0) V MU 0 0 M E /PSL_dim_w edef FP pathbbox N /PSL_dim_h edef /PSL_dim_x1 edef /PSL_dim_d edef /PSL_dim_x0 edef U
/PSL_dx 17 def
/PSL_dy 17 def
2671 1531 T 0 PSL_dim_h -2 div T
PSL_dim_h PSL_dim_d sub PSL_dy 2 mul add PSL_dim_x1 PSL_dim_x0 sub PSL_dx 2 mul add PSL_dim_x0 PSL_dx sub PSL_dim_d PSL_dy sub Sb
U
2671 1531 M (805.0) ml Z
V
(835.0) V MU 0 0 M E /PSL_dim_w edef FP pathbbox N /PSL_dim_h edef /PSL_dim_x1 edef /PSL_dim_d edef /PSL_dim_x0 edef U
/PSL_dx 17 def
/PSL_dy 17 def
3053 1531 T 0 PSL_dim_h -2 div T
PSL_dim_h PSL_dim_d sub PSL_dy 2 mul add PSL_dim_x1 PSL_dim_x0 sub PSL_dx 2 mul add PSL_dim_x0 PSL_dx sub PSL_dim_d PSL_dy sub Sb
U
3053 1531 M (835.0) ml Z
V
(890.0) V MU 0 0 M E /PSL_dim_w edef FP pathbbox N /PSL_dim_h edef /PSL_dim_x1 edef /PSL_dim_d edef /PSL_dim_x0 edef U
/PSL_dx 17 def
/PSL_dy 17 def
327 1148 T 0 PSL_dim_h -2 div T
PSL_dim_h PSL_dim_d sub PSL_dy 2 mul add PSL_dim_x1 PSL_dim_x0 sub PSL_dx 2 mul add PSL_dim_x0 PSL_dx sub PSL_dim_d PSL_dy sub Sb
U
327 1148 M (890.0) ml Z
V
(873.0) V MU 0 0 M E /PSL_dim_w edef FP pathbbox N /PSL_dim_h edef /PSL_dim_x1 edef /PSL_dim_d edef /PSL_dim_x0 edef U
/PSL_dx 17 def
/PSL_dy 17 def
470 813 T 0 PSL_dim_h -2 div T
PSL_dim_h PSL_dim_d sub PSL_dy 2 mul add PSL_dim_x1 PSL_dim_x0 sub PSL_dx 2 mul add PSL_dim_x0 PSL_dx sub PSL_dim_d PSL_dy sub Sb
U
470 813 M (873.0) ml Z
V
(853.0) V MU 0 0 M E /PSL_dim_w edef FP pathbbox N /PSL_dim_h edef /PSL_dim_x1 edef /PSL_dim_d edef /PSL_dim_x0 edef U
/PSL_dx 17 def
/PSL_dy 17 def
1044 861 T 0 PSL_dim_h -2 div T
PSL_dim_h PSL_dim_d sub PSL_dy 2 mul add PSL_dim_x1 PSL_dim_x0 sub PSL_dx 2 mul add PSL_dim_x0 PSL_dx sub PSL_dim_d PSL_dy sub Sb
U
1044 861 M (853.0) ml Z
V
(864.0) V MU 0 0 M E /PSL_dim_w edef FP pathbbox N /PSL_dim_h edef /PSL_dim_x1 edef /PSL_dim_d edef /PSL_dim_x0 edef U
/PSL_dx 17 def
/PSL_dy 17 def
2168 981 T 0 PSL_dim_h -2 div T
PSL_dim_h PSL_dim_d sub PSL_dy 2 mul add PSL_dim_x1 PSL_dim_x0 sub PSL_dx 2 mul add PSL_dim_x0 PSL_dx sub PSL_dim_d PSL_dy sub Sb
U
2168 981 M (864.0) ml Z
V
(862.5) V MU 0 0 M E /PSL_dim_w edef FP pathbbox N /PSL_dim_h edef /PSL_dim_x1 edef /PSL_dim_d edef /PSL_dim_x0 edef U
/PSL_dx 17 def
/PSL_dy 17 def
3005 933 T 0 PSL_dim_h -2 div T
PSL_dim_h PSL_dim_d sub PSL_dy 2 mul add PSL_dim_x1 PSL_dim_x0 sub PSL_dx 2 mul add PSL_dim_x0 PSL_dx sub PSL_dim_d PSL_dy sub Sb
U
3005 933 M (862.5) ml Z
V
(915.0) V MU 0 0 M E /PSL_dim_w edef FP pathbbox N /PSL_dim_h edef /PSL_dim_x1 edef /PSL_dim_d edef /PSL_dim_x0 edef U
/PSL_dx 17 def
/PSL_dy 17 def
853 287 T 0 PSL_dim_h -2 div T
PSL_dim_h PSL_dim_d sub PSL_dy 2 mul add PSL_dim_x1 PSL_dim_x0 sub PSL_dx 2 mul add PSL_dim_x0 PSL_dx sub PSL_dim_d PSL_dy sub Sb
U
853 287 M (915.0) ml Z
V
(871.0) V MU 0 0 M E /PSL_dim_w edef FP pathbbox N /PSL_dim_h edef /PSL_dim_x1 edef /PSL_dim_d edef /PSL_dim_x0 edef U
/PSL_dx 17 def
/PSL_dy 17 def
1188 430 T 0 PSL_dim_h -2 div T
PSL_dim_h PSL_dim_d sub PSL_dy 2 mul add PSL_dim_x1 PSL_dim_x0 sub PSL_dx 2 mul add PSL_dim_x0 PSL_dx sub PSL_dim_d PSL_dy sub Sb
U
1188 430 M (871.0) ml Z
V
(908.0) V MU 0 0 M E /PSL_dim_w edef FP pathbbox N /PSL_dim_h edef /PSL_dim_x1 edef /PSL_dim_d edef /PSL_dim_x0 edef U
/PSL_dx 17 def
/PSL_dy 17 def
1666 526 T 0 PSL_dim_h -2 div T
PSL_dim_h PSL_dim_d sub PSL_dy 2 mul add PSL_dim_x1 PSL_dim_x0 sub PSL_dx 2 mul add PSL_dim_x0 PSL_dx sub PSL_dim_d PSL_dy sub Sb
U
1666 526 M (908.0) ml Z
V
(960.0) V MU 0 0 M E /PSL_dim_w edef FP pathbbox N /PSL_dim_h edef /PSL_dim_x1 edef /PSL_dim_d edef /PSL_dim_x0 edef U
/PSL_dx 17 def
/PSL_dy 17 def
2144 383 T 0 PSL_dim_h -2 div T
PSL_dim_h PSL_dim_d sub PSL_dy 2 mul add PSL_dim_x1 PSL_dim_x0 sub PSL_dx 2 mul add PSL_dim_x0 PSL_dx sub PSL_dim_d PSL_dy sub Sb
U
2144 383 M (960.0) ml Z
V
(896.0) V MU 0 0 M E /PSL_dim_w edef FP pathbbox N /PSL_dim_h edef /PSL_dim_x1 edef /PSL_dim_d edef /PSL_dim_x0 edef U
/PSL_dx 17 def
/PSL_dy 17 def
3029 478 T 0 PSL_dim_h -2 div T
PSL_dim_h PSL_dim_d sub PSL_dy 2 mul add PSL_dim_x1 PSL_dim_x0 sub PSL_dx 2 mul add PSL_dim_x0 PSL_dx sub PSL_dim_d PSL_dy sub Sb
U
3029 478 M (896.0) ml Z
V
(940.0) V MU 0 0 M E /PSL_dim_w edef FP pathbbox N /PSL_dim_h edef /PSL_dim_x1 edef /PSL_dim_d edef /PSL_dim_x0 edef U
/PSL_dx 17 def
/PSL_dy 17 def
375 239 T 0 PSL_dim_h -2 div T
PSL_dim_h PSL_dim_d sub PSL_dy 2 mul add PSL_dim_x1 PSL_dim_x0 sub PSL_dx 2 mul add PSL_dim_x0 PSL_dx sub PSL_dim_d PSL_dy sub Sb
U
375 239 M (940.0) ml Z
V
(890.0) V MU 0 0 M E /PSL_dim_w edef FP pathbbox N /PSL_dim_h edef /PSL_dim_x1 edef /PSL_dim_d edef /PSL_dim_x0 edef U
/PSL_dx 17 def
/PSL_dy 17 def
853 48 T 0 PSL_dim_h -2 div T
PSL_dim_h PSL_dim_d sub PSL_dy 2 mul add PSL_dim_x1 PSL_dim_x0 sub PSL_dx 2 mul add PSL_dim_x0 PSL_dx sub PSL_dim_d PSL_dy sub Sb
U
853 48 M (890.0) ml Z
V
(870.0) V MU 0 0 M E /PSL_dim_w edef FP pathbbox N /PSL_dim_h edef /PSL_dim_x1 edef /PSL_dim_d edef /PSL_dim_x0 edef U
/PSL_dx 17 def
/PSL_dy 17 def
1283 143 T 0 PSL_dim_h -2 div T
PSL_dim_h PSL_dim_d sub PSL_dy 2 mul add PSL_dim_x1 PSL_dim_x0 sub PSL_dx 2 mul add PSL_dim_x0 PSL_dx sub PSL_dim_d PSL_dy sub Sb
U
1283 143 M (870.0) ml Z
V
(880.0) V MU 0 0 M E /PSL_dim_w edef FP pathbbox N /PSL_dim_h edef /PSL_dim_x1 edef /PSL_dim_d edef /PSL_dim_x0 edef U
/PSL_dx 17 def
/PSL_dy 17 def
1666 0 T 0 PSL_dim_h -2 div T
PSL_dim_h PSL_dim_d sub PSL_dy 2 mul add PSL_dim_x1 PSL_dim_x0 sub PSL_dx 2 mul add PSL_dim_x0 PSL_dx sub PSL_dim_d PSL_dy sub Sb
U
1666 0 M (880.0) ml Z
V
(890.0) V MU 0 0 M E /PSL_dim_w edef FP pathbbox N /PSL_dim_h edef /PSL_dim_x1 edef /PSL_dim_d edef /PSL_dim_x0 edef U
/PSL_dx 17 def
/PSL_dy 17 def
2766 191 T 0 PSL_dim_h -2 div T
PSL_dim_h PSL_dim_d sub PSL_dy 2 mul add PSL_dim_x1 PSL_dim_x0 sub PSL_dx 2 mul add PSL_dim_x0 PSL_dx sub PSL_dim_d PSL_dy sub Sb
U
2766 191 M (890.0) ml Z
V
(860.0) V MU 0 0 M E /PSL_dim_w edef FP pathbbox N /PSL_dim_h edef /PSL_dim_x1 edef /PSL_dim_d edef /PSL_dim_x0 edef U
/PSL_dx 17 def
/PSL_dy 17 def
3053 48 T 0 PSL_dim_h -2 div T
PSL_dim_h PSL_dim_d sub PSL_dy 2 mul add PSL_dim_x1 PSL_dim_x0 sub PSL_dx 2 mul add PSL_dim_x0 PSL_dx sub PSL_dim_d PSL_dy sub Sb
U
3053 48 M (860.0) ml Z
%%EndObject
-3738 -3738 TM
PSL_plot_completion /PSL_plot_completion {} def
0 A
FQ
O0
0 0 TM
% PostScript produced by:
%@GMT: gmt grdcontour data.nc -C25 -A50 -Gd8c -S4 -BWenS -Bxaf -Byaf -Xa0i -Ya0i -R0/7/0/7 -JX15c/15c
%@PROJ: xy 0.00000000 7.00000000 0.00000000 7.00000000 0.000 7.000 0.000 7.000 +xy
%%BeginObject PSL_Layer_4
0 setlinecap
0 setlinejoin
3.32550952342 setmiterlimit
0 A
clipsave
0 0 M
3348 0 D
0 3348 D
-3348 0 D
P
PSL_clip N
V
/PSL_setboxpen {4 W 0 A 1 1 /Normal PSL_transp [] 0 B} def
/PSL_setboxrgb {1 A} def
/PSL_path_pen [
PSL_font_encode 0 get 0 eq {ISOLatin1+_Encoding /Helvetica /Helvetica PSL_reencode PSL_font_encode 0 1 put} if
	(4 W 0 A \[\] 0 B)
	(12 W 0 A \[\] 0 B)
	(4 W 0 A \[\] 0 B)
	(12 W 0 A \[\] 0 B)
	(4 W 0 A \[\] 0 B)
	(12 W 0 A \[\] 0 B)
	(12 W 0 A \[\] 0 B)
	(4 W 0 A \[\] 0 B)
	(4 W 0 A \[\] 0 B)
	(4 W 0 A \[\] 0 B)
	(4 W 0 A \[\] 0 B)
	(12 W 0 A \[\] 0 B)
	(12 W 0 A \[\] 0 B)
	(4 W 0 A \[\] 0 B)
	(4 W 0 A \[\] 0 B)
	(12 W 0 A \[\] 0 B)
] def
/PSL_label_justify [ 6 6 ] def
/PSL_label_font [
	(0 A 150 F0)
	(0 A 150 F0)
] def
/PSL_gap_x 22 def
/PSL_gap_y 22 def
/PSL_label_angle [ 277.01 12.73 ] def
/PSL_label_str [
	(800)
	(850)
] def
/PSL_label_n [ 0 0 0 1 0 1 0 0 0 0 
	0 0 0 0 0 0 ] def
/PSL_n_paths 16 def
/PSL_n_labels 2 def
/PSL_txt_x [ 703 1521 ] def
/PSL_txt_y [ 2239 1065 ] def
/PSL_txt_n [ 2 ] def
PSL_set_label_heights
2 PSL_straight_path_labels
V
4 PSL_straight_path_clip
PSL_path_pen 0 get cvx exec
2049 3348 M
0 -83 D
-2 -81 D
-8 -80 D
-12 -79 D
-16 -78 D
-20 -79 D
-29 -75 D
-49 -71 D
-61 -3 D
-417 0 D
-40 72 D
-24 79 D
-15 77 D
-25 158 D
-8 80 D
-5 81 D
0 82 D
S
PSL_path_pen 1 get cvx exec
2326 3348 M
-19 -90 D
-21 -89 D
-25 -88 D
-57 -173 D
-33 -85 D
-35 -84 D
-39 -82 D
-42 -80 D
-45 -80 D
-65 -105 D
-32 -33 D
-13 -10 D
-85 -51 D
-93 -34 D
-287 0 D
-59 47 D
-54 77 D
-38 85 D
-36 85 D
-32 85 D
-30 85 D
-27 87 D
-47 177 D
-43 177 D
-19 89 D
-17 90 D
S
PSL_path_pen 2 get cvx exec
2580 3348 M
-75 -172 D
-36 -86 D
-67 -175 D
-88 -266 D
-94 -265 D
-45 -80 D
-61 -69 D
-73 -62 D
-159 -117 D
-88 -56 D
-93 -46 D
-95 -17 D
-171 0 D
-84 46 D
-77 56 D
-72 66 D
-65 75 D
-54 82 D
-42 87 D
-28 91 D
-24 90 D
-83 365 D
-45 182 D
-73 271 D
S
PSL_path_pen 3 get cvx exec
2828 3348 M
-75 -198 D
-110 -299 D
-70 -200 D
-86 -259 D
0 -148 D
7 -107 D
3 -108 D
0 -116 D
-46 -87 D
-59 -45 D
-33 -11 D
-106 -20 D
-107 -2 D
-106 1 D
-105 -7 D
-22 -4 D
-80 -20 D
-101 -32 D
-102 -35 D
-102 -31 D
-93 -20 D
-112 0 D
-104 4 D
-104 27 D
-104 42 D
-54 28 D
-48 27 D
-90 67 D
-60 85 D
-10 33 D
-30 176 D
-16 150 D
-14 166 D
-20 317 D
-13 148 D
-8 63 D
-17 105 D
-21 104 D
-51 206 D
S
PSL_path_pen 4 get cvx exec
3071 3348 M
-47 -170 D
-26 -85 D
-28 -83 D
-52 -140 D
-48 -111 D
-73 -160 D
-34 -83 D
-24 -82 D
-7 -42 D
0 -41 D
22 -82 D
43 -82 D
47 -81 D
43 -80 D
49 -77 D
13 -36 D
-5 -42 D
-46 -79 D
-28 -40 D
-74 -112 D
-50 -70 D
-56 -66 D
-70 -69 D
-69 -50 D
-81 -37 D
-78 -16 D
-96 0 D
-88 10 D
-176 27 D
-119 1 D
-231 -32 D
-175 -26 D
-87 -11 D
-89 -17 D
-89 -7 D
-285 0 D
-52 41 D
-50 75 D
-32 42 D
-209 215 D
-136 136 D
-69 40 D
-85 45 D
-18 42 D
1 35 D
8 87 D
11 87 D
28 176 D
22 175 D
31 263 D
14 134 D
0 129 D
-8 87 D
-17 88 D
-21 87 D
-23 87 D
S
PSL_path_pen 5 get cvx exec
3313 3348 M
-19 -96 D
-44 -192 D
-47 -190 D
-27 -94 D
-31 -94 D
-66 -187 D
-27 -92 D
-2 -11 D
2 -80 D
42 -90 D
129 -176 D
43 -88 D
6 -45 D
0 -45 D
-8 -94 D
-18 -96 D
-30 -96 D
-44 -95 D
-32 -52 D
-27 -39 D
-63 -78 D
-71 -64 D
-83 -52 D
-26 -12 D
-69 -28 D
-96 -29 D
-96 -20 D
-96 -13 D
-121 -6 D
-74 4 D
-98 15 D
-97 18 D
-98 10 D
-112 0 D
-82 -13 D
-193 -37 D
-191 -44 D
-96 -24 D
-239 -66 D
-43 -20 D
-88 -51 D
-24 -3 D
-59 31 D
-41 43 D
-30 34 D
-62 80 D
-57 80 D
-110 160 D
-58 77 D
-40 47 D
-26 25 D
-74 64 D
-77 61 D
-78 59 D
-80 57 D
-82 55 D
-83 53 D
S
PSL_path_pen 6 get cvx exec
158 3348 M
33 -88 D
29 -88 D
16 -87 D
0 -215 D
-63 -210 D
-83 -251 D
-59 -166 D
-31 -82 D
S
PSL_path_pen 7 get cvx exec
933 0 M
0 433 D
-17 45 D
-17 19 D
-62 56 D
-66 52 D
-136 101 D
-67 52 D
-62 56 D
-28 28 D
-85 96 D
-16 19 D
-36 47 D
-48 69 D
-131 216 D
-46 70 D
-50 68 D
-7 8 D
-59 43 D
S
PSL_path_pen 8 get cvx exec
1123 0 M
-84 129 D
-39 119 D
0 230 D
56 55 D
86 74 D
93 65 D
99 59 D
106 52 D
108 50 D
109 46 D
109 34 D
111 13 D
36 0 D
77 -6 D
113 -13 D
289 -46 D
163 -32 D
224 -45 D
91 -15 D
249 0 D
114 10 D
115 21 D
S
PSL_path_pen 9 get cvx exec
2708 0 M
162 209 D
478 41 D
S
PSL_path_pen 10 get cvx exec
0 3152 M
50 -282 D
-50 -133 D
S
PSL_path_pen 11 get cvx exec
601 0 M
0 390 D
-19 61 D
-23 27 D
-28 25 D
-57 47 D
-200 218 D
-97 112 D
-62 77 D
-74 99 D
-41 62 D
S
PSL_path_pen 12 get cvx exec
1640 0 M
-33 82 D
-37 79 D
-40 78 D
-95 174 D
-50 49 D
-2 16 D
52 37 D
76 49 D
151 100 D
76 44 D
78 34 D
79 22 D
18 3 D
63 0 D
83 -10 D
84 -25 D
85 -33 D
84 -36 D
84 -33 D
82 -30 D
81 -32 D
80 -34 D
78 -38 D
33 -18 D
0 -146 D
-20 -74 D
-82 -81 D
-100 -86 D
-109 -91 D
S
PSL_path_pen 13 get cvx exec
334 0 M
-95 478 D
-239 278 D
S
PSL_path_pen 14 get cvx exec
1876 0 M
-92 103 D
-79 95 D
-25 87 D
0 193 D
40 36 D
82 57 D
84 33 D
27 5 D
59 0 D
90 -21 D
90 -41 D
86 -56 D
17 -13 D
0 -200 D
-59 -84 D
-97 -92 D
-110 -102 D
S
PSL_path_pen 15 get cvx exec
105 0 M
-105 320 D
S
PSL_cliprestore
U
[] 0 B
U
PSL_cliprestore
24 W
0 A
/PSL_slant_y 0 def /PSL_slant_x 0 def
2 setlinecap
N 0 3348 M 0 -3348 D S
/PSL_A0_y 64 def
/PSL_A1_y 0 def
8 W
N 0 0 M -64 0 D S
N 0 957 M -64 0 D S
N 0 1913 M -64 0 D S
N 0 2870 M -64 0 D S
/MM {neg exch M} def
/PSL_AH0 0
161 F0
(0) sw mx
(2) sw mx
(4) sw mx
(6) sw mx
def
/PSL_A0_y PSL_A0_y 48 add def
0 PSL_A0_y MM
(0) mr Z
957 PSL_A0_y MM
(2) mr Z
1913 PSL_A0_y MM
(4) mr Z
2870 PSL_A0_y MM
(6) mr Z
/PSL_A0_y PSL_A0_y PSL_AH0 add def
N 0 478 M -32 0 D S
N 0 1435 M -32 0 D S
N 0 2392 M -32 0 D S
N 0 3348 M -32 0 D S
/PSL_LH 0 def /PSL_L_y PSL_A0_y PSL_A1_y mx def
3348 0 T
24 W
N 0 3348 M 0 -3348 D S
/PSL_A0_y 64 def
/PSL_A1_y 0 def
8 W
N 0 0 M 64 0 D S
N 0 957 M 64 0 D S
N 0 1913 M 64 0 D S
N 0 2870 M 64 0 D S
N 0 478 M 32 0 D S
N 0 1435 M 32 0 D S
N 0 2392 M 32 0 D S
N 0 3348 M 32 0 D S
/PSL_LH 0 def /PSL_L_y PSL_A0_y PSL_A1_y mx def
-3348 0 T
24 W
N 0 0 M 3348 0 D S
/PSL_A0_y 64 def
/PSL_A1_y 0 def
8 W
N 0 0 M 0 -64 D S
N 957 0 M 0 -64 D S
N 1913 0 M 0 -64 D S
N 2870 0 M 0 -64 D S
/MM {neg M} def
/PSL_AH0 0
(0) sh mx
(2) sh mx
(4) sh mx
(6) sh mx
def
/PSL_A0_y PSL_A0_y 48 add PSL_AH0 add def
0 PSL_A0_y MM
(0) bc Z
957 PSL_A0_y MM
(2) bc Z
1913 PSL_A0_y MM
(4) bc Z
2870 PSL_A0_y MM
(6) bc Z
N 478 0 M 0 -32 D S
N 1435 0 M 0 -32 D S
N 2392 0 M 0 -32 D S
N 3348 0 M 0 -32 D S
/PSL_LH 0 def /PSL_L_y PSL_A0_y PSL_A1_y mx def
0 3348 T
24 W
N 0 0 M 3348 0 D S
/PSL_A0_y 64 def
/PSL_A1_y 0 def
8 W
N 0 0 M 0 64 D S
N 957 0 M 0 64 D S
N 1913 0 M 0 64 D S
N 2870 0 M 0 64 D S
N 478 0 M 0 32 D S
N 1435 0 M 0 32 D S
N 2392 0 M 0 32 D S
N 3348 0 M 0 32 D S
/PSL_LH 0 def /PSL_L_y PSL_A0_y PSL_A1_y mx def
0 -3348 T
0 setlinecap
%%EndObject
0 0 TM
0 A
FQ
O0
0 0 TM
% PostScript produced by:
%@GMT: gmt plot mean.xyz -Ss0.12c -Gblack -Xa0i -Ya0i -R0/7/0/7 -JX15c/15c
%@PROJ: xy 0.00000000 7.00000000 0.00000000 7.00000000 0.000 7.000 0.000 7.000 +xy
%%BeginObject PSL_Layer_5
0 setlinecap
0 setlinejoin
3.32550952342 setmiterlimit
clipsave
0 0 M
3348 0 D
0 3348 D
-3348 0 D
P
PSL_clip N
V
4 W
{0 A} FS
28 143 2918 Ss
28 670 2965 Ss
28 1148 2918 Ss
28 1626 2726 Ss
28 1722 2918 Ss
28 2296 2678 Ss
28 2726 2965 Ss
28 933 2392 Ss
28 1507 2487 Ss
28 1961 2200 Ss
28 2535 2392 Ss
28 2965 2487 Ss
28 96 2057 Ss
28 430 2009 Ss
28 1052 1929 Ss
28 1435 2152 Ss
28 1722 1913 Ss
28 2344 2009 Ss
28 3013 2057 Ss
28 430 1531 Ss
28 957 1291 Ss
28 2152 1531 Ss
28 2487 1531 Ss
28 2870 1531 Ss
28 143 1148 Ss
28 287 813 Ss
28 861 861 Ss
28 1985 981 Ss
28 2822 933 Ss
28 670 287 Ss
28 1004 430 Ss
28 1483 526 Ss
28 1961 383 Ss
28 2846 478 Ss
28 191 239 Ss
28 670 48 Ss
28 1100 143 Ss
28 1483 0 Ss
28 2583 191 Ss
28 2870 48 Ss
U
PSL_cliprestore
%%EndObject
0 0 TM
PSL_plot_completion /PSL_plot_completion {} def
0 A
FQ
O0
3738 0 TM
% PostScript produced by:
%@GMT: gmt grdcontour trend.nc -C25 -A50 -Glct/cb -S4 -BWenS -Bxaf -Byaf -Xa3.1154i -Ya0i -R0/7/0/7 -JX15c/15c
%@PROJ: xy 0.00000000 7.00000000 0.00000000 7.00000000 0.000 7.000 0.000 7.000 +xy
%%BeginObject PSL_Layer_4
0 setlinecap
0 setlinejoin
3.32550952342 setmiterlimit
0 A
clipsave
0 0 M
3348 0 D
0 3348 D
-3348 0 D
P
PSL_clip N
V
/PSL_setboxpen {4 W 0 A 1 1 /Normal PSL_transp [] 0 B} def
/PSL_setboxrgb {1 A} def
/PSL_path_pen [
PSL_font_encode 0 get 0 eq {ISOLatin1+_Encoding /Helvetica /Helvetica PSL_reencode PSL_font_encode 0 1 put} if
	(4 W 0 A \[\] 0 B)
	(12 W 0 A \[\] 0 B)
	(4 W 0 A \[\] 0 B)
	(12 W 0 A \[\] 0 B)
	(4 W 0 A \[\] 0 B)
	(12 W 0 A \[\] 0 B)
	(4 W 0 A \[\] 0 B)
	(4 W 0 A \[\] 0 B)
	(4 W 0 A \[\] 0 B)
	(12 W 0 A \[\] 0 B)
	(4 W 0 A \[\] 0 B)
] def
/PSL_label_justify [ 6 6 6 6 ] def
/PSL_label_font [
	(0 A 150 F0)
	(0 A 150 F0)
	(0 A 150 F0)
	(0 A 150 F0)
] def
/PSL_gap_x 22 def
/PSL_gap_y 22 def
/PSL_label_angle [ 18.65 11.51 7.83 359.07 ] def
/PSL_label_str [
	(750)
	(800)
	(850)
	(900)
] def
/PSL_label_n [ 0 1 0 1 0 1 0 0 0 1 
	0 ] def
/PSL_n_paths 11 def
/PSL_n_labels 4 def
/PSL_txt_x [ 1674 1674 1674 1674 ] def
/PSL_txt_y [ 2432 1674 1006 180 ] def
/PSL_txt_n [ 4 ] def
PSL_set_label_heights
2 PSL_straight_path_labels
V
4 PSL_straight_path_clip
PSL_path_pen 0 get cvx exec
1465 3348 M
-30 -28 D
-7 28 D
S
PSL_path_pen 1 get cvx exec
2255 3348 M
-6 -103 D
-13 -99 D
-21 -95 D
-31 -93 D
-39 -90 D
-48 -86 D
-57 -77 D
-68 -73 D
-59 -53 D
-21 -17 D
-90 -64 D
-94 -53 D
-95 -36 D
-94 -11 D
-89 1 D
-86 28 D
-84 43 D
-80 57 D
-77 69 D
-73 79 D
-73 96 D
-32 84 D
-2 15 D
0 378 D
5 100 D
S
PSL_path_pen 2 get cvx exec
2568 3348 M
0 -200 D
-2 -98 D
-16 -96 D
-20 -84 D
-36 -104 D
-39 -90 D
-46 -88 D
-17 -28 D
-37 -55 D
-60 -77 D
-69 -72 D
-71 -66 D
-75 -61 D
-80 -55 D
-89 -53 D
-94 -46 D
-95 -35 D
-96 -24 D
-96 -14 D
-95 -6 D
-94 4 D
-94 17 D
-93 29 D
-93 43 D
-91 60 D
-13 10 D
-67 61 D
-55 78 D
-45 94 D
-37 88 D
-34 94 D
-27 94 D
-20 95 D
-15 107 D
0 184 D
8 97 D
18 98 D
25 99 D
S
PSL_path_pen 3 get cvx exec
2828 3348 M
-1 -478 D
-30 -133 D
-25 -84 D
-29 -82 D
-35 -82 D
-50 -97 D
-36 -62 D
-48 -74 D
-52 -70 D
-57 -66 D
-73 -72 D
-57 -47 D
-71 -52 D
-73 -48 D
-74 -47 D
-74 -43 D
-79 -41 D
-84 -37 D
-86 -31 D
-86 -22 D
-86 -16 D
-86 -11 D
-101 -8 D
-71 0 D
-86 3 D
-86 12 D
-86 21 D
-86 32 D
-63 31 D
-22 13 D
-72 53 D
-60 61 D
-36 42 D
-76 97 D
-52 71 D
-49 72 D
-45 74 D
-41 78 D
-26 56 D
-8 26 D
-27 175 D
-11 88 D
-4 87 D
0 133 D
12 130 D
9 87 D
29 206 D
10 55 D
S
PSL_path_pen 4 get cvx exec
3039 3348 M
16 -92 D
11 -91 D
8 -91 D
1 -204 D
-4 -70 D
-9 -91 D
-13 -90 D
-18 -90 D
-23 -90 D
-30 -89 D
-35 -84 D
-42 -82 D
-31 -56 D
-64 -100 D
-55 -74 D
-60 -71 D
-63 -68 D
-66 -63 D
-71 -59 D
-75 -52 D
-81 -45 D
-81 -42 D
-165 -78 D
-90 -41 D
-86 -36 D
-81 -27 D
-90 -22 D
-90 -17 D
-181 -20 D
-36 -2 D
-146 0 D
-91 3 D
-91 16 D
-90 26 D
-60 25 D
-28 14 D
-148 109 D
-72 55 D
-71 58 D
-68 61 D
-64 66 D
-28 34 D
-27 42 D
-37 93 D
-27 79 D
-27 88 D
-25 88 D
-22 89 D
-18 90 D
-13 91 D
-7 92 D
0 340 D
11 117 D
12 90 D
15 91 D
18 90 D
22 90 D
S
PSL_path_pen 5 get cvx exec
3241 3348 M
24 -105 D
20 -106 D
15 -106 D
11 -106 D
4 -55 D
0 -266 D
-6 -108 D
-12 -107 D
-17 -106 D
-24 -104 D
-31 -102 D
-39 -101 D
-30 -63 D
-19 -36 D
-56 -93 D
-62 -87 D
-69 -81 D
-75 -78 D
-81 -71 D
-87 -63 D
-89 -59 D
-91 -56 D
-94 -52 D
-98 -46 D
-99 -41 D
-101 -36 D
-102 -31 D
-120 -32 D
-90 -20 D
-106 -19 D
-106 -15 D
-176 -15 D
-143 0 D
-107 5 D
-107 17 D
-121 30 D
-90 30 D
-99 44 D
-93 53 D
-87 63 D
-80 74 D
-30 33 D
-39 53 D
-29 51 D
-71 139 D
-46 96 D
-43 97 D
-39 100 D
-34 104 D
-27 105 D
-20 105 D
-14 106 D
-9 107 D
0 322 D
9 107 D
14 106 D
17 105 D
21 106 D
25 104 D
28 104 D
S
PSL_path_pen 6 get cvx exec
3114 0 M
226 478 D
8 78 D
S
PSL_path_pen 7 get cvx exec
3348 1037 M
-87 -41 D
-90 -33 D
-93 -21 D
-95 -15 D
-94 -18 D
-93 -25 D
-92 -27 D
-183 -57 D
-129 -36 D
-150 -35 D
-187 -38 D
-190 -33 D
-191 -22 D
-239 -16 D
-143 0 D
-95 6 D
-96 12 D
-95 17 D
-96 22 D
-93 29 D
-89 36 D
-86 44 D
-80 54 D
-74 65 D
-10 10 D
-49 66 D
-108 159 D
-103 162 D
-77 133 D
-17 33 D
-40 88 D
-32 90 D
-28 92 D
-24 94 D
S
PSL_path_pen 8 get cvx exec
90 3348 M
-90 -368 D
S
PSL_path_pen 9 get cvx exec
2476 0 M
-55 70 D
-29 16 D
-50 16 D
-84 23 D
-84 20 D
-85 15 D
-85 11 D
-91 6 D
-81 3 D
-258 0 D
-172 5 D
-171 13 D
-86 10 D
-85 12 D
-103 17 D
-68 15 D
-86 23 D
-83 30 D
-80 39 D
-73 47 D
-65 57 D
-27 30 D
-371 479 D
-24 34 D
-42 75 D
-38 78 D
S
PSL_path_pen 10 get cvx exec
376 0 M
-350 478 D
-26 37 D
S
PSL_cliprestore
U
[] 0 B
U
PSL_cliprestore
24 W
0 A
/PSL_slant_y 0 def /PSL_slant_x 0 def
2 setlinecap
N 0 3348 M 0 -3348 D S
/PSL_A0_y 64 def
/PSL_A1_y 0 def
8 W
N 0 0 M -64 0 D S
N 0 957 M -64 0 D S
N 0 1913 M -64 0 D S
N 0 2870 M -64 0 D S
/MM {neg exch M} def
/PSL_AH0 0
161 F0
(0) sw mx
(2) sw mx
(4) sw mx
(6) sw mx
def
/PSL_A0_y PSL_A0_y 48 add def
0 PSL_A0_y MM
(0) mr Z
957 PSL_A0_y MM
(2) mr Z
1913 PSL_A0_y MM
(4) mr Z
2870 PSL_A0_y MM
(6) mr Z
/PSL_A0_y PSL_A0_y PSL_AH0 add def
N 0 478 M -32 0 D S
N 0 1435 M -32 0 D S
N 0 2392 M -32 0 D S
N 0 3348 M -32 0 D S
/PSL_LH 0 def /PSL_L_y PSL_A0_y PSL_A1_y mx def
3348 0 T
24 W
N 0 3348 M 0 -3348 D S
/PSL_A0_y 64 def
/PSL_A1_y 0 def
8 W
N 0 0 M 64 0 D S
N 0 957 M 64 0 D S
N 0 1913 M 64 0 D S
N 0 2870 M 64 0 D S
N 0 478 M 32 0 D S
N 0 1435 M 32 0 D S
N 0 2392 M 32 0 D S
N 0 3348 M 32 0 D S
/PSL_LH 0 def /PSL_L_y PSL_A0_y PSL_A1_y mx def
-3348 0 T
24 W
N 0 0 M 3348 0 D S
/PSL_A0_y 64 def
/PSL_A1_y 0 def
8 W
N 0 0 M 0 -64 D S
N 957 0 M 0 -64 D S
N 1913 0 M 0 -64 D S
N 2870 0 M 0 -64 D S
/MM {neg M} def
/PSL_AH0 0
(0) sh mx
(2) sh mx
(4) sh mx
(6) sh mx
def
/PSL_A0_y PSL_A0_y 48 add PSL_AH0 add def
0 PSL_A0_y MM
(0) bc Z
957 PSL_A0_y MM
(2) bc Z
1913 PSL_A0_y MM
(4) bc Z
2870 PSL_A0_y MM
(6) bc Z
N 478 0 M 0 -32 D S
N 1435 0 M 0 -32 D S
N 2392 0 M 0 -32 D S
N 3348 0 M 0 -32 D S
/PSL_LH 0 def /PSL_L_y PSL_A0_y PSL_A1_y mx def
0 3348 T
24 W
N 0 0 M 3348 0 D S
/PSL_A0_y 64 def
/PSL_A1_y 0 def
8 W
N 0 0 M 0 64 D S
N 957 0 M 0 64 D S
N 1913 0 M 0 64 D S
N 2870 0 M 0 64 D S
N 478 0 M 0 32 D S
N 1435 0 M 0 32 D S
N 2392 0 M 0 32 D S
N 3348 0 M 0 32 D S
/PSL_LH 0 def /PSL_L_y PSL_A0_y PSL_A1_y mx def
0 -3348 T
0 setlinecap
%%EndObject
-3738 0 TM
0 A
FQ
O0
3738 0 TM
% PostScript produced by:
%@GMT: gmt plot track -Wthick,. -Xa3.1154i -Ya0i -R0/7/0/7 -JX15c/15c
%@PROJ: xy 0.00000000 7.00000000 0.00000000 7.00000000 0.000 7.000 0.000 7.000 +xy
%%BeginObject PSL_Layer_5
0 setlinecap
0 setlinejoin
3.32550952342 setmiterlimit
V
17 W
[17 67] 0 B
clipsave
0 0 M
3348 0 D
0 3348 D
-3348 0 D
P
PSL_clip N
0 0 M
3348 3348 D
S
PSL_cliprestore
U
[] 0 B
%%EndObject
-3738 0 TM
PSL_plot_completion /PSL_plot_completion {} def
grestore
PSL_movie_label_completion /PSL_movie_label_completion {} def
PSL_movie_prog_indicator_completion /PSL_movie_prog_indicator_completion {} def
%PSL_Begin_Trailer
%%PageTrailer
U
showpage
%%Trailer
end
%%EOF
